%!PS-Adobe-3.0 EPSF-3.0
%%Creator: (MATLAB, The Mathworks, Inc. Version 9.13.0.2049777 \(R2022b\). Operating System: Mac OS X)
%%Title: ../../Figure/Q4/pole_zero_map.eps
%%CreationDate: 2023-01-25T14:42:56
%%Pages: (atend)
%%BoundingBox:     0     2   527   395
%%LanguageLevel: 3
%%EndComments
%%BeginProlog
%%BeginResource: procset (Apache XML Graphics Std ProcSet) 1.2 0
%%Version: 1.2 0
%%Copyright: (Copyright 2001-2003,2010 The Apache Software Foundation. License terms: http://www.apache.org/licenses/LICENSE-2.0)
/bd{bind def}bind def
/ld{load def}bd
/GR/grestore ld
/GS/gsave ld
/RM/rmoveto ld
/C/curveto ld
/t/show ld
/L/lineto ld
/ML/setmiterlimit ld
/CT/concat ld
/f/fill ld
/N/newpath ld
/S/stroke ld
/CC/setcmykcolor ld
/A/ashow ld
/cp/closepath ld
/RC/setrgbcolor ld
/LJ/setlinejoin ld
/GC/setgray ld
/LW/setlinewidth ld
/M/moveto ld
/re {4 2 roll M
1 index 0 rlineto
0 exch rlineto
neg 0 rlineto
cp } bd
/_ctm matrix def
/_tm matrix def
/BT { _ctm currentmatrix pop matrix _tm copy pop 0 0 moveto } bd
/ET { _ctm setmatrix } bd
/iTm { _ctm setmatrix _tm concat } bd
/Tm { _tm astore pop iTm 0 0 moveto } bd
/ux 0.0 def
/uy 0.0 def
/F {
  /Tp exch def
  /Tf exch def
  Tf findfont Tp scalefont setfont
  /cf Tf def  /cs Tp def
} bd
/ULS {currentpoint /uy exch def /ux exch def} bd
/ULE {
  /Tcx currentpoint pop def
  gsave
  newpath
  cf findfont cs scalefont dup
  /FontMatrix get 0 get /Ts exch def /FontInfo get dup
  /UnderlinePosition get Ts mul /To exch def
  /UnderlineThickness get Ts mul /Tt exch def
  ux uy To add moveto  Tcx uy To add lineto
  Tt setlinewidth stroke
  grestore
} bd
/OLE {
  /Tcx currentpoint pop def
  gsave
  newpath
  cf findfont cs scalefont dup
  /FontMatrix get 0 get /Ts exch def /FontInfo get dup
  /UnderlinePosition get Ts mul /To exch def
  /UnderlineThickness get Ts mul /Tt exch def
  ux uy To add cs add moveto Tcx uy To add cs add lineto
  Tt setlinewidth stroke
  grestore
} bd
/SOE {
  /Tcx currentpoint pop def
  gsave
  newpath
  cf findfont cs scalefont dup
  /FontMatrix get 0 get /Ts exch def /FontInfo get dup
  /UnderlinePosition get Ts mul /To exch def
  /UnderlineThickness get Ts mul /Tt exch def
  ux uy To add cs 10 mul 26 idiv add moveto Tcx uy To add cs 10 mul 26 idiv add lineto
  Tt setlinewidth stroke
  grestore
} bd
/QT {
/Y22 exch store
/X22 exch store
/Y21 exch store
/X21 exch store
currentpoint
/Y21 load 2 mul add 3 div exch
/X21 load 2 mul add 3 div exch
/X21 load 2 mul /X22 load add 3 div
/Y21 load 2 mul /Y22 load add 3 div
/X22 load /Y22 load curveto
} bd
/SSPD {
dup length /d exch dict def
{
/v exch def
/k exch def
currentpagedevice k known {
/cpdv currentpagedevice k get def
v cpdv ne {
/upd false def
/nullv v type /nulltype eq def
/nullcpdv cpdv type /nulltype eq def
nullv nullcpdv or
{
/upd true def
} {
/sametype v type cpdv type eq def
sametype {
v type /arraytype eq {
/vlen v length def
/cpdvlen cpdv length def
vlen cpdvlen eq {
0 1 vlen 1 sub {
/i exch def
/obj v i get def
/cpdobj cpdv i get def
obj cpdobj ne {
/upd true def
exit
} if
} for
} {
/upd true def
} ifelse
} {
v type /dicttype eq {
v {
/dv exch def
/dk exch def
/cpddv cpdv dk get def
dv cpddv ne {
/upd true def
exit
} if
} forall
} {
/upd true def
} ifelse
} ifelse
} if
} ifelse
upd true eq {
d k v put
} if
} if
} if
} forall
d length 0 gt {
d setpagedevice
} if
} bd
/RE { % /NewFontName [NewEncodingArray] /FontName RE -
  findfont dup length dict begin
  {
    1 index /FID ne
    {def} {pop pop} ifelse
  } forall
  /Encoding exch def
  /FontName 1 index def
  currentdict definefont pop
  end
} bind def
%%EndResource
%%BeginResource: procset (Apache XML Graphics EPS ProcSet) 1.0 0
%%Version: 1.0 0
%%Copyright: (Copyright 2002-2003 The Apache Software Foundation. License terms: http://www.apache.org/licenses/LICENSE-2.0)
/BeginEPSF { %def
/b4_Inc_state save def         % Save state for cleanup
/dict_count countdictstack def % Count objects on dict stack
/op_count count 1 sub def      % Count objects on operand stack
userdict begin                 % Push userdict on dict stack
/showpage { } def              % Redefine showpage, { } = null proc
0 setgray 0 setlinecap         % Prepare graphics state
1 setlinewidth 0 setlinejoin
10 setmiterlimit [ ] 0 setdash newpath
/languagelevel where           % If level not equal to 1 then
{pop languagelevel             % set strokeadjust and
1 ne                           % overprint to their defaults.
{false setstrokeadjust false setoverprint
} if
} if
} bd
/EndEPSF { %def
count op_count sub {pop} repeat            % Clean up stacks
countdictstack dict_count sub {end} repeat
b4_Inc_state restore
} bd
%%EndResource
%FOPBeginFontDict
%%IncludeResource: font Courier-Oblique
%%IncludeResource: font Courier-BoldOblique
%%IncludeResource: font Courier-Bold
%%IncludeResource: font ZapfDingbats
%%IncludeResource: font Symbol
%%IncludeResource: font Helvetica
%%IncludeResource: font Helvetica-Oblique
%%IncludeResource: font Helvetica-Bold
%%IncludeResource: font Helvetica-BoldOblique
%%IncludeResource: font Times-Roman
%%IncludeResource: font Times-Italic
%%IncludeResource: font Times-Bold
%%IncludeResource: font Times-BoldItalic
%%IncludeResource: font Courier
%FOPEndFontDict
%%BeginResource: encoding WinAnsiEncoding
/WinAnsiEncoding [
/.notdef /.notdef /.notdef /.notdef /.notdef
/.notdef /.notdef /.notdef /.notdef /.notdef
/.notdef /.notdef /.notdef /.notdef /.notdef
/.notdef /.notdef /.notdef /.notdef /.notdef
/.notdef /.notdef /.notdef /.notdef /.notdef
/.notdef /.notdef /.notdef /.notdef /.notdef
/.notdef /.notdef /space /exclam /quotedbl
/numbersign /dollar /percent /ampersand /quotesingle
/parenleft /parenright /asterisk /plus /comma
/hyphen /period /slash /zero /one
/two /three /four /five /six
/seven /eight /nine /colon /semicolon
/less /equal /greater /question /at
/A /B /C /D /E
/F /G /H /I /J
/K /L /M /N /O
/P /Q /R /S /T
/U /V /W /X /Y
/Z /bracketleft /backslash /bracketright /asciicircum
/underscore /quoteleft /a /b /c
/d /e /f /g /h
/i /j /k /l /m
/n /o /p /q /r
/s /t /u /v /w
/x /y /z /braceleft /bar
/braceright /asciitilde /bullet /Euro /bullet
/quotesinglbase /florin /quotedblbase /ellipsis /dagger
/daggerdbl /circumflex /perthousand /Scaron /guilsinglleft
/OE /bullet /Zcaron /bullet /bullet
/quoteleft /quoteright /quotedblleft /quotedblright /bullet
/endash /emdash /asciitilde /trademark /scaron
/guilsinglright /oe /bullet /zcaron /Ydieresis
/space /exclamdown /cent /sterling /currency
/yen /brokenbar /section /dieresis /copyright
/ordfeminine /guillemotleft /logicalnot /sfthyphen /registered
/macron /degree /plusminus /twosuperior /threesuperior
/acute /mu /paragraph /middot /cedilla
/onesuperior /ordmasculine /guillemotright /onequarter /onehalf
/threequarters /questiondown /Agrave /Aacute /Acircumflex
/Atilde /Adieresis /Aring /AE /Ccedilla
/Egrave /Eacute /Ecircumflex /Edieresis /Igrave
/Iacute /Icircumflex /Idieresis /Eth /Ntilde
/Ograve /Oacute /Ocircumflex /Otilde /Odieresis
/multiply /Oslash /Ugrave /Uacute /Ucircumflex
/Udieresis /Yacute /Thorn /germandbls /agrave
/aacute /acircumflex /atilde /adieresis /aring
/ae /ccedilla /egrave /eacute /ecircumflex
/edieresis /igrave /iacute /icircumflex /idieresis
/eth /ntilde /ograve /oacute /ocircumflex
/otilde /odieresis /divide /oslash /ugrave
/uacute /ucircumflex /udieresis /yacute /thorn
/ydieresis
] def
%%EndResource
%FOPBeginFontReencode
/Courier-Oblique findfont
dup length dict begin
  {1 index /FID ne {def} {pop pop} ifelse} forall
  /Encoding WinAnsiEncoding def
  currentdict
end
/Courier-Oblique exch definefont pop
/Courier-BoldOblique findfont
dup length dict begin
  {1 index /FID ne {def} {pop pop} ifelse} forall
  /Encoding WinAnsiEncoding def
  currentdict
end
/Courier-BoldOblique exch definefont pop
/Courier-Bold findfont
dup length dict begin
  {1 index /FID ne {def} {pop pop} ifelse} forall
  /Encoding WinAnsiEncoding def
  currentdict
end
/Courier-Bold exch definefont pop
/Helvetica findfont
dup length dict begin
  {1 index /FID ne {def} {pop pop} ifelse} forall
  /Encoding WinAnsiEncoding def
  currentdict
end
/Helvetica exch definefont pop
/Helvetica-Oblique findfont
dup length dict begin
  {1 index /FID ne {def} {pop pop} ifelse} forall
  /Encoding WinAnsiEncoding def
  currentdict
end
/Helvetica-Oblique exch definefont pop
/Helvetica-Bold findfont
dup length dict begin
  {1 index /FID ne {def} {pop pop} ifelse} forall
  /Encoding WinAnsiEncoding def
  currentdict
end
/Helvetica-Bold exch definefont pop
/Helvetica-BoldOblique findfont
dup length dict begin
  {1 index /FID ne {def} {pop pop} ifelse} forall
  /Encoding WinAnsiEncoding def
  currentdict
end
/Helvetica-BoldOblique exch definefont pop
/Times-Roman findfont
dup length dict begin
  {1 index /FID ne {def} {pop pop} ifelse} forall
  /Encoding WinAnsiEncoding def
  currentdict
end
/Times-Roman exch definefont pop
/Times-Italic findfont
dup length dict begin
  {1 index /FID ne {def} {pop pop} ifelse} forall
  /Encoding WinAnsiEncoding def
  currentdict
end
/Times-Italic exch definefont pop
/Times-Bold findfont
dup length dict begin
  {1 index /FID ne {def} {pop pop} ifelse} forall
  /Encoding WinAnsiEncoding def
  currentdict
end
/Times-Bold exch definefont pop
/Times-BoldItalic findfont
dup length dict begin
  {1 index /FID ne {def} {pop pop} ifelse} forall
  /Encoding WinAnsiEncoding def
  currentdict
end
/Times-BoldItalic exch definefont pop
/Courier findfont
dup length dict begin
  {1 index /FID ne {def} {pop pop} ifelse} forall
  /Encoding WinAnsiEncoding def
  currentdict
end
/Courier exch definefont pop
%FOPEndFontReencode
%%EndProlog
%%Page: 1 1
%%PageBoundingBox: 0 0 560 420
%%BeginPageSetup
N
    0     2 M
  527     2 L
  527   397 L
    0   397 L
cp
clip
[1 0 0 -1 0 420] CT
%%EndPageSetup
GS
1 GC
N
0 0 560 420 re
f
GR
GS
1 GC
N
0 0 560 420 re
f
GR
GS
1 GC
N
78.5 367 M
507 367 L
507 31.5 L
78.5 31.5 L
cp
f
GR
GS
0.873 GC
1 LJ
0.5 LW
N
78.5 367 M
78.5 31.5 L
S
GR
GS
0.873 GC
1 LJ
0.5 LW
N
149.917 367 M
149.917 31.5 L
S
GR
GS
0.873 GC
1 LJ
0.5 LW
N
221.333 367 M
221.333 31.5 L
S
GR
GS
0.873 GC
1 LJ
0.5 LW
N
292.75 367 M
292.75 31.5 L
S
GR
GS
0.873 GC
1 LJ
0.5 LW
N
364.167 367 M
364.167 31.5 L
S
GR
GS
0.873 GC
1 LJ
0.5 LW
N
435.583 367 M
435.583 31.5 L
S
GR
GS
0.873 GC
1 LJ
0.5 LW
N
507 367 M
507 31.5 L
S
GR
GS
0.873 GC
1 LJ
0.5 LW
N
507 367 M
78.5 367 L
S
GR
GS
0.873 GC
1 LJ
0.5 LW
N
507 333.45 M
78.5 333.45 L
S
GR
GS
0.873 GC
1 LJ
0.5 LW
N
507 299.9 M
78.5 299.9 L
S
GR
GS
0.873 GC
1 LJ
0.5 LW
N
507 266.35 M
78.5 266.35 L
S
GR
GS
0.873 GC
1 LJ
0.5 LW
N
507 232.8 M
78.5 232.8 L
S
GR
GS
0.873 GC
1 LJ
0.5 LW
N
507 199.25 M
78.5 199.25 L
S
GR
GS
0.873 GC
1 LJ
0.5 LW
N
507 165.7 M
78.5 165.7 L
S
GR
GS
0.873 GC
1 LJ
0.5 LW
N
507 132.15 M
78.5 132.15 L
S
GR
GS
0.873 GC
1 LJ
0.5 LW
N
507 98.6 M
78.5 98.6 L
S
GR
GS
0.873 GC
1 LJ
0.5 LW
N
507 65.05 M
78.5 65.05 L
S
GR
GS
0.873 GC
1 LJ
0.5 LW
N
507 31.5 M
78.5 31.5 L
S
GR
GS
0.149 GC
2 setlinecap
1 LJ
0.5 LW
N
78.5 367 M
507 367 L
S
GR
GS
0.149 GC
2 setlinecap
1 LJ
0.5 LW
N
78.5 31.5 M
507 31.5 L
S
GR
GS
0.149 GC
2 setlinecap
1 LJ
0.5 LW
N
78.5 367 M
78.5 362.715 L
S
GR
GS
0.149 GC
2 setlinecap
1 LJ
0.5 LW
N
149.917 367 M
149.917 362.715 L
S
GR
GS
0.149 GC
2 setlinecap
1 LJ
0.5 LW
N
221.333 367 M
221.333 362.715 L
S
GR
GS
0.149 GC
2 setlinecap
1 LJ
0.5 LW
N
292.75 367 M
292.75 362.715 L
S
GR
GS
0.149 GC
2 setlinecap
1 LJ
0.5 LW
N
364.167 367 M
364.167 362.715 L
S
GR
GS
0.149 GC
2 setlinecap
1 LJ
0.5 LW
N
435.583 367 M
435.583 362.715 L
S
GR
GS
0.149 GC
2 setlinecap
1 LJ
0.5 LW
N
507 367 M
507 362.715 L
S
GR
GS
0.149 GC
2 setlinecap
1 LJ
0.5 LW
N
78.5 31.5 M
78.5 35.785 L
S
GR
GS
0.149 GC
2 setlinecap
1 LJ
0.5 LW
N
149.917 31.5 M
149.917 35.785 L
S
GR
GS
0.149 GC
2 setlinecap
1 LJ
0.5 LW
N
221.333 31.5 M
221.333 35.785 L
S
GR
GS
0.149 GC
2 setlinecap
1 LJ
0.5 LW
N
292.75 31.5 M
292.75 35.785 L
S
GR
GS
0.149 GC
2 setlinecap
1 LJ
0.5 LW
N
364.167 31.5 M
364.167 35.785 L
S
GR
GS
0.149 GC
2 setlinecap
1 LJ
0.5 LW
N
435.583 31.5 M
435.583 35.785 L
S
GR
GS
0.149 GC
2 setlinecap
1 LJ
0.5 LW
N
507 31.5 M
507 35.785 L
S
GR
GS
[1 0 0 1 78.50001 372.20001] CT
0.149 GC
/Times-Roman 16 F
GS
[1 0 0 1 0 0] CT
-17 15 moveto 
1 -1 scale
(-0.03) t 
GR
GR
GS
[1 0 0 1 149.91667 372.20001] CT
0.149 GC
/Times-Roman 16 F
GS
[1 0 0 1 0 0] CT
-17 15 moveto 
1 -1 scale
(-0.02) t 
GR
GR
GS
[1 0 0 1 221.33333 372.20001] CT
0.149 GC
/Times-Roman 16 F
GS
[1 0 0 1 0 0] CT
-17 15 moveto 
1 -1 scale
(-0.01) t 
GR
GR
GS
[1 0 0 1 292.75 372.20001] CT
0.149 GC
/Times-Roman 16 F
GS
[1 0 0 1 0 0] CT
-4 15 moveto 
1 -1 scale
(0) t 
GR
GR
GS
[1 0 0 1 364.16666 372.20001] CT
0.149 GC
/Times-Roman 16 F
GS
[1 0 0 1 0 0] CT
-14 15 moveto 
1 -1 scale
(0.01) t 
GR
GR
GS
[1 0 0 1 435.58334 372.20001] CT
0.149 GC
/Times-Roman 16 F
GS
[1 0 0 1 0 0] CT
-14 15 moveto 
1 -1 scale
(0.02) t 
GR
GR
GS
[1 0 0 1 507 372.20001] CT
0.149 GC
/Times-Roman 16 F
GS
[1 0 0 1 0 0] CT
-14 15 moveto 
1 -1 scale
(0.03) t 
GR
GR
GS
[1 0 0 1 292.75021 391.20001] CT
0.149 GC
N
-86.17 20.16 M
-86.17 19.316 L
-83.701 19.316 -83.701 18.551 QT
-83.701 5.363 L
-83.701 4.613 -86.17 4.613 QT
-86.17 3.769 L
-78.639 3.769 L
-77.279 3.769 -75.803 4.254 QT
-74.326 4.738 -73.326 5.73 QT
-72.326 6.722 -72.326 8.113 QT
-72.326 9.113 -72.928 9.91 QT
-73.529 10.707 -74.475 11.238 QT
-75.42 11.769 -76.404 12.004 QT
-75.326 12.379 -74.521 13.199 QT
-73.717 14.019 -73.545 15.066 QT
-73.201 17.207 L
-72.967 18.644 -72.709 19.355 QT
-72.451 20.066 -71.576 20.066 QT
-70.826 20.066 -70.459 19.371 QT
-70.092 18.676 -70.092 17.847 QT
-70.092 17.769 -70.014 17.707 QT
-69.936 17.644 -69.857 17.644 QT
-69.639 17.644 L
-69.404 17.644 -69.404 17.957 QT
-69.404 18.613 -69.662 19.238 QT
-69.92 19.863 -70.404 20.277 QT
-70.889 20.691 -71.561 20.691 QT
-73.295 20.691 -74.537 19.824 QT
-75.779 18.957 -75.779 17.301 QT
-75.779 15.16 L
-75.779 13.972 -76.615 13.113 QT
-77.451 12.254 -78.654 12.254 QT
-81.545 12.254 L
-81.545 18.551 L
-81.545 19.316 -79.061 19.316 QT
-79.061 20.16 L
-86.17 20.16 L
cp
-81.545 11.644 M
-78.967 11.644 L
-76.982 11.644 -75.936 10.84 QT
-74.889 10.035 -74.889 8.113 QT
-74.889 6.207 -75.92 5.41 QT
-76.951 4.613 -78.967 4.613 QT
-80.326 4.613 L
-80.748 4.613 -80.99 4.644 QT
-81.232 4.676 -81.389 4.847 QT
-81.545 5.019 -81.545 5.363 QT
-81.545 11.644 L
cp
f
GR
GS
[1 0 0 1 292.75021 391.20001] CT
0.149 GC
N
-63.316 20.426 M
-64.784 20.426 -66.011 19.66 QT
-67.238 18.894 -67.933 17.613 QT
-68.628 16.332 -68.628 14.894 QT
-68.628 13.488 -67.988 12.222 QT
-67.347 10.957 -66.206 10.176 QT
-65.066 9.394 -63.659 9.394 QT
-62.566 9.394 -61.745 9.769 QT
-60.925 10.144 -60.402 10.801 QT
-59.878 11.457 -59.605 12.347 QT
-59.331 13.238 -59.331 14.301 QT
-59.331 14.613 -59.581 14.613 QT
-66.534 14.613 L
-66.534 14.879 L
-66.534 16.863 -65.73 18.293 QT
-64.925 19.722 -63.113 19.722 QT
-62.378 19.722 -61.745 19.394 QT
-61.113 19.066 -60.652 18.48 QT
-60.191 17.894 -60.034 17.222 QT
-60.003 17.144 -59.941 17.082 QT
-59.878 17.019 -59.8 17.019 QT
-59.581 17.019 L
-59.331 17.019 -59.331 17.316 QT
-59.675 18.676 -60.8 19.551 QT
-61.925 20.426 -63.316 20.426 QT
cp
-66.503 14.019 M
-61.034 14.019 L
-61.034 13.113 -61.284 12.191 QT
-61.534 11.269 -62.12 10.652 QT
-62.706 10.035 -63.659 10.035 QT
-65.019 10.035 -65.761 11.308 QT
-66.503 12.582 -66.503 14.019 QT
cp
f
GR
GS
[1 0 0 1 292.75021 391.20001] CT
0.149 GC
N
-57.665 17.801 M
-57.665 16.379 -56.54 15.48 QT
-55.415 14.582 -53.844 14.215 QT
-52.274 13.847 -50.852 13.847 QT
-50.852 12.863 L
-50.852 12.16 -51.157 11.511 QT
-51.462 10.863 -52.032 10.449 QT
-52.602 10.035 -53.305 10.035 QT
-54.899 10.035 -55.727 10.754 QT
-55.274 10.754 -54.969 11.097 QT
-54.665 11.441 -54.665 11.894 QT
-54.665 12.379 -55.008 12.715 QT
-55.352 13.051 -55.821 13.051 QT
-56.305 13.051 -56.641 12.715 QT
-56.977 12.379 -56.977 11.894 QT
-56.977 10.629 -55.829 10.011 QT
-54.68 9.394 -53.305 9.394 QT
-52.321 9.394 -51.337 9.816 QT
-50.352 10.238 -49.727 11.011 QT
-49.102 11.785 -49.102 12.816 QT
-49.102 18.207 L
-49.102 18.676 -48.907 19.074 QT
-48.712 19.472 -48.29 19.472 QT
-47.883 19.472 -47.688 19.074 QT
-47.493 18.676 -47.493 18.207 QT
-47.493 16.676 L
-46.79 16.676 L
-46.79 18.207 L
-46.79 18.754 -47.071 19.238 QT
-47.352 19.722 -47.829 20.011 QT
-48.305 20.301 -48.852 20.301 QT
-49.555 20.301 -50.071 19.754 QT
-50.587 19.207 -50.633 18.457 QT
-51.087 19.363 -51.954 19.894 QT
-52.821 20.426 -53.805 20.426 QT
-54.712 20.426 -55.602 20.16 QT
-56.493 19.894 -57.079 19.308 QT
-57.665 18.722 -57.665 17.801 QT
cp
-55.727 17.801 M
-55.727 18.644 -55.102 19.222 QT
-54.477 19.801 -53.633 19.801 QT
-52.868 19.801 -52.235 19.41 QT
-51.602 19.019 -51.227 18.355 QT
-50.852 17.691 -50.852 16.941 QT
-50.852 14.457 L
-51.946 14.457 -53.087 14.808 QT
-54.227 15.16 -54.977 15.926 QT
-55.727 16.691 -55.727 17.801 QT
cp
f
GR
GS
[1 0 0 1 292.75021 391.20001] CT
0.149 GC
N
-45.899 20.16 M
-45.899 19.316 L
-45.071 19.316 -44.547 19.183 QT
-44.024 19.051 -44.024 18.551 QT
-44.024 5.957 L
-44.024 5.316 -44.212 5.027 QT
-44.399 4.738 -44.766 4.676 QT
-45.133 4.613 -45.899 4.613 QT
-45.899 3.769 L
-42.337 3.504 L
-42.337 18.551 L
-42.337 19.051 -41.805 19.183 QT
-41.274 19.316 -40.462 19.316 QT
-40.462 20.16 L
-45.899 20.16 L
cp
f
GR
GS
[1 0 0 1 292.75021 391.20001] CT
0.149 GC
N
-31.185 20.16 M
-31.185 19.316 L
-29.045 19.316 -28.56 17.894 QT
-23.514 3.238 L
-23.451 2.972 -23.123 2.972 QT
-22.826 2.972 L
-22.514 2.972 -22.435 3.238 QT
-17.17 18.551 L
-16.951 19.051 -16.326 19.183 QT
-15.701 19.316 -14.764 19.316 QT
-14.764 20.16 L
-21.451 20.16 L
-21.451 19.316 L
-19.467 19.316 -19.467 18.676 QT
-19.467 18.551 L
-20.764 14.801 L
-26.592 14.801 L
-27.67 17.894 L
-27.685 17.972 -27.685 18.144 QT
-27.685 18.738 -27.115 19.027 QT
-26.545 19.316 -25.889 19.316 QT
-25.889 20.16 L
-31.185 20.16 L
cp
-26.31 13.972 M
-21.045 13.972 L
-23.685 6.301 L
-26.31 13.972 L
cp
f
GR
GS
[1 0 0 1 292.75021 391.20001] CT
0.149 GC
N
-13.67 20.16 M
-13.67 19.316 L
-12.764 19.316 -11.951 18.957 QT
-11.139 18.597 -10.576 17.894 QT
-8.404 15.113 L
-11.232 11.426 L
-11.654 10.894 -12.154 10.777 QT
-12.654 10.66 -13.56 10.66 QT
-13.56 9.816 L
-8.56 9.816 L
-8.56 10.66 L
-8.873 10.66 -9.154 10.801 QT
-9.435 10.941 -9.435 11.207 QT
-9.435 11.301 -9.357 11.426 QT
-7.435 13.926 L
-5.998 12.066 L
-5.701 11.722 -5.701 11.363 QT
-5.701 11.082 -5.896 10.871 QT
-6.092 10.66 -6.404 10.66 QT
-6.404 9.816 L
-1.982 9.816 L
-1.982 10.66 L
-2.92 10.66 -3.732 11.011 QT
-4.545 11.363 -5.107 12.066 QT
-6.998 14.504 L
-3.935 18.551 L
-3.482 19.082 -2.99 19.199 QT
-2.498 19.316 -1.576 19.316 QT
-1.576 20.16 L
-6.576 20.16 L
-6.576 19.316 L
-6.279 19.316 -6.006 19.176 QT
-5.732 19.035 -5.732 18.769 QT
-5.732 18.66 -5.81 18.551 QT
-7.967 15.691 L
-9.685 17.894 L
-9.951 18.207 -9.951 18.597 QT
-9.951 18.894 -9.756 19.105 QT
-9.56 19.316 -9.295 19.316 QT
-9.295 20.16 L
-13.67 20.16 L
cp
f
GR
GS
[1 0 0 1 292.75021 391.20001] CT
0.149 GC
N
-0.566 20.16 M
-0.566 19.316 L
0.263 19.316 0.786 19.183 QT
1.309 19.051 1.309 18.551 QT
1.309 12.004 L
1.309 11.082 0.958 10.871 QT
0.606 10.66 -0.456 10.66 QT
-0.456 9.816 L
2.997 9.551 L
2.997 18.551 L
2.997 19.051 3.458 19.183 QT
3.919 19.316 4.684 19.316 QT
4.684 20.16 L
-0.566 20.16 L
cp
0.466 5.426 M
0.466 4.894 0.864 4.496 QT
1.263 4.097 1.778 4.097 QT
2.106 4.097 2.427 4.277 QT
2.747 4.457 2.919 4.769 QT
3.091 5.082 3.091 5.426 QT
3.091 5.941 2.692 6.34 QT
2.294 6.738 1.778 6.738 QT
1.263 6.738 0.864 6.34 QT
0.466 5.941 0.466 5.426 QT
cp
f
GR
GS
[1 0 0 1 292.75021 391.20001] CT
0.149 GC
N
6.164 20.238 M
6.164 16.316 L
6.164 16.129 6.382 16.129 QT
6.664 16.129 L
6.804 16.129 6.851 16.316 QT
7.523 19.801 10.085 19.801 QT
11.226 19.801 11.992 19.285 QT
12.757 18.769 12.757 17.691 QT
12.757 16.91 12.164 16.363 QT
11.57 15.816 10.742 15.629 QT
9.148 15.301 L
8.335 15.129 7.671 14.769 QT
7.007 14.41 6.585 13.801 QT
6.164 13.191 6.164 12.394 QT
6.164 11.347 6.718 10.676 QT
7.273 10.004 8.164 9.699 QT
9.054 9.394 10.085 9.394 QT
11.32 9.394 12.242 10.051 QT
12.929 9.457 L
12.929 9.394 13.039 9.394 QT
13.226 9.394 L
13.289 9.394 13.351 9.465 QT
13.414 9.535 13.414 9.597 QT
13.414 12.738 L
13.414 12.957 13.226 12.957 QT
12.929 12.957 L
12.71 12.957 12.71 12.738 QT
12.71 11.488 12.015 10.722 QT
11.32 9.957 10.07 9.957 QT
8.992 9.957 8.203 10.355 QT
7.414 10.754 7.414 11.738 QT
7.414 12.394 7.976 12.824 QT
8.539 13.254 9.304 13.441 QT
10.929 13.754 L
11.757 13.941 12.468 14.386 QT
13.179 14.832 13.593 15.511 QT
14.007 16.191 14.007 17.035 QT
14.007 17.91 13.71 18.551 QT
13.414 19.191 12.875 19.613 QT
12.335 20.035 11.609 20.23 QT
10.882 20.426 10.085 20.426 QT
8.585 20.426 7.523 19.426 QT
6.648 20.379 L
6.648 20.426 6.523 20.426 QT
6.382 20.426 L
6.164 20.426 6.164 20.238 QT
cp
f
GR
GS
[1 0 0 1 292.75021 391.20001] CT
0.149 GC
N
22.271 26.113 M
20.943 25.066 19.974 23.699 QT
19.005 22.332 18.388 20.785 QT
17.771 19.238 17.466 17.551 QT
17.161 15.863 17.161 14.16 QT
17.161 12.441 17.466 10.754 QT
17.771 9.066 18.404 7.504 QT
19.036 5.941 20.005 4.582 QT
20.974 3.222 22.271 2.207 QT
22.271 2.16 22.396 2.16 QT
22.615 2.16 L
22.693 2.16 22.747 2.222 QT
22.802 2.285 22.802 2.363 QT
22.802 2.472 22.755 2.519 QT
21.583 3.676 20.802 4.988 QT
20.021 6.301 19.552 7.777 QT
19.083 9.254 18.872 10.847 QT
18.661 12.441 18.661 14.16 QT
18.661 21.785 22.74 25.754 QT
22.802 25.816 22.802 25.957 QT
22.802 26.004 22.74 26.082 QT
22.677 26.16 22.615 26.16 QT
22.396 26.16 L
22.271 26.16 22.271 26.113 QT
cp
f
GR
GS
[1 0 0 1 292.75021 391.20001] CT
0.149 GC
N
24.964 20.238 M
24.964 16.316 L
24.964 16.129 25.182 16.129 QT
25.464 16.129 L
25.604 16.129 25.651 16.316 QT
26.323 19.801 28.885 19.801 QT
30.026 19.801 30.792 19.285 QT
31.557 18.769 31.557 17.691 QT
31.557 16.91 30.964 16.363 QT
30.37 15.816 29.542 15.629 QT
27.948 15.301 L
27.135 15.129 26.471 14.769 QT
25.807 14.41 25.385 13.801 QT
24.964 13.191 24.964 12.394 QT
24.964 11.347 25.518 10.676 QT
26.073 10.004 26.964 9.699 QT
27.854 9.394 28.885 9.394 QT
30.12 9.394 31.042 10.051 QT
31.729 9.457 L
31.729 9.394 31.839 9.394 QT
32.026 9.394 L
32.089 9.394 32.151 9.465 QT
32.214 9.535 32.214 9.597 QT
32.214 12.738 L
32.214 12.957 32.026 12.957 QT
31.729 12.957 L
31.51 12.957 31.51 12.738 QT
31.51 11.488 30.815 10.722 QT
30.12 9.957 28.87 9.957 QT
27.792 9.957 27.003 10.355 QT
26.214 10.754 26.214 11.738 QT
26.214 12.394 26.776 12.824 QT
27.339 13.254 28.104 13.441 QT
29.729 13.754 L
30.557 13.941 31.268 14.386 QT
31.979 14.832 32.393 15.511 QT
32.807 16.191 32.807 17.035 QT
32.807 17.91 32.51 18.551 QT
32.214 19.191 31.675 19.613 QT
31.135 20.035 30.409 20.23 QT
29.682 20.426 28.885 20.426 QT
27.385 20.426 26.323 19.426 QT
25.448 20.379 L
25.448 20.426 25.323 20.426 QT
25.182 20.426 L
24.964 20.426 24.964 20.238 QT
cp
f
GR
GS
[1 0 0 1 292.75021 391.20001] CT
0.149 GC
N
39.618 20.426 M
38.149 20.426 36.922 19.66 QT
35.696 18.894 35.001 17.613 QT
34.305 16.332 34.305 14.894 QT
34.305 13.488 34.946 12.222 QT
35.587 10.957 36.727 10.176 QT
37.868 9.394 39.274 9.394 QT
40.368 9.394 41.188 9.769 QT
42.008 10.144 42.532 10.801 QT
43.055 11.457 43.329 12.347 QT
43.602 13.238 43.602 14.301 QT
43.602 14.613 43.352 14.613 QT
36.399 14.613 L
36.399 14.879 L
36.399 16.863 37.204 18.293 QT
38.008 19.722 39.821 19.722 QT
40.555 19.722 41.188 19.394 QT
41.821 19.066 42.282 18.48 QT
42.743 17.894 42.899 17.222 QT
42.93 17.144 42.993 17.082 QT
43.055 17.019 43.133 17.019 QT
43.352 17.019 L
43.602 17.019 43.602 17.316 QT
43.258 18.676 42.133 19.551 QT
41.008 20.426 39.618 20.426 QT
cp
36.43 14.019 M
41.899 14.019 L
41.899 13.113 41.649 12.191 QT
41.399 11.269 40.813 10.652 QT
40.227 10.035 39.274 10.035 QT
37.915 10.035 37.172 11.308 QT
36.43 12.582 36.43 14.019 QT
cp
f
GR
GS
[1 0 0 1 292.75021 391.20001] CT
0.149 GC
N
50.284 20.426 M
48.831 20.426 47.644 19.668 QT
46.456 18.91 45.777 17.652 QT
45.097 16.394 45.097 14.972 QT
45.097 13.566 45.769 12.261 QT
46.441 10.957 47.636 10.176 QT
48.831 9.394 50.284 9.394 QT
51.691 9.394 52.839 9.949 QT
53.988 10.504 53.988 11.754 QT
53.988 12.222 53.659 12.566 QT
53.331 12.91 52.847 12.91 QT
52.363 12.91 52.027 12.566 QT
51.691 12.222 51.691 11.754 QT
51.691 11.332 51.964 11.019 QT
52.238 10.707 52.628 10.629 QT
51.8 10.097 50.3 10.097 QT
49.159 10.097 48.456 10.863 QT
47.753 11.629 47.472 12.754 QT
47.191 13.879 47.191 14.972 QT
47.191 16.144 47.534 17.222 QT
47.878 18.301 48.644 19.011 QT
49.409 19.722 50.566 19.722 QT
51.706 19.722 52.503 19.027 QT
53.3 18.332 53.597 17.207 QT
53.597 17.066 53.784 17.066 QT
54.081 17.066 L
54.144 17.066 54.206 17.129 QT
54.269 17.191 54.269 17.269 QT
54.269 17.347 L
53.894 18.769 52.816 19.597 QT
51.738 20.426 50.284 20.426 QT
cp
f
GR
GS
[1 0 0 1 292.75021 391.20001] CT
0.149 GC
N
56.701 7.544 M
56.56 7.544 56.467 7.435 QT
56.373 7.326 56.373 7.201 QT
56.373 7.076 56.467 6.966 QT
56.56 6.857 56.701 6.857 QT
66.451 6.857 L
66.592 6.857 66.678 6.966 QT
66.764 7.076 66.764 7.201 QT
66.764 7.326 66.678 7.435 QT
66.592 7.544 66.451 7.544 QT
56.701 7.544 L
cp
f
GR
GS
[1 0 0 1 292.75021 391.20001] CT
0.149 GC
N
69.612 11.451 M
69.612 10.857 L
71.737 10.857 71.737 10.31 QT
71.737 1.388 L
70.862 1.81 69.518 1.81 QT
69.518 1.216 L
71.596 1.216 72.658 0.122 QT
72.893 0.122 L
72.955 0.122 73.01 0.169 QT
73.065 0.216 73.065 0.279 QT
73.065 10.31 L
73.065 10.857 75.19 10.857 QT
75.19 11.451 L
69.612 11.451 L
cp
f
GR
GS
[1 0 0 1 292.75021 391.20001] CT
0.149 GC
N
79.196 26.16 M
78.977 26.16 78.977 25.957 QT
78.977 25.847 79.024 25.801 QT
83.133 21.785 83.133 14.16 QT
83.133 6.535 79.071 2.566 QT
78.977 2.504 78.977 2.363 QT
78.977 2.285 79.047 2.222 QT
79.118 2.16 79.196 2.16 QT
79.415 2.16 L
79.493 2.16 79.54 2.207 QT
81.258 3.566 82.407 5.511 QT
83.555 7.457 84.087 9.66 QT
84.618 11.863 84.618 14.16 QT
84.618 15.863 84.329 17.504 QT
84.04 19.144 83.415 20.746 QT
82.79 22.347 81.829 23.707 QT
80.868 25.066 79.54 26.113 QT
79.493 26.16 79.415 26.16 QT
79.196 26.16 L
cp
f
GR
GS
0.149 GC
2 setlinecap
1 LJ
0.5 LW
N
78.5 367 M
78.5 31.5 L
S
GR
GS
0.149 GC
2 setlinecap
1 LJ
0.5 LW
N
507 367 M
507 31.5 L
S
GR
GS
0.149 GC
2 setlinecap
1 LJ
0.5 LW
N
78.5 367 M
82.785 367 L
S
GR
GS
0.149 GC
2 setlinecap
1 LJ
0.5 LW
N
78.5 333.45 M
82.785 333.45 L
S
GR
GS
0.149 GC
2 setlinecap
1 LJ
0.5 LW
N
78.5 299.9 M
82.785 299.9 L
S
GR
GS
0.149 GC
2 setlinecap
1 LJ
0.5 LW
N
78.5 266.35 M
82.785 266.35 L
S
GR
GS
0.149 GC
2 setlinecap
1 LJ
0.5 LW
N
78.5 232.8 M
82.785 232.8 L
S
GR
GS
0.149 GC
2 setlinecap
1 LJ
0.5 LW
N
78.5 199.25 M
82.785 199.25 L
S
GR
GS
0.149 GC
2 setlinecap
1 LJ
0.5 LW
N
78.5 165.7 M
82.785 165.7 L
S
GR
GS
0.149 GC
2 setlinecap
1 LJ
0.5 LW
N
78.5 132.15 M
82.785 132.15 L
S
GR
GS
0.149 GC
2 setlinecap
1 LJ
0.5 LW
N
78.5 98.6 M
82.785 98.6 L
S
GR
GS
0.149 GC
2 setlinecap
1 LJ
0.5 LW
N
78.5 65.05 M
82.785 65.05 L
S
GR
GS
0.149 GC
2 setlinecap
1 LJ
0.5 LW
N
78.5 31.5 M
82.785 31.5 L
S
GR
GS
0.149 GC
2 setlinecap
1 LJ
0.5 LW
N
507 367 M
502.715 367 L
S
GR
GS
0.149 GC
2 setlinecap
1 LJ
0.5 LW
N
507 333.45 M
502.715 333.45 L
S
GR
GS
0.149 GC
2 setlinecap
1 LJ
0.5 LW
N
507 299.9 M
502.715 299.9 L
S
GR
GS
0.149 GC
2 setlinecap
1 LJ
0.5 LW
N
507 266.35 M
502.715 266.35 L
S
GR
GS
0.149 GC
2 setlinecap
1 LJ
0.5 LW
N
507 232.8 M
502.715 232.8 L
S
GR
GS
0.149 GC
2 setlinecap
1 LJ
0.5 LW
N
507 199.25 M
502.715 199.25 L
S
GR
GS
0.149 GC
2 setlinecap
1 LJ
0.5 LW
N
507 165.7 M
502.715 165.7 L
S
GR
GS
0.149 GC
2 setlinecap
1 LJ
0.5 LW
N
507 132.15 M
502.715 132.15 L
S
GR
GS
0.149 GC
2 setlinecap
1 LJ
0.5 LW
N
507 98.6 M
502.715 98.6 L
S
GR
GS
0.149 GC
2 setlinecap
1 LJ
0.5 LW
N
507 65.05 M
502.715 65.05 L
S
GR
GS
0.149 GC
2 setlinecap
1 LJ
0.5 LW
N
507 31.5 M
502.715 31.5 L
S
GR
GS
[1 0 0 1 73.30001 367] CT
0.149 GC
/Times-Roman 16 F
GS
[1 0 0 1 0 0] CT
-42 5.5 moveto 
1 -1 scale
(-0.025) t 
GR
GR
GS
[1 0 0 1 73.30001 333.45001] CT
0.149 GC
/Times-Roman 16 F
GS
[1 0 0 1 0 0] CT
-34 5.5 moveto 
1 -1 scale
(-0.02) t 
GR
GR
GS
[1 0 0 1 73.30001 299.89999] CT
0.149 GC
/Times-Roman 16 F
GS
[1 0 0 1 0 0] CT
-42 5.5 moveto 
1 -1 scale
(-0.015) t 
GR
GR
GS
[1 0 0 1 73.30001 266.35001] CT
0.149 GC
/Times-Roman 16 F
GS
[1 0 0 1 0 0] CT
-34 5.5 moveto 
1 -1 scale
(-0.01) t 
GR
GR
GS
[1 0 0 1 73.30001 232.8] CT
0.149 GC
/Times-Roman 16 F
GS
[1 0 0 1 0 0] CT
-42 5.5 moveto 
1 -1 scale
(-0.005) t 
GR
GR
GS
[1 0 0 1 73.30001 199.25] CT
0.149 GC
/Times-Roman 16 F
GS
[1 0 0 1 0 0] CT
-8 5.5 moveto 
1 -1 scale
(0) t 
GR
GR
GS
[1 0 0 1 73.30001 165.7] CT
0.149 GC
/Times-Roman 16 F
GS
[1 0 0 1 0 0] CT
-36 5.5 moveto 
1 -1 scale
(0.005) t 
GR
GR
GS
[1 0 0 1 73.30001 132.14999] CT
0.149 GC
/Times-Roman 16 F
GS
[1 0 0 1 0 0] CT
-28 5.5 moveto 
1 -1 scale
(0.01) t 
GR
GR
GS
[1 0 0 1 73.30001 98.6] CT
0.149 GC
/Times-Roman 16 F
GS
[1 0 0 1 0 0] CT
-36 5.5 moveto 
1 -1 scale
(0.015) t 
GR
GR
GS
[1 0 0 1 73.30001 65.05] CT
0.149 GC
/Times-Roman 16 F
GS
[1 0 0 1 0 0] CT
-28 5.5 moveto 
1 -1 scale
(0.02) t 
GR
GR
GS
[1 0 0 1 73.30001 31.5] CT
0.149 GC
/Times-Roman 16 F
GS
[1 0 0 1 0 0] CT
-36 5.5 moveto 
1 -1 scale
(0.025) t 
GR
GR
GS
[0 -1 1 0 28.8 199.24985] CT
0.149 GC
N
-116.209 -8.64 M
-116.209 -9.484 L
-113.615 -9.484 -113.615 -10.249 QT
-113.615 -23.437 L
-113.615 -24.187 -116.209 -24.187 QT
-116.209 -25.031 L
-108.787 -25.031 L
-108.787 -24.187 L
-111.38 -24.187 -111.38 -23.437 QT
-111.38 -10.249 L
-111.38 -9.484 -108.787 -9.484 QT
-108.787 -8.64 L
-116.209 -8.64 L
cp
f
GR
GS
[0 -1 1 0 28.8 199.24985] CT
0.149 GC
N
-107.448 -8.64 M
-107.448 -9.484 L
-106.636 -9.484 -106.104 -9.617 QT
-105.573 -9.749 -105.573 -10.249 QT
-105.573 -16.796 L
-105.573 -17.437 -105.768 -17.726 QT
-105.964 -18.015 -106.323 -18.078 QT
-106.683 -18.14 -107.448 -18.14 QT
-107.448 -18.984 L
-103.964 -19.249 L
-103.964 -16.906 L
-103.495 -17.937 -102.55 -18.593 QT
-101.604 -19.249 -100.495 -19.249 QT
-97.729 -19.249 -97.245 -16.999 QT
-96.761 -17.999 -95.839 -18.624 QT
-94.917 -19.249 -93.808 -19.249 QT
-92.714 -19.249 -91.972 -18.898 QT
-91.229 -18.546 -90.854 -17.828 QT
-90.479 -17.109 -90.479 -16.015 QT
-90.479 -10.249 L
-90.479 -9.749 -89.948 -9.617 QT
-89.417 -9.484 -88.604 -9.484 QT
-88.604 -8.64 L
-94.104 -8.64 L
-94.104 -9.484 L
-93.276 -9.484 -92.753 -9.617 QT
-92.229 -9.749 -92.229 -10.249 QT
-92.229 -15.937 L
-92.229 -17.156 -92.565 -17.89 QT
-92.901 -18.624 -93.964 -18.624 QT
-95.339 -18.624 -96.245 -17.515 QT
-97.151 -16.406 -97.151 -14.984 QT
-97.151 -10.249 L
-97.151 -9.749 -96.62 -9.617 QT
-96.089 -9.484 -95.276 -9.484 QT
-95.276 -8.64 L
-100.776 -8.64 L
-100.776 -9.484 L
-99.948 -9.484 -99.425 -9.617 QT
-98.901 -9.749 -98.901 -10.249 QT
-98.901 -15.937 L
-98.901 -17.109 -99.237 -17.867 QT
-99.573 -18.624 -100.636 -18.624 QT
-102.026 -18.624 -102.925 -17.515 QT
-103.823 -16.406 -103.823 -14.984 QT
-103.823 -10.249 L
-103.823 -9.749 -103.292 -9.617 QT
-102.761 -9.484 -101.948 -9.484 QT
-101.948 -8.64 L
-107.448 -8.64 L
cp
f
GR
GS
[0 -1 1 0 28.8 199.24985] CT
0.149 GC
N
-87.198 -10.999 M
-87.198 -12.421 -86.073 -13.32 QT
-84.948 -14.218 -83.378 -14.585 QT
-81.807 -14.953 -80.386 -14.953 QT
-80.386 -15.937 L
-80.386 -16.64 -80.69 -17.289 QT
-80.995 -17.937 -81.565 -18.351 QT
-82.136 -18.765 -82.839 -18.765 QT
-84.432 -18.765 -85.261 -18.046 QT
-84.807 -18.046 -84.503 -17.703 QT
-84.198 -17.359 -84.198 -16.906 QT
-84.198 -16.421 -84.542 -16.085 QT
-84.886 -15.749 -85.354 -15.749 QT
-85.839 -15.749 -86.175 -16.085 QT
-86.511 -16.421 -86.511 -16.906 QT
-86.511 -18.171 -85.362 -18.789 QT
-84.214 -19.406 -82.839 -19.406 QT
-81.854 -19.406 -80.87 -18.984 QT
-79.886 -18.562 -79.261 -17.789 QT
-78.636 -17.015 -78.636 -15.984 QT
-78.636 -10.593 L
-78.636 -10.124 -78.44 -9.726 QT
-78.245 -9.328 -77.823 -9.328 QT
-77.417 -9.328 -77.222 -9.726 QT
-77.026 -10.124 -77.026 -10.593 QT
-77.026 -12.124 L
-76.323 -12.124 L
-76.323 -10.593 L
-76.323 -10.046 -76.604 -9.562 QT
-76.886 -9.078 -77.362 -8.789 QT
-77.839 -8.499 -78.386 -8.499 QT
-79.089 -8.499 -79.604 -9.046 QT
-80.12 -9.593 -80.167 -10.343 QT
-80.62 -9.437 -81.487 -8.906 QT
-82.354 -8.374 -83.339 -8.374 QT
-84.245 -8.374 -85.136 -8.64 QT
-86.026 -8.906 -86.612 -9.492 QT
-87.198 -10.078 -87.198 -10.999 QT
cp
-85.261 -10.999 M
-85.261 -10.156 -84.636 -9.578 QT
-84.011 -8.999 -83.167 -8.999 QT
-82.401 -8.999 -81.768 -9.39 QT
-81.136 -9.781 -80.761 -10.445 QT
-80.386 -11.109 -80.386 -11.859 QT
-80.386 -14.343 L
-81.479 -14.343 -82.62 -13.992 QT
-83.761 -13.64 -84.511 -12.874 QT
-85.261 -12.109 -85.261 -10.999 QT
cp
f
GR
GS
[0 -1 1 0 28.8 199.24985] CT
0.149 GC
N
-75.495 -6.765 M
-75.495 -7.624 -74.878 -8.265 QT
-74.261 -8.906 -73.401 -9.171 QT
-73.886 -9.531 -74.136 -10.085 QT
-74.386 -10.64 -74.386 -11.249 QT
-74.386 -12.374 -73.667 -13.249 QT
-74.776 -14.328 -74.776 -15.718 QT
-74.776 -16.468 -74.448 -17.124 QT
-74.12 -17.781 -73.55 -18.265 QT
-72.979 -18.749 -72.276 -18.999 QT
-71.573 -19.249 -70.839 -19.249 QT
-69.401 -19.249 -68.261 -18.421 QT
-67.776 -18.937 -67.104 -19.226 QT
-66.432 -19.515 -65.698 -19.515 QT
-65.182 -19.515 -64.854 -19.148 QT
-64.526 -18.781 -64.526 -18.265 QT
-64.526 -17.968 -64.753 -17.749 QT
-64.979 -17.531 -65.261 -17.531 QT
-65.573 -17.531 -65.792 -17.749 QT
-66.011 -17.968 -66.011 -18.265 QT
-66.011 -18.703 -65.729 -18.89 QT
-66.964 -18.89 -67.854 -18.031 QT
-67.417 -17.593 -67.159 -16.968 QT
-66.901 -16.343 -66.901 -15.718 QT
-66.901 -14.703 -67.464 -13.89 QT
-68.026 -13.078 -68.94 -12.624 QT
-69.854 -12.171 -70.839 -12.171 QT
-72.151 -12.171 -73.229 -12.89 QT
-73.573 -12.421 -73.573 -11.828 QT
-73.573 -11.203 -73.159 -10.726 QT
-72.745 -10.249 -72.104 -10.249 QT
-70.136 -10.249 L
-68.714 -10.249 -67.565 -9.992 QT
-66.417 -9.734 -65.636 -8.96 QT
-64.854 -8.187 -64.854 -6.765 QT
-64.854 -5.703 -65.745 -5.007 QT
-66.636 -4.312 -67.87 -3.999 QT
-69.104 -3.687 -70.167 -3.687 QT
-71.229 -3.687 -72.471 -3.999 QT
-73.714 -4.312 -74.604 -5.007 QT
-75.495 -5.703 -75.495 -6.765 QT
cp
-74.151 -6.765 M
-74.151 -5.953 -73.495 -5.406 QT
-72.839 -4.859 -71.909 -4.601 QT
-70.979 -4.343 -70.167 -4.343 QT
-69.354 -4.343 -68.432 -4.601 QT
-67.511 -4.859 -66.854 -5.406 QT
-66.198 -5.953 -66.198 -6.765 QT
-66.198 -8.015 -67.346 -8.39 QT
-68.495 -8.765 -70.136 -8.765 QT
-72.104 -8.765 L
-72.667 -8.765 -73.128 -8.499 QT
-73.589 -8.234 -73.87 -7.757 QT
-74.151 -7.281 -74.151 -6.765 QT
cp
-70.839 -12.812 M
-68.792 -12.812 -68.792 -15.718 QT
-68.792 -16.968 -69.229 -17.789 QT
-69.667 -18.609 -70.839 -18.609 QT
-72.011 -18.609 -72.44 -17.789 QT
-72.87 -16.968 -72.87 -15.718 QT
-72.87 -14.921 -72.706 -14.281 QT
-72.542 -13.64 -72.096 -13.226 QT
-71.651 -12.812 -70.839 -12.812 QT
cp
f
GR
GS
[0 -1 1 0 28.8 199.24985] CT
0.149 GC
N
-63.432 -8.64 M
-63.432 -9.484 L
-62.604 -9.484 -62.081 -9.617 QT
-61.557 -9.749 -61.557 -10.249 QT
-61.557 -16.796 L
-61.557 -17.718 -61.909 -17.929 QT
-62.26 -18.14 -63.323 -18.14 QT
-63.323 -18.984 L
-59.87 -19.249 L
-59.87 -10.249 L
-59.87 -9.749 -59.409 -9.617 QT
-58.948 -9.484 -58.182 -9.484 QT
-58.182 -8.64 L
-63.432 -8.64 L
cp
-62.401 -23.374 M
-62.401 -23.906 -62.003 -24.304 QT
-61.604 -24.703 -61.089 -24.703 QT
-60.76 -24.703 -60.44 -24.523 QT
-60.12 -24.343 -59.948 -24.031 QT
-59.776 -23.718 -59.776 -23.374 QT
-59.776 -22.859 -60.175 -22.46 QT
-60.573 -22.062 -61.089 -22.062 QT
-61.604 -22.062 -62.003 -22.46 QT
-62.401 -22.859 -62.401 -23.374 QT
cp
f
GR
GS
[0 -1 1 0 28.8 199.24985] CT
0.149 GC
N
-56.781 -8.64 M
-56.781 -9.484 L
-55.969 -9.484 -55.438 -9.617 QT
-54.906 -9.749 -54.906 -10.249 QT
-54.906 -16.796 L
-54.906 -17.437 -55.102 -17.726 QT
-55.297 -18.015 -55.656 -18.078 QT
-56.016 -18.14 -56.781 -18.14 QT
-56.781 -18.984 L
-53.297 -19.249 L
-53.297 -16.906 L
-52.828 -17.937 -51.883 -18.593 QT
-50.938 -19.249 -49.828 -19.249 QT
-48.156 -19.249 -47.32 -18.453 QT
-46.484 -17.656 -46.484 -16.015 QT
-46.484 -10.249 L
-46.484 -9.749 -45.953 -9.617 QT
-45.422 -9.484 -44.609 -9.484 QT
-44.609 -8.64 L
-50.109 -8.64 L
-50.109 -9.484 L
-49.281 -9.484 -48.758 -9.617 QT
-48.234 -9.749 -48.234 -10.249 QT
-48.234 -15.937 L
-48.234 -17.109 -48.57 -17.867 QT
-48.906 -18.624 -49.969 -18.624 QT
-51.359 -18.624 -52.258 -17.515 QT
-53.156 -16.406 -53.156 -14.984 QT
-53.156 -10.249 L
-53.156 -9.749 -52.625 -9.617 QT
-52.094 -9.484 -51.281 -9.484 QT
-51.281 -8.64 L
-56.781 -8.64 L
cp
f
GR
GS
[0 -1 1 0 28.8 199.24985] CT
0.149 GC
N
-43.198 -10.999 M
-43.198 -12.421 -42.073 -13.32 QT
-40.948 -14.218 -39.378 -14.585 QT
-37.807 -14.953 -36.385 -14.953 QT
-36.385 -15.937 L
-36.385 -16.64 -36.69 -17.289 QT
-36.995 -17.937 -37.565 -18.351 QT
-38.135 -18.765 -38.839 -18.765 QT
-40.432 -18.765 -41.26 -18.046 QT
-40.807 -18.046 -40.503 -17.703 QT
-40.198 -17.359 -40.198 -16.906 QT
-40.198 -16.421 -40.542 -16.085 QT
-40.885 -15.749 -41.354 -15.749 QT
-41.839 -15.749 -42.174 -16.085 QT
-42.51 -16.421 -42.51 -16.906 QT
-42.51 -18.171 -41.362 -18.789 QT
-40.214 -19.406 -38.839 -19.406 QT
-37.854 -19.406 -36.87 -18.984 QT
-35.885 -18.562 -35.26 -17.789 QT
-34.635 -17.015 -34.635 -15.984 QT
-34.635 -10.593 L
-34.635 -10.124 -34.44 -9.726 QT
-34.245 -9.328 -33.823 -9.328 QT
-33.417 -9.328 -33.221 -9.726 QT
-33.026 -10.124 -33.026 -10.593 QT
-33.026 -12.124 L
-32.323 -12.124 L
-32.323 -10.593 L
-32.323 -10.046 -32.604 -9.562 QT
-32.885 -9.078 -33.362 -8.789 QT
-33.839 -8.499 -34.385 -8.499 QT
-35.089 -8.499 -35.604 -9.046 QT
-36.12 -9.593 -36.167 -10.343 QT
-36.62 -9.437 -37.487 -8.906 QT
-38.354 -8.374 -39.339 -8.374 QT
-40.245 -8.374 -41.135 -8.64 QT
-42.026 -8.906 -42.612 -9.492 QT
-43.198 -10.078 -43.198 -10.999 QT
cp
-41.26 -10.999 M
-41.26 -10.156 -40.635 -9.578 QT
-40.01 -8.999 -39.167 -8.999 QT
-38.401 -8.999 -37.768 -9.39 QT
-37.135 -9.781 -36.76 -10.445 QT
-36.385 -11.109 -36.385 -11.859 QT
-36.385 -14.343 L
-37.479 -14.343 -38.62 -13.992 QT
-39.76 -13.64 -40.51 -12.874 QT
-41.26 -12.109 -41.26 -10.999 QT
cp
f
GR
GS
[0 -1 1 0 28.8 199.24985] CT
0.149 GC
N
-31.542 -8.64 M
-31.542 -9.484 L
-30.729 -9.484 -30.198 -9.617 QT
-29.667 -9.749 -29.667 -10.249 QT
-29.667 -16.796 L
-29.667 -17.437 -29.862 -17.726 QT
-30.057 -18.015 -30.417 -18.078 QT
-30.776 -18.14 -31.542 -18.14 QT
-31.542 -18.984 L
-28.104 -19.249 L
-28.104 -16.906 L
-27.729 -17.953 -27.01 -18.601 QT
-26.292 -19.249 -25.276 -19.249 QT
-24.557 -19.249 -23.995 -18.828 QT
-23.432 -18.406 -23.432 -17.718 QT
-23.432 -17.281 -23.745 -16.96 QT
-24.057 -16.64 -24.51 -16.64 QT
-24.964 -16.64 -25.276 -16.953 QT
-25.589 -17.265 -25.589 -17.718 QT
-25.589 -18.359 -25.135 -18.624 QT
-25.276 -18.624 L
-26.245 -18.624 -26.862 -17.921 QT
-27.479 -17.218 -27.737 -16.179 QT
-27.995 -15.14 -27.995 -14.187 QT
-27.995 -10.249 L
-27.995 -9.484 -25.667 -9.484 QT
-25.667 -8.64 L
-31.542 -8.64 L
cp
f
GR
GS
[0 -1 1 0 28.8 199.24985] CT
0.149 GC
N
-21.11 -4.703 M
-20.657 -4.343 -20.11 -4.343 QT
-18.595 -4.343 -17.626 -6.624 QT
-16.814 -8.64 L
-20.407 -17.453 L
-20.626 -17.906 -21.087 -18.023 QT
-21.548 -18.14 -22.314 -18.14 QT
-22.314 -18.984 L
-17.267 -18.984 L
-17.267 -18.14 L
-18.595 -18.14 -18.595 -17.578 QT
-18.595 -17.484 -18.564 -17.437 QT
-15.892 -10.874 L
-13.501 -16.781 L
-13.423 -16.968 -13.423 -17.187 QT
-13.423 -17.484 -13.579 -17.695 QT
-13.735 -17.906 -13.993 -18.023 QT
-14.251 -18.14 -14.564 -18.14 QT
-14.564 -18.984 L
-10.579 -18.984 L
-10.579 -18.14 L
-11.314 -18.14 -11.868 -17.804 QT
-12.423 -17.468 -12.735 -16.796 QT
-16.876 -6.624 L
-17.204 -5.843 -17.649 -5.195 QT
-18.095 -4.546 -18.728 -4.132 QT
-19.36 -3.718 -20.11 -3.718 QT
-20.985 -3.718 -21.649 -4.296 QT
-22.314 -4.874 -22.314 -5.734 QT
-22.314 -6.171 -22.009 -6.476 QT
-21.704 -6.781 -21.251 -6.781 QT
-20.954 -6.781 -20.712 -6.648 QT
-20.47 -6.515 -20.337 -6.281 QT
-20.204 -6.046 -20.204 -5.734 QT
-20.204 -5.343 -20.462 -5.039 QT
-20.72 -4.734 -21.11 -4.703 QT
cp
f
GR
GS
[0 -1 1 0 28.8 199.24985] CT
0.149 GC
N
-1.319 -8.64 M
-1.319 -9.484 L
0.822 -9.484 1.306 -10.906 QT
6.353 -25.562 L
6.416 -25.828 6.744 -25.828 QT
7.041 -25.828 L
7.353 -25.828 7.431 -25.562 QT
12.697 -10.249 L
12.916 -9.749 13.541 -9.617 QT
14.166 -9.484 15.103 -9.484 QT
15.103 -8.64 L
8.416 -8.64 L
8.416 -9.484 L
10.4 -9.484 10.4 -10.124 QT
10.4 -10.249 L
9.103 -13.999 L
3.275 -13.999 L
2.197 -10.906 L
2.181 -10.828 2.181 -10.656 QT
2.181 -10.062 2.752 -9.773 QT
3.322 -9.484 3.978 -9.484 QT
3.978 -8.64 L
-1.319 -8.64 L
cp
3.556 -14.828 M
8.822 -14.828 L
6.181 -22.499 L
3.556 -14.828 L
cp
f
GR
GS
[0 -1 1 0 28.8 199.24985] CT
0.149 GC
N
16.197 -8.64 M
16.197 -9.484 L
17.103 -9.484 17.916 -9.843 QT
18.728 -10.203 19.291 -10.906 QT
21.463 -13.687 L
18.634 -17.374 L
18.213 -17.906 17.713 -18.023 QT
17.213 -18.14 16.306 -18.14 QT
16.306 -18.984 L
21.306 -18.984 L
21.306 -18.14 L
20.994 -18.14 20.713 -17.999 QT
20.431 -17.859 20.431 -17.593 QT
20.431 -17.499 20.509 -17.374 QT
22.431 -14.874 L
23.869 -16.734 L
24.166 -17.078 24.166 -17.437 QT
24.166 -17.718 23.97 -17.929 QT
23.775 -18.14 23.463 -18.14 QT
23.463 -18.984 L
27.884 -18.984 L
27.884 -18.14 L
26.947 -18.14 26.134 -17.789 QT
25.322 -17.437 24.759 -16.734 QT
22.869 -14.296 L
25.931 -10.249 L
26.384 -9.718 26.877 -9.601 QT
27.369 -9.484 28.291 -9.484 QT
28.291 -8.64 L
23.291 -8.64 L
23.291 -9.484 L
23.588 -9.484 23.861 -9.624 QT
24.134 -9.765 24.134 -10.031 QT
24.134 -10.14 24.056 -10.249 QT
21.9 -13.109 L
20.181 -10.906 L
19.916 -10.593 19.916 -10.203 QT
19.916 -9.906 20.111 -9.695 QT
20.306 -9.484 20.572 -9.484 QT
20.572 -8.64 L
16.197 -8.64 L
cp
f
GR
GS
[0 -1 1 0 28.8 199.24985] CT
0.149 GC
N
29.301 -8.64 M
29.301 -9.484 L
30.129 -9.484 30.653 -9.617 QT
31.176 -9.749 31.176 -10.249 QT
31.176 -16.796 L
31.176 -17.718 30.825 -17.929 QT
30.473 -18.14 29.411 -18.14 QT
29.411 -18.984 L
32.864 -19.249 L
32.864 -10.249 L
32.864 -9.749 33.325 -9.617 QT
33.786 -9.484 34.551 -9.484 QT
34.551 -8.64 L
29.301 -8.64 L
cp
30.332 -23.374 M
30.332 -23.906 30.731 -24.304 QT
31.129 -24.703 31.645 -24.703 QT
31.973 -24.703 32.293 -24.523 QT
32.614 -24.343 32.786 -24.031 QT
32.957 -23.718 32.957 -23.374 QT
32.957 -22.859 32.559 -22.46 QT
32.161 -22.062 31.645 -22.062 QT
31.129 -22.062 30.731 -22.46 QT
30.332 -22.859 30.332 -23.374 QT
cp
f
GR
GS
[0 -1 1 0 28.8 199.24985] CT
0.149 GC
N
36.03 -8.562 M
36.03 -12.484 L
36.03 -12.671 36.249 -12.671 QT
36.53 -12.671 L
36.671 -12.671 36.718 -12.484 QT
37.39 -8.999 39.952 -8.999 QT
41.093 -8.999 41.859 -9.515 QT
42.624 -10.031 42.624 -11.109 QT
42.624 -11.89 42.03 -12.437 QT
41.437 -12.984 40.609 -13.171 QT
39.015 -13.499 L
38.202 -13.671 37.538 -14.031 QT
36.874 -14.39 36.452 -14.999 QT
36.03 -15.609 36.03 -16.406 QT
36.03 -17.453 36.585 -18.124 QT
37.14 -18.796 38.03 -19.101 QT
38.921 -19.406 39.952 -19.406 QT
41.187 -19.406 42.109 -18.749 QT
42.796 -19.343 L
42.796 -19.406 42.905 -19.406 QT
43.093 -19.406 L
43.155 -19.406 43.218 -19.335 QT
43.28 -19.265 43.28 -19.203 QT
43.28 -16.062 L
43.28 -15.843 43.093 -15.843 QT
42.796 -15.843 L
42.577 -15.843 42.577 -16.062 QT
42.577 -17.312 41.882 -18.078 QT
41.187 -18.843 39.937 -18.843 QT
38.859 -18.843 38.069 -18.445 QT
37.28 -18.046 37.28 -17.062 QT
37.28 -16.406 37.843 -15.976 QT
38.405 -15.546 39.171 -15.359 QT
40.796 -15.046 L
41.624 -14.859 42.335 -14.414 QT
43.046 -13.968 43.46 -13.289 QT
43.874 -12.609 43.874 -11.765 QT
43.874 -10.89 43.577 -10.249 QT
43.28 -9.609 42.741 -9.187 QT
42.202 -8.765 41.476 -8.57 QT
40.749 -8.374 39.952 -8.374 QT
38.452 -8.374 37.39 -9.374 QT
36.515 -8.421 L
36.515 -8.374 36.39 -8.374 QT
36.249 -8.374 L
36.03 -8.374 36.03 -8.562 QT
cp
f
GR
GS
[0 -1 1 0 28.8 199.24985] CT
0.149 GC
N
52.138 -2.687 M
50.81 -3.734 49.841 -5.101 QT
48.872 -6.468 48.255 -8.015 QT
47.638 -9.562 47.333 -11.249 QT
47.028 -12.937 47.028 -14.64 QT
47.028 -16.359 47.333 -18.046 QT
47.638 -19.734 48.27 -21.296 QT
48.903 -22.859 49.872 -24.218 QT
50.841 -25.578 52.138 -26.593 QT
52.138 -26.64 52.263 -26.64 QT
52.481 -26.64 L
52.56 -26.64 52.614 -26.578 QT
52.669 -26.515 52.669 -26.437 QT
52.669 -26.328 52.622 -26.281 QT
51.45 -25.124 50.669 -23.812 QT
49.888 -22.499 49.419 -21.023 QT
48.95 -19.546 48.739 -17.953 QT
48.528 -16.359 48.528 -14.64 QT
48.528 -7.015 52.606 -3.046 QT
52.669 -2.984 52.669 -2.843 QT
52.669 -2.796 52.606 -2.718 QT
52.544 -2.64 52.481 -2.64 QT
52.263 -2.64 L
52.138 -2.64 52.138 -2.687 QT
cp
f
GR
GS
[0 -1 1 0 28.8 199.24985] CT
0.149 GC
N
54.83 -8.562 M
54.83 -12.484 L
54.83 -12.671 55.049 -12.671 QT
55.33 -12.671 L
55.471 -12.671 55.518 -12.484 QT
56.19 -8.999 58.752 -8.999 QT
59.893 -8.999 60.659 -9.515 QT
61.424 -10.031 61.424 -11.109 QT
61.424 -11.89 60.83 -12.437 QT
60.237 -12.984 59.409 -13.171 QT
57.815 -13.499 L
57.002 -13.671 56.338 -14.031 QT
55.674 -14.39 55.252 -14.999 QT
54.83 -15.609 54.83 -16.406 QT
54.83 -17.453 55.385 -18.124 QT
55.94 -18.796 56.83 -19.101 QT
57.721 -19.406 58.752 -19.406 QT
59.987 -19.406 60.909 -18.749 QT
61.596 -19.343 L
61.596 -19.406 61.705 -19.406 QT
61.893 -19.406 L
61.955 -19.406 62.018 -19.335 QT
62.08 -19.265 62.08 -19.203 QT
62.08 -16.062 L
62.08 -15.843 61.893 -15.843 QT
61.596 -15.843 L
61.377 -15.843 61.377 -16.062 QT
61.377 -17.312 60.682 -18.078 QT
59.987 -18.843 58.737 -18.843 QT
57.659 -18.843 56.869 -18.445 QT
56.08 -18.046 56.08 -17.062 QT
56.08 -16.406 56.643 -15.976 QT
57.205 -15.546 57.971 -15.359 QT
59.596 -15.046 L
60.424 -14.859 61.135 -14.414 QT
61.846 -13.968 62.26 -13.289 QT
62.674 -12.609 62.674 -11.765 QT
62.674 -10.89 62.377 -10.249 QT
62.08 -9.609 61.541 -9.187 QT
61.002 -8.765 60.276 -8.57 QT
59.549 -8.374 58.752 -8.374 QT
57.252 -8.374 56.19 -9.374 QT
55.315 -8.421 L
55.315 -8.374 55.19 -8.374 QT
55.049 -8.374 L
54.83 -8.374 54.83 -8.562 QT
cp
f
GR
GS
[0 -1 1 0 28.8 199.24985] CT
0.149 GC
N
69.485 -8.374 M
68.016 -8.374 66.789 -9.14 QT
65.563 -9.906 64.867 -11.187 QT
64.172 -12.468 64.172 -13.906 QT
64.172 -15.312 64.813 -16.578 QT
65.453 -17.843 66.594 -18.624 QT
67.735 -19.406 69.141 -19.406 QT
70.235 -19.406 71.055 -19.031 QT
71.875 -18.656 72.399 -17.999 QT
72.922 -17.343 73.196 -16.453 QT
73.469 -15.562 73.469 -14.499 QT
73.469 -14.187 73.219 -14.187 QT
66.266 -14.187 L
66.266 -13.921 L
66.266 -11.937 67.071 -10.507 QT
67.875 -9.078 69.688 -9.078 QT
70.422 -9.078 71.055 -9.406 QT
71.688 -9.734 72.149 -10.32 QT
72.61 -10.906 72.766 -11.578 QT
72.797 -11.656 72.86 -11.718 QT
72.922 -11.781 73 -11.781 QT
73.219 -11.781 L
73.469 -11.781 73.469 -11.484 QT
73.125 -10.124 72 -9.249 QT
70.875 -8.374 69.485 -8.374 QT
cp
66.297 -14.781 M
71.766 -14.781 L
71.766 -15.687 71.516 -16.609 QT
71.266 -17.531 70.68 -18.148 QT
70.094 -18.765 69.141 -18.765 QT
67.781 -18.765 67.039 -17.492 QT
66.297 -16.218 66.297 -14.781 QT
cp
f
GR
GS
[0 -1 1 0 28.8 199.24985] CT
0.149 GC
N
80.151 -8.374 M
78.698 -8.374 77.511 -9.132 QT
76.323 -9.89 75.643 -11.148 QT
74.964 -12.406 74.964 -13.828 QT
74.964 -15.234 75.636 -16.539 QT
76.307 -17.843 77.503 -18.624 QT
78.698 -19.406 80.151 -19.406 QT
81.557 -19.406 82.706 -18.851 QT
83.854 -18.296 83.854 -17.046 QT
83.854 -16.578 83.526 -16.234 QT
83.198 -15.89 82.714 -15.89 QT
82.229 -15.89 81.893 -16.234 QT
81.557 -16.578 81.557 -17.046 QT
81.557 -17.468 81.831 -17.781 QT
82.104 -18.093 82.495 -18.171 QT
81.667 -18.703 80.167 -18.703 QT
79.026 -18.703 78.323 -17.937 QT
77.62 -17.171 77.339 -16.046 QT
77.057 -14.921 77.057 -13.828 QT
77.057 -12.656 77.401 -11.578 QT
77.745 -10.499 78.511 -9.789 QT
79.276 -9.078 80.432 -9.078 QT
81.573 -9.078 82.37 -9.773 QT
83.167 -10.468 83.464 -11.593 QT
83.464 -11.734 83.651 -11.734 QT
83.948 -11.734 L
84.011 -11.734 84.073 -11.671 QT
84.136 -11.609 84.136 -11.531 QT
84.136 -11.453 L
83.761 -10.031 82.682 -9.203 QT
81.604 -8.374 80.151 -8.374 QT
cp
f
GR
GS
[0 -1 1 0 28.8 199.24985] CT
0.149 GC
N
86.568 -21.256 M
86.427 -21.256 86.334 -21.365 QT
86.24 -21.475 86.24 -21.6 QT
86.24 -21.725 86.334 -21.834 QT
86.427 -21.943 86.568 -21.943 QT
96.318 -21.943 L
96.459 -21.943 96.544 -21.834 QT
96.63 -21.725 96.63 -21.6 QT
96.63 -21.475 96.544 -21.365 QT
96.459 -21.256 96.318 -21.256 QT
86.568 -21.256 L
cp
f
GR
GS
[0 -1 1 0 28.8 199.24985] CT
0.149 GC
N
99.478 -17.35 M
99.478 -17.943 L
101.603 -17.943 101.603 -18.49 QT
101.603 -27.412 L
100.728 -26.99 99.385 -26.99 QT
99.385 -27.584 L
101.463 -27.584 102.525 -28.678 QT
102.76 -28.678 L
102.822 -28.678 102.877 -28.631 QT
102.931 -28.584 102.931 -28.521 QT
102.931 -18.49 L
102.931 -17.943 105.056 -17.943 QT
105.056 -17.35 L
99.478 -17.35 L
cp
f
GR
GS
[0 -1 1 0 28.8 199.24985] CT
0.149 GC
N
109.063 -2.64 M
108.844 -2.64 108.844 -2.843 QT
108.844 -2.953 108.891 -2.999 QT
113 -7.015 113 -14.64 QT
113 -22.265 108.938 -26.234 QT
108.844 -26.296 108.844 -26.437 QT
108.844 -26.515 108.914 -26.578 QT
108.985 -26.64 109.063 -26.64 QT
109.281 -26.64 L
109.36 -26.64 109.406 -26.593 QT
111.125 -25.234 112.274 -23.289 QT
113.422 -21.343 113.953 -19.14 QT
114.485 -16.937 114.485 -14.64 QT
114.485 -12.937 114.196 -11.296 QT
113.906 -9.656 113.281 -8.054 QT
112.656 -6.453 111.696 -5.093 QT
110.735 -3.734 109.406 -2.687 QT
109.36 -2.64 109.281 -2.64 QT
109.063 -2.64 L
cp
f
GR
GS
[1 0 0 1 119.00134 199.25] CT
0 0.447 0.741 RC
10.0 ML
N
0 -5 M
0 5 L
-5 0 M
5 0 L
-3.536 -3.536 M
3.536 3.536 L
-3.536 3.536 M
3.536 -3.536 L
S
GR
GS
[1 0 0 1 466.49866 199.25] CT
0 0.447 0.741 RC
10.0 ML
N
0 -5 M
0 5 L
-5 0 M
5 0 L
-3.536 -3.536 M
3.536 3.536 L
-3.536 3.536 M
3.536 -3.536 L
S
GR
GS
[1 0 0 1 292.75 36.09984] CT
0 0.447 0.741 RC
10.0 ML
N
0 -5 M
0 5 L
-5 0 M
5 0 L
-3.536 -3.536 M
3.536 3.536 L
-3.536 3.536 M
3.536 -3.536 L
S
GR
GS
[1 0 0 1 292.75 362.40015] CT
0 0.447 0.741 RC
10.0 ML
N
0 -5 M
0 5 L
-5 0 M
5 0 L
-3.536 -3.536 M
3.536 3.536 L
-3.536 3.536 M
3.536 -3.536 L
S
GR
%%Trailer
%%Pages: 1
%%EOF
