%!PS-Adobe-3.0 EPSF-3.0
%%Creator: (MATLAB, The Mathworks, Inc. Version 9.13.0.2049777 \(R2022b\). Operating System: Mac OS X)
%%Title: ../../Figure/Q2/phi_1000.eps
%%CreationDate: 2023-01-24T21:49:49
%%Pages: (atend)
%%BoundingBox:    15     2   531   395
%%LanguageLevel: 3
%%EndComments
%%BeginProlog
%%BeginResource: procset (Apache XML Graphics Std ProcSet) 1.2 0
%%Version: 1.2 0
%%Copyright: (Copyright 2001-2003,2010 The Apache Software Foundation. License terms: http://www.apache.org/licenses/LICENSE-2.0)
/bd{bind def}bind def
/ld{load def}bd
/GR/grestore ld
/GS/gsave ld
/RM/rmoveto ld
/C/curveto ld
/t/show ld
/L/lineto ld
/ML/setmiterlimit ld
/CT/concat ld
/f/fill ld
/N/newpath ld
/S/stroke ld
/CC/setcmykcolor ld
/A/ashow ld
/cp/closepath ld
/RC/setrgbcolor ld
/LJ/setlinejoin ld
/GC/setgray ld
/LW/setlinewidth ld
/M/moveto ld
/re {4 2 roll M
1 index 0 rlineto
0 exch rlineto
neg 0 rlineto
cp } bd
/_ctm matrix def
/_tm matrix def
/BT { _ctm currentmatrix pop matrix _tm copy pop 0 0 moveto } bd
/ET { _ctm setmatrix } bd
/iTm { _ctm setmatrix _tm concat } bd
/Tm { _tm astore pop iTm 0 0 moveto } bd
/ux 0.0 def
/uy 0.0 def
/F {
  /Tp exch def
  /Tf exch def
  Tf findfont Tp scalefont setfont
  /cf Tf def  /cs Tp def
} bd
/ULS {currentpoint /uy exch def /ux exch def} bd
/ULE {
  /Tcx currentpoint pop def
  gsave
  newpath
  cf findfont cs scalefont dup
  /FontMatrix get 0 get /Ts exch def /FontInfo get dup
  /UnderlinePosition get Ts mul /To exch def
  /UnderlineThickness get Ts mul /Tt exch def
  ux uy To add moveto  Tcx uy To add lineto
  Tt setlinewidth stroke
  grestore
} bd
/OLE {
  /Tcx currentpoint pop def
  gsave
  newpath
  cf findfont cs scalefont dup
  /FontMatrix get 0 get /Ts exch def /FontInfo get dup
  /UnderlinePosition get Ts mul /To exch def
  /UnderlineThickness get Ts mul /Tt exch def
  ux uy To add cs add moveto Tcx uy To add cs add lineto
  Tt setlinewidth stroke
  grestore
} bd
/SOE {
  /Tcx currentpoint pop def
  gsave
  newpath
  cf findfont cs scalefont dup
  /FontMatrix get 0 get /Ts exch def /FontInfo get dup
  /UnderlinePosition get Ts mul /To exch def
  /UnderlineThickness get Ts mul /Tt exch def
  ux uy To add cs 10 mul 26 idiv add moveto Tcx uy To add cs 10 mul 26 idiv add lineto
  Tt setlinewidth stroke
  grestore
} bd
/QT {
/Y22 exch store
/X22 exch store
/Y21 exch store
/X21 exch store
currentpoint
/Y21 load 2 mul add 3 div exch
/X21 load 2 mul add 3 div exch
/X21 load 2 mul /X22 load add 3 div
/Y21 load 2 mul /Y22 load add 3 div
/X22 load /Y22 load curveto
} bd
/SSPD {
dup length /d exch dict def
{
/v exch def
/k exch def
currentpagedevice k known {
/cpdv currentpagedevice k get def
v cpdv ne {
/upd false def
/nullv v type /nulltype eq def
/nullcpdv cpdv type /nulltype eq def
nullv nullcpdv or
{
/upd true def
} {
/sametype v type cpdv type eq def
sametype {
v type /arraytype eq {
/vlen v length def
/cpdvlen cpdv length def
vlen cpdvlen eq {
0 1 vlen 1 sub {
/i exch def
/obj v i get def
/cpdobj cpdv i get def
obj cpdobj ne {
/upd true def
exit
} if
} for
} {
/upd true def
} ifelse
} {
v type /dicttype eq {
v {
/dv exch def
/dk exch def
/cpddv cpdv dk get def
dv cpddv ne {
/upd true def
exit
} if
} forall
} {
/upd true def
} ifelse
} ifelse
} if
} ifelse
upd true eq {
d k v put
} if
} if
} if
} forall
d length 0 gt {
d setpagedevice
} if
} bd
/RE { % /NewFontName [NewEncodingArray] /FontName RE -
  findfont dup length dict begin
  {
    1 index /FID ne
    {def} {pop pop} ifelse
  } forall
  /Encoding exch def
  /FontName 1 index def
  currentdict definefont pop
  end
} bind def
%%EndResource
%%BeginResource: procset (Apache XML Graphics EPS ProcSet) 1.0 0
%%Version: 1.0 0
%%Copyright: (Copyright 2002-2003 The Apache Software Foundation. License terms: http://www.apache.org/licenses/LICENSE-2.0)
/BeginEPSF { %def
/b4_Inc_state save def         % Save state for cleanup
/dict_count countdictstack def % Count objects on dict stack
/op_count count 1 sub def      % Count objects on operand stack
userdict begin                 % Push userdict on dict stack
/showpage { } def              % Redefine showpage, { } = null proc
0 setgray 0 setlinecap         % Prepare graphics state
1 setlinewidth 0 setlinejoin
10 setmiterlimit [ ] 0 setdash newpath
/languagelevel where           % If level not equal to 1 then
{pop languagelevel             % set strokeadjust and
1 ne                           % overprint to their defaults.
{false setstrokeadjust false setoverprint
} if
} if
} bd
/EndEPSF { %def
count op_count sub {pop} repeat            % Clean up stacks
countdictstack dict_count sub {end} repeat
b4_Inc_state restore
} bd
%%EndResource
%FOPBeginFontDict
%%IncludeResource: font Courier-Oblique
%%IncludeResource: font Courier-BoldOblique
%%IncludeResource: font Courier-Bold
%%IncludeResource: font ZapfDingbats
%%IncludeResource: font Symbol
%%IncludeResource: font Helvetica
%%IncludeResource: font Helvetica-Oblique
%%IncludeResource: font Helvetica-Bold
%%IncludeResource: font Helvetica-BoldOblique
%%IncludeResource: font Times-Roman
%%IncludeResource: font Times-Italic
%%IncludeResource: font Times-Bold
%%IncludeResource: font Times-BoldItalic
%%IncludeResource: font Courier
%FOPEndFontDict
%%BeginResource: encoding WinAnsiEncoding
/WinAnsiEncoding [
/.notdef /.notdef /.notdef /.notdef /.notdef
/.notdef /.notdef /.notdef /.notdef /.notdef
/.notdef /.notdef /.notdef /.notdef /.notdef
/.notdef /.notdef /.notdef /.notdef /.notdef
/.notdef /.notdef /.notdef /.notdef /.notdef
/.notdef /.notdef /.notdef /.notdef /.notdef
/.notdef /.notdef /space /exclam /quotedbl
/numbersign /dollar /percent /ampersand /quotesingle
/parenleft /parenright /asterisk /plus /comma
/hyphen /period /slash /zero /one
/two /three /four /five /six
/seven /eight /nine /colon /semicolon
/less /equal /greater /question /at
/A /B /C /D /E
/F /G /H /I /J
/K /L /M /N /O
/P /Q /R /S /T
/U /V /W /X /Y
/Z /bracketleft /backslash /bracketright /asciicircum
/underscore /quoteleft /a /b /c
/d /e /f /g /h
/i /j /k /l /m
/n /o /p /q /r
/s /t /u /v /w
/x /y /z /braceleft /bar
/braceright /asciitilde /bullet /Euro /bullet
/quotesinglbase /florin /quotedblbase /ellipsis /dagger
/daggerdbl /circumflex /perthousand /Scaron /guilsinglleft
/OE /bullet /Zcaron /bullet /bullet
/quoteleft /quoteright /quotedblleft /quotedblright /bullet
/endash /emdash /asciitilde /trademark /scaron
/guilsinglright /oe /bullet /zcaron /Ydieresis
/space /exclamdown /cent /sterling /currency
/yen /brokenbar /section /dieresis /copyright
/ordfeminine /guillemotleft /logicalnot /sfthyphen /registered
/macron /degree /plusminus /twosuperior /threesuperior
/acute /mu /paragraph /middot /cedilla
/onesuperior /ordmasculine /guillemotright /onequarter /onehalf
/threequarters /questiondown /Agrave /Aacute /Acircumflex
/Atilde /Adieresis /Aring /AE /Ccedilla
/Egrave /Eacute /Ecircumflex /Edieresis /Igrave
/Iacute /Icircumflex /Idieresis /Eth /Ntilde
/Ograve /Oacute /Ocircumflex /Otilde /Odieresis
/multiply /Oslash /Ugrave /Uacute /Ucircumflex
/Udieresis /Yacute /Thorn /germandbls /agrave
/aacute /acircumflex /atilde /adieresis /aring
/ae /ccedilla /egrave /eacute /ecircumflex
/edieresis /igrave /iacute /icircumflex /idieresis
/eth /ntilde /ograve /oacute /ocircumflex
/otilde /odieresis /divide /oslash /ugrave
/uacute /ucircumflex /udieresis /yacute /thorn
/ydieresis
] def
%%EndResource
%FOPBeginFontReencode
/Courier-Oblique findfont
dup length dict begin
  {1 index /FID ne {def} {pop pop} ifelse} forall
  /Encoding WinAnsiEncoding def
  currentdict
end
/Courier-Oblique exch definefont pop
/Courier-BoldOblique findfont
dup length dict begin
  {1 index /FID ne {def} {pop pop} ifelse} forall
  /Encoding WinAnsiEncoding def
  currentdict
end
/Courier-BoldOblique exch definefont pop
/Courier-Bold findfont
dup length dict begin
  {1 index /FID ne {def} {pop pop} ifelse} forall
  /Encoding WinAnsiEncoding def
  currentdict
end
/Courier-Bold exch definefont pop
/Helvetica findfont
dup length dict begin
  {1 index /FID ne {def} {pop pop} ifelse} forall
  /Encoding WinAnsiEncoding def
  currentdict
end
/Helvetica exch definefont pop
/Helvetica-Oblique findfont
dup length dict begin
  {1 index /FID ne {def} {pop pop} ifelse} forall
  /Encoding WinAnsiEncoding def
  currentdict
end
/Helvetica-Oblique exch definefont pop
/Helvetica-Bold findfont
dup length dict begin
  {1 index /FID ne {def} {pop pop} ifelse} forall
  /Encoding WinAnsiEncoding def
  currentdict
end
/Helvetica-Bold exch definefont pop
/Helvetica-BoldOblique findfont
dup length dict begin
  {1 index /FID ne {def} {pop pop} ifelse} forall
  /Encoding WinAnsiEncoding def
  currentdict
end
/Helvetica-BoldOblique exch definefont pop
/Times-Roman findfont
dup length dict begin
  {1 index /FID ne {def} {pop pop} ifelse} forall
  /Encoding WinAnsiEncoding def
  currentdict
end
/Times-Roman exch definefont pop
/Times-Italic findfont
dup length dict begin
  {1 index /FID ne {def} {pop pop} ifelse} forall
  /Encoding WinAnsiEncoding def
  currentdict
end
/Times-Italic exch definefont pop
/Times-Bold findfont
dup length dict begin
  {1 index /FID ne {def} {pop pop} ifelse} forall
  /Encoding WinAnsiEncoding def
  currentdict
end
/Times-Bold exch definefont pop
/Times-BoldItalic findfont
dup length dict begin
  {1 index /FID ne {def} {pop pop} ifelse} forall
  /Encoding WinAnsiEncoding def
  currentdict
end
/Times-BoldItalic exch definefont pop
/Courier findfont
dup length dict begin
  {1 index /FID ne {def} {pop pop} ifelse} forall
  /Encoding WinAnsiEncoding def
  currentdict
end
/Courier exch definefont pop
%FOPEndFontReencode
%%EndProlog
%%Page: 1 1
%%PageBoundingBox: 0 0 560 420
%%BeginPageSetup
N
   15     2 M
  546     2 L
  546   397 L
   15   397 L
cp
clip
[1 0 0 -1 0 420] CT
%%EndPageSetup
GS
1 GC
N
0 0 560 420 re
f
GR
GS
1 GC
N
0 0 560 420 re
f
GR
GS
1 GC
N
73 367 M
507 367 L
507 31.5 L
73 31.5 L
cp
f
GR
GS
0.149 GC
2 setlinecap
1 LJ
0.5 LW
N
73 367 M
507 367 L
S
GR
GS
0.149 GC
2 setlinecap
1 LJ
0.5 LW
N
73 31.5 M
507 31.5 L
S
GR
GS
0.149 GC
2 setlinecap
1 LJ
0.5 LW
N
73 367 M
73 362.66 L
S
GR
GS
0.149 GC
2 setlinecap
1 LJ
0.5 LW
N
159.8 367 M
159.8 362.66 L
S
GR
GS
0.149 GC
2 setlinecap
1 LJ
0.5 LW
N
246.6 367 M
246.6 362.66 L
S
GR
GS
0.149 GC
2 setlinecap
1 LJ
0.5 LW
N
333.4 367 M
333.4 362.66 L
S
GR
GS
0.149 GC
2 setlinecap
1 LJ
0.5 LW
N
420.2 367 M
420.2 362.66 L
S
GR
GS
0.149 GC
2 setlinecap
1 LJ
0.5 LW
N
507 367 M
507 362.66 L
S
GR
GS
0.149 GC
2 setlinecap
1 LJ
0.5 LW
N
73 31.5 M
73 35.84 L
S
GR
GS
0.149 GC
2 setlinecap
1 LJ
0.5 LW
N
159.8 31.5 M
159.8 35.84 L
S
GR
GS
0.149 GC
2 setlinecap
1 LJ
0.5 LW
N
246.6 31.5 M
246.6 35.84 L
S
GR
GS
0.149 GC
2 setlinecap
1 LJ
0.5 LW
N
333.4 31.5 M
333.4 35.84 L
S
GR
GS
0.149 GC
2 setlinecap
1 LJ
0.5 LW
N
420.2 31.5 M
420.2 35.84 L
S
GR
GS
0.149 GC
2 setlinecap
1 LJ
0.5 LW
N
507 31.5 M
507 35.84 L
S
GR
GS
[1 0 0 1 73 372.19998] CT
0.149 GC
/Times-Roman 16 F
GS
[1 0 0 1 0 0] CT
-4 15 moveto 
1 -1 scale
(0) t 
GR
GR
GS
[1 0 0 1 159.8 372.19998] CT
0.149 GC
/Times-Roman 16 F
GS
[1 0 0 1 0 0] CT
-12 15 moveto 
1 -1 scale
(200) t 
GR
GR
GS
[1 0 0 1 246.60001 372.19998] CT
0.149 GC
/Times-Roman 16 F
GS
[1 0 0 1 0 0] CT
-12 15 moveto 
1 -1 scale
(400) t 
GR
GR
GS
[1 0 0 1 333.39999 372.19998] CT
0.149 GC
/Times-Roman 16 F
GS
[1 0 0 1 0 0] CT
-12 15 moveto 
1 -1 scale
(600) t 
GR
GR
GS
[1 0 0 1 420.20001 372.19998] CT
0.149 GC
/Times-Roman 16 F
GS
[1 0 0 1 0 0] CT
-12 15 moveto 
1 -1 scale
(800) t 
GR
GR
GS
[1 0 0 1 507 372.19998] CT
0.149 GC
/Times-Roman 16 F
GS
[1 0 0 1 0 0] CT
-16 15 moveto 
1 -1 scale
(1000) t 
GR
GR
GS
[1 0 0 1 290.00021 391.19998] CT
0.149 GC
N
-52.004 20.16 M
-52.004 19.316 L
-50.801 19.316 -49.668 19.183 QT
-48.535 19.051 -48.535 18.551 QT
-48.535 5.363 L
-48.535 4.847 -48.817 4.73 QT
-49.098 4.613 -49.754 4.613 QT
-50.754 4.613 L
-52.739 4.613 -53.567 5.472 QT
-54.004 5.91 -54.192 6.863 QT
-54.379 7.816 -54.504 9.254 QT
-55.192 9.254 L
-54.739 3.769 L
-40.082 3.769 L
-39.629 9.254 L
-40.332 9.254 L
-40.473 7.707 -40.637 6.801 QT
-40.801 5.894 -41.254 5.472 QT
-42.098 4.613 -44.067 4.613 QT
-45.067 4.613 L
-45.504 4.613 -45.746 4.644 QT
-45.989 4.676 -46.137 4.847 QT
-46.285 5.019 -46.285 5.363 QT
-46.285 18.551 L
-46.285 19.051 -45.153 19.183 QT
-44.02 19.316 -42.817 19.316 QT
-42.817 20.16 L
-52.004 20.16 L
cp
f
GR
GS
[1 0 0 1 290.00021 391.19998] CT
0.149 GC
N
-37.999 20.16 M
-37.999 19.316 L
-37.171 19.316 -36.647 19.183 QT
-36.124 19.051 -36.124 18.551 QT
-36.124 12.004 L
-36.124 11.082 -36.476 10.871 QT
-36.827 10.66 -37.89 10.66 QT
-37.89 9.816 L
-34.436 9.551 L
-34.436 18.551 L
-34.436 19.051 -33.976 19.183 QT
-33.515 19.316 -32.749 19.316 QT
-32.749 20.16 L
-37.999 20.16 L
cp
-36.968 5.426 M
-36.968 4.894 -36.569 4.496 QT
-36.171 4.097 -35.655 4.097 QT
-35.327 4.097 -35.007 4.277 QT
-34.686 4.457 -34.515 4.769 QT
-34.343 5.082 -34.343 5.426 QT
-34.343 5.941 -34.741 6.34 QT
-35.14 6.738 -35.655 6.738 QT
-36.171 6.738 -36.569 6.34 QT
-36.968 5.941 -36.968 5.426 QT
cp
f
GR
GS
[1 0 0 1 290.00021 391.19998] CT
0.149 GC
N
-31.348 20.16 M
-31.348 19.316 L
-30.535 19.316 -30.004 19.183 QT
-29.473 19.051 -29.473 18.551 QT
-29.473 12.004 L
-29.473 11.363 -29.668 11.074 QT
-29.864 10.785 -30.223 10.722 QT
-30.582 10.66 -31.348 10.66 QT
-31.348 9.816 L
-27.864 9.551 L
-27.864 11.894 L
-27.395 10.863 -26.449 10.207 QT
-25.504 9.551 -24.395 9.551 QT
-21.629 9.551 -21.145 11.801 QT
-20.66 10.801 -19.739 10.176 QT
-18.817 9.551 -17.707 9.551 QT
-16.614 9.551 -15.871 9.902 QT
-15.129 10.254 -14.754 10.972 QT
-14.379 11.691 -14.379 12.785 QT
-14.379 18.551 L
-14.379 19.051 -13.848 19.183 QT
-13.317 19.316 -12.504 19.316 QT
-12.504 20.16 L
-18.004 20.16 L
-18.004 19.316 L
-17.176 19.316 -16.653 19.183 QT
-16.129 19.051 -16.129 18.551 QT
-16.129 12.863 L
-16.129 11.644 -16.465 10.91 QT
-16.801 10.176 -17.864 10.176 QT
-19.239 10.176 -20.145 11.285 QT
-21.051 12.394 -21.051 13.816 QT
-21.051 18.551 L
-21.051 19.051 -20.52 19.183 QT
-19.989 19.316 -19.176 19.316 QT
-19.176 20.16 L
-24.676 20.16 L
-24.676 19.316 L
-23.848 19.316 -23.324 19.183 QT
-22.801 19.051 -22.801 18.551 QT
-22.801 12.863 L
-22.801 11.691 -23.137 10.933 QT
-23.473 10.176 -24.535 10.176 QT
-25.926 10.176 -26.824 11.285 QT
-27.723 12.394 -27.723 13.816 QT
-27.723 18.551 L
-27.723 19.051 -27.192 19.183 QT
-26.66 19.316 -25.848 19.316 QT
-25.848 20.16 L
-31.348 20.16 L
cp
f
GR
GS
[1 0 0 1 290.00021 391.19998] CT
0.149 GC
N
-6.082 20.426 M
-7.551 20.426 -8.778 19.66 QT
-10.004 18.894 -10.699 17.613 QT
-11.395 16.332 -11.395 14.894 QT
-11.395 13.488 -10.754 12.222 QT
-10.113 10.957 -8.973 10.176 QT
-7.832 9.394 -6.426 9.394 QT
-5.332 9.394 -4.512 9.769 QT
-3.692 10.144 -3.168 10.801 QT
-2.645 11.457 -2.371 12.347 QT
-2.098 13.238 -2.098 14.301 QT
-2.098 14.613 -2.348 14.613 QT
-9.301 14.613 L
-9.301 14.879 L
-9.301 16.863 -8.496 18.293 QT
-7.692 19.722 -5.879 19.722 QT
-5.145 19.722 -4.512 19.394 QT
-3.879 19.066 -3.418 18.48 QT
-2.957 17.894 -2.801 17.222 QT
-2.77 17.144 -2.707 17.082 QT
-2.645 17.019 -2.567 17.019 QT
-2.348 17.019 L
-2.098 17.019 -2.098 17.316 QT
-2.442 18.676 -3.567 19.551 QT
-4.692 20.426 -6.082 20.426 QT
cp
-9.27 14.019 M
-3.801 14.019 L
-3.801 13.113 -4.051 12.191 QT
-4.301 11.269 -4.887 10.652 QT
-5.473 10.035 -6.426 10.035 QT
-7.785 10.035 -8.528 11.308 QT
-9.27 12.582 -9.27 14.019 QT
cp
f
GR
GS
[1 0 0 1 290.00021 391.19998] CT
0.149 GC
N
14.038 26.113 M
12.709 25.066 11.741 23.699 QT
10.772 22.332 10.155 20.785 QT
9.538 19.238 9.233 17.551 QT
8.928 15.863 8.928 14.16 QT
8.928 12.441 9.233 10.754 QT
9.538 9.066 10.17 7.504 QT
10.803 5.941 11.772 4.582 QT
12.741 3.222 14.038 2.207 QT
14.038 2.16 14.163 2.16 QT
14.381 2.16 L
14.459 2.16 14.514 2.222 QT
14.569 2.285 14.569 2.363 QT
14.569 2.472 14.522 2.519 QT
13.35 3.676 12.569 4.988 QT
11.788 6.301 11.319 7.777 QT
10.85 9.254 10.639 10.847 QT
10.428 12.441 10.428 14.16 QT
10.428 21.785 14.506 25.754 QT
14.569 25.816 14.569 25.957 QT
14.569 26.004 14.506 26.082 QT
14.444 26.16 14.381 26.16 QT
14.163 26.16 L
14.038 26.16 14.038 26.113 QT
cp
f
GR
GS
[1 0 0 1 290.00021 391.19998] CT
0.149 GC
N
16.73 20.238 M
16.73 16.316 L
16.73 16.129 16.949 16.129 QT
17.23 16.129 L
17.371 16.129 17.418 16.316 QT
18.09 19.801 20.652 19.801 QT
21.793 19.801 22.558 19.285 QT
23.324 18.769 23.324 17.691 QT
23.324 16.91 22.73 16.363 QT
22.137 15.816 21.308 15.629 QT
19.715 15.301 L
18.902 15.129 18.238 14.769 QT
17.574 14.41 17.152 13.801 QT
16.73 13.191 16.73 12.394 QT
16.73 11.347 17.285 10.676 QT
17.84 10.004 18.73 9.699 QT
19.621 9.394 20.652 9.394 QT
21.887 9.394 22.808 10.051 QT
23.496 9.457 L
23.496 9.394 23.605 9.394 QT
23.793 9.394 L
23.855 9.394 23.918 9.465 QT
23.98 9.535 23.98 9.597 QT
23.98 12.738 L
23.98 12.957 23.793 12.957 QT
23.496 12.957 L
23.277 12.957 23.277 12.738 QT
23.277 11.488 22.582 10.722 QT
21.887 9.957 20.637 9.957 QT
19.558 9.957 18.769 10.355 QT
17.98 10.754 17.98 11.738 QT
17.98 12.394 18.543 12.824 QT
19.105 13.254 19.871 13.441 QT
21.496 13.754 L
22.324 13.941 23.035 14.386 QT
23.746 14.832 24.16 15.511 QT
24.574 16.191 24.574 17.035 QT
24.574 17.91 24.277 18.551 QT
23.98 19.191 23.441 19.613 QT
22.902 20.035 22.176 20.23 QT
21.449 20.426 20.652 20.426 QT
19.152 20.426 18.09 19.426 QT
17.215 20.379 L
17.215 20.426 17.09 20.426 QT
16.949 20.426 L
16.73 20.426 16.73 20.238 QT
cp
f
GR
GS
[1 0 0 1 290.00021 391.19998] CT
0.149 GC
N
31.384 20.426 M
29.916 20.426 28.689 19.66 QT
27.463 18.894 26.767 17.613 QT
26.072 16.332 26.072 14.894 QT
26.072 13.488 26.713 12.222 QT
27.353 10.957 28.494 10.176 QT
29.634 9.394 31.041 9.394 QT
32.134 9.394 32.955 9.769 QT
33.775 10.144 34.299 10.801 QT
34.822 11.457 35.095 12.347 QT
35.369 13.238 35.369 14.301 QT
35.369 14.613 35.119 14.613 QT
28.166 14.613 L
28.166 14.879 L
28.166 16.863 28.97 18.293 QT
29.775 19.722 31.588 19.722 QT
32.322 19.722 32.955 19.394 QT
33.588 19.066 34.049 18.48 QT
34.509 17.894 34.666 17.222 QT
34.697 17.144 34.759 17.082 QT
34.822 17.019 34.9 17.019 QT
35.119 17.019 L
35.369 17.019 35.369 17.316 QT
35.025 18.676 33.9 19.551 QT
32.775 20.426 31.384 20.426 QT
cp
28.197 14.019 M
33.666 14.019 L
33.666 13.113 33.416 12.191 QT
33.166 11.269 32.58 10.652 QT
31.994 10.035 31.041 10.035 QT
29.681 10.035 28.939 11.308 QT
28.197 12.582 28.197 14.019 QT
cp
f
GR
GS
[1 0 0 1 290.00021 391.19998] CT
0.149 GC
N
42.051 20.426 M
40.598 20.426 39.41 19.668 QT
38.223 18.91 37.543 17.652 QT
36.864 16.394 36.864 14.972 QT
36.864 13.566 37.535 12.261 QT
38.207 10.957 39.403 10.176 QT
40.598 9.394 42.051 9.394 QT
43.457 9.394 44.606 9.949 QT
45.754 10.504 45.754 11.754 QT
45.754 12.222 45.426 12.566 QT
45.098 12.91 44.614 12.91 QT
44.129 12.91 43.793 12.566 QT
43.457 12.222 43.457 11.754 QT
43.457 11.332 43.731 11.019 QT
44.004 10.707 44.395 10.629 QT
43.567 10.097 42.067 10.097 QT
40.926 10.097 40.223 10.863 QT
39.52 11.629 39.239 12.754 QT
38.957 13.879 38.957 14.972 QT
38.957 16.144 39.301 17.222 QT
39.645 18.301 40.41 19.011 QT
41.176 19.722 42.332 19.722 QT
43.473 19.722 44.27 19.027 QT
45.067 18.332 45.364 17.207 QT
45.364 17.066 45.551 17.066 QT
45.848 17.066 L
45.91 17.066 45.973 17.129 QT
46.035 17.191 46.035 17.269 QT
46.035 17.347 L
45.66 18.769 44.582 19.597 QT
43.504 20.426 42.051 20.426 QT
cp
f
GR
GS
[1 0 0 1 290.00021 391.19998] CT
0.149 GC
N
48.296 26.16 M
48.077 26.16 48.077 25.957 QT
48.077 25.847 48.124 25.801 QT
52.233 21.785 52.233 14.16 QT
52.233 6.535 48.171 2.566 QT
48.077 2.504 48.077 2.363 QT
48.077 2.285 48.147 2.222 QT
48.218 2.16 48.296 2.16 QT
48.515 2.16 L
48.593 2.16 48.64 2.207 QT
50.358 3.566 51.507 5.511 QT
52.655 7.457 53.187 9.66 QT
53.718 11.863 53.718 14.16 QT
53.718 15.863 53.429 17.504 QT
53.14 19.144 52.515 20.746 QT
51.89 22.347 50.929 23.707 QT
49.968 25.066 48.64 26.113 QT
48.593 26.16 48.515 26.16 QT
48.296 26.16 L
cp
f
GR
GS
0.149 GC
2 setlinecap
1 LJ
0.5 LW
N
73 367 M
73 31.5 L
S
GR
GS
0.149 GC
2 setlinecap
1 LJ
0.5 LW
N
507 367 M
507 31.5 L
S
GR
GS
0.149 GC
2 setlinecap
1 LJ
0.5 LW
N
73 367 M
77.34 367 L
S
GR
GS
0.149 GC
2 setlinecap
1 LJ
0.5 LW
N
73 319.071 M
77.34 319.071 L
S
GR
GS
0.149 GC
2 setlinecap
1 LJ
0.5 LW
N
73 271.143 M
77.34 271.143 L
S
GR
GS
0.149 GC
2 setlinecap
1 LJ
0.5 LW
N
73 223.214 M
77.34 223.214 L
S
GR
GS
0.149 GC
2 setlinecap
1 LJ
0.5 LW
N
73 175.286 M
77.34 175.286 L
S
GR
GS
0.149 GC
2 setlinecap
1 LJ
0.5 LW
N
73 127.357 M
77.34 127.357 L
S
GR
GS
0.149 GC
2 setlinecap
1 LJ
0.5 LW
N
73 79.429 M
77.34 79.429 L
S
GR
GS
0.149 GC
2 setlinecap
1 LJ
0.5 LW
N
73 31.5 M
77.34 31.5 L
S
GR
GS
0.149 GC
2 setlinecap
1 LJ
0.5 LW
N
507 367 M
502.66 367 L
S
GR
GS
0.149 GC
2 setlinecap
1 LJ
0.5 LW
N
507 319.071 M
502.66 319.071 L
S
GR
GS
0.149 GC
2 setlinecap
1 LJ
0.5 LW
N
507 271.143 M
502.66 271.143 L
S
GR
GS
0.149 GC
2 setlinecap
1 LJ
0.5 LW
N
507 223.214 M
502.66 223.214 L
S
GR
GS
0.149 GC
2 setlinecap
1 LJ
0.5 LW
N
507 175.286 M
502.66 175.286 L
S
GR
GS
0.149 GC
2 setlinecap
1 LJ
0.5 LW
N
507 127.357 M
502.66 127.357 L
S
GR
GS
0.149 GC
2 setlinecap
1 LJ
0.5 LW
N
507 79.429 M
502.66 79.429 L
S
GR
GS
0.149 GC
2 setlinecap
1 LJ
0.5 LW
N
507 31.5 M
502.66 31.5 L
S
GR
GS
[1 0 0 1 67.8 367] CT
0.149 GC
/Times-Roman 16 F
GS
[1 0 0 1 0 0] CT
-24 5.5 moveto 
1 -1 scale
(120) t 
GR
GR
GS
[1 0 0 1 67.8 319.07144] CT
0.149 GC
/Times-Roman 16 F
GS
[1 0 0 1 0 0] CT
-24 5.5 moveto 
1 -1 scale
(130) t 
GR
GR
GS
[1 0 0 1 67.8 271.14285] CT
0.149 GC
/Times-Roman 16 F
GS
[1 0 0 1 0 0] CT
-24 5.5 moveto 
1 -1 scale
(140) t 
GR
GR
GS
[1 0 0 1 67.8 223.21428] CT
0.149 GC
/Times-Roman 16 F
GS
[1 0 0 1 0 0] CT
-24 5.5 moveto 
1 -1 scale
(150) t 
GR
GR
GS
[1 0 0 1 67.8 175.28572] CT
0.149 GC
/Times-Roman 16 F
GS
[1 0 0 1 0 0] CT
-24 5.5 moveto 
1 -1 scale
(160) t 
GR
GR
GS
[1 0 0 1 67.8 127.35714] CT
0.149 GC
/Times-Roman 16 F
GS
[1 0 0 1 0 0] CT
-24 5.5 moveto 
1 -1 scale
(170) t 
GR
GR
GS
[1 0 0 1 67.8 79.42857] CT
0.149 GC
/Times-Roman 16 F
GS
[1 0 0 1 0 0] CT
-24 5.5 moveto 
1 -1 scale
(180) t 
GR
GR
GS
[1 0 0 1 67.8 31.5] CT
0.149 GC
/Times-Roman 16 F
GS
[1 0 0 1 0 0] CT
-24 5.5 moveto 
1 -1 scale
(190) t 
GR
GR
GS
[0 -1 1 0 40.8 199.24985] CT
0.149 GC
N
-7.294 -3.968 M
-6.216 -8.296 L
-7.434 -8.296 -8.489 -8.867 QT
-9.544 -9.437 -10.184 -10.46 QT
-10.825 -11.484 -10.825 -12.671 QT
-10.825 -13.968 -10.177 -15.156 QT
-9.528 -16.343 -8.411 -17.312 QT
-7.294 -18.281 -6.005 -18.796 QT
-4.716 -19.312 -3.45 -19.312 QT
-2.013 -25.156 L
-1.966 -25.296 -1.825 -25.296 QT
-1.528 -25.296 L
-1.434 -25.296 -1.38 -25.21 QT
-1.325 -25.124 -1.325 -25.062 QT
-2.763 -19.312 L
-1.856 -19.312 -1.013 -18.984 QT
-0.169 -18.656 0.48 -18.07 QT
1.128 -17.484 1.495 -16.679 QT
1.862 -15.874 1.862 -14.953 QT
1.862 -13.656 1.214 -12.476 QT
0.566 -11.296 -0.52 -10.343 QT
-1.606 -9.39 -2.95 -8.843 QT
-4.294 -8.296 -5.513 -8.296 QT
-6.622 -3.859 L
-6.669 -3.718 -6.809 -3.718 QT
-7.091 -3.718 L
-7.184 -3.718 -7.239 -3.804 QT
-7.294 -3.89 -7.294 -3.968 QT
cp
-6.059 -8.937 M
-3.622 -18.703 L
-4.231 -18.703 -4.895 -18.453 QT
-5.559 -18.203 -6.153 -17.828 QT
-6.747 -17.453 -7.231 -16.968 QT
-7.809 -16.39 -8.255 -15.593 QT
-8.7 -14.796 -8.927 -13.914 QT
-9.153 -13.031 -9.153 -12.171 QT
-9.153 -11.265 -8.77 -10.531 QT
-8.388 -9.796 -7.684 -9.367 QT
-6.981 -8.937 -6.059 -8.937 QT
cp
-5.356 -8.937 M
-4.45 -8.937 -3.427 -9.453 QT
-2.403 -9.968 -1.747 -10.656 QT
-0.856 -11.546 -0.333 -12.843 QT
0.191 -14.14 0.191 -15.468 QT
0.191 -16.359 -0.192 -17.101 QT
-0.575 -17.843 -1.278 -18.273 QT
-1.981 -18.703 -2.903 -18.703 QT
-5.356 -8.937 L
cp
f
GR
GS
[0 -1 1 0 40.8 199.24985] CT
0.149 GC
N
6.6 -18.303 M
5.725 -18.303 4.959 -18.748 QT
4.194 -19.193 3.748 -19.967 QT
3.303 -20.74 3.303 -21.6 QT
3.303 -22.459 3.748 -23.232 QT
4.194 -24.006 4.959 -24.451 QT
5.725 -24.896 6.6 -24.896 QT
7.475 -24.896 8.233 -24.451 QT
8.991 -24.006 9.436 -23.232 QT
9.881 -22.459 9.881 -21.6 QT
9.881 -20.74 9.436 -19.967 QT
8.991 -19.193 8.233 -18.748 QT
7.475 -18.303 6.6 -18.303 QT
cp
6.6 -18.99 M
7.663 -18.99 8.428 -19.764 QT
9.194 -20.537 9.194 -21.6 QT
9.194 -22.287 8.842 -22.896 QT
8.491 -23.506 7.897 -23.857 QT
7.303 -24.209 6.6 -24.209 QT
6.084 -24.209 5.608 -24.006 QT
5.131 -23.803 4.756 -23.435 QT
4.381 -23.068 4.186 -22.592 QT
3.991 -22.115 3.991 -21.6 QT
3.991 -20.537 4.756 -19.764 QT
5.522 -18.99 6.6 -18.99 QT
cp
f
GR
GS
0 0.447 0.741 RC
1 LJ
2 LW
N
73 281.982 M
73.434 281.717 L
73.868 281.455 L
74.302 281.193 L
74.736 280.934 L
75.17 280.676 L
75.604 280.42 L
76.038 280.165 L
76.472 279.912 L
76.906 279.66 L
77.34 279.41 L
77.774 279.162 L
78.208 278.914 L
78.642 278.669 L
79.076 278.425 L
79.51 278.182 L
79.944 277.94 L
80.378 277.7 L
80.812 277.461 L
81.246 277.224 L
81.68 276.988 L
82.114 276.753 L
82.548 276.519 L
82.982 276.286 L
83.416 276.055 L
83.85 275.825 L
84.284 275.595 L
84.718 275.367 L
85.152 275.14 L
85.586 274.915 L
86.02 274.69 L
86.454 274.466 L
86.888 274.243 L
87.322 274.021 L
87.756 273.8 L
88.19 273.58 L
88.624 273.361 L
89.058 273.142 L
89.492 272.925 L
89.926 272.708 L
90.36 272.492 L
90.794 272.277 L
91.228 272.062 L
91.662 271.849 L
92.096 271.636 L
92.53 271.423 L
92.964 271.211 L
93.398 271 L
93.832 270.79 L
94.266 270.58 L
94.7 270.37 L
95.134 270.162 L
95.568 269.953 L
96.002 269.745 L
96.436 269.538 L
96.87 269.331 L
97.304 269.124 L
97.738 268.918 L
98.172 268.712 L
98.606 268.507 L
99.04 268.301 L
99.474 268.096 L
99.908 267.892 L
100.342 267.687 L
100.776 267.483 L
101.21 267.279 L
101.644 267.075 L
102.078 266.871 L
102.512 266.667 L
102.946 266.464 L
103.38 266.26 L
103.814 266.057 L
104.248 265.853 L
104.682 265.649 L
105.116 265.446 L
105.55 265.242 L
105.984 265.038 L
106.418 264.834 L
106.852 264.63 L
107.286 264.426 L
107.72 264.221 L
108.154 264.016 L
108.588 263.811 L
109.022 263.606 L
109.456 263.4 L
109.89 263.194 L
110.324 262.988 L
110.758 262.781 L
111.192 262.574 L
111.626 262.366 L
112.06 262.158 L
112.494 261.95 L
112.928 261.741 L
113.362 261.531 L
113.796 261.321 L
114.23 261.11 L
114.664 260.899 L
115.098 260.687 L
115.532 260.474 L
115.966 260.261 L
116.4 260.047 L
116.834 259.832 L
117.268 259.617 L
117.702 259.401 L
118.136 259.184 L
118.57 258.966 L
119.004 258.748 L
119.438 258.528 L
119.872 258.308 L
120.306 258.087 L
120.74 257.865 L
121.174 257.642 L
121.608 257.419 L
122.042 257.194 L
122.476 256.968 L
122.91 256.742 L
123.344 256.514 L
123.778 256.286 L
124.212 256.057 L
124.646 255.826 L
125.08 255.595 L
125.514 255.363 L
125.948 255.129 L
126.382 254.895 L
126.816 254.66 L
127.25 254.423 L
127.684 254.186 L
128.118 253.947 L
128.552 253.708 L
128.986 253.468 L
129.42 253.226 L
129.854 252.984 L
130.288 252.74 L
130.722 252.496 L
131.156 252.25 L
131.59 252.004 L
132.024 251.756 L
132.458 251.508 L
132.892 251.258 L
133.326 251.008 L
133.76 250.756 L
134.194 250.504 L
134.628 250.251 L
135.062 249.996 L
135.496 249.741 L
135.93 249.485 L
136.364 249.228 L
136.798 248.97 L
137.232 248.712 L
137.666 248.452 L
138.1 248.192 L
138.534 247.93 L
138.968 247.668 L
139.402 247.406 L
139.836 247.142 L
140.27 246.878 L
140.704 246.613 L
141.138 246.347 L
141.572 246.081 L
142.006 245.814 L
142.44 245.547 L
142.874 245.278 L
143.308 245.01 L
143.742 244.74 L
144.176 244.47 L
144.61 244.2 L
145.044 243.929 L
145.478 243.658 L
145.912 243.386 L
146.346 243.114 L
146.78 242.841 L
147.214 242.568 L
147.648 242.295 L
148.082 242.022 L
148.516 241.748 L
148.95 241.474 L
149.384 241.199 L
149.818 240.925 L
150.252 240.65 L
150.686 240.375 L
151.12 240.1 L
151.554 239.825 L
151.988 239.55 L
152.422 239.274 L
152.856 238.999 L
153.29 238.724 L
153.724 238.449 L
154.158 238.174 L
154.592 237.899 L
155.026 237.624 L
155.46 237.349 L
155.894 237.074 L
156.328 236.8 L
156.762 236.525 L
157.196 236.251 L
157.63 235.978 L
158.064 235.704 L
158.498 235.431 L
158.932 235.158 L
159.366 234.886 L
159.8 234.614 L
160.234 234.342 L
160.668 234.071 L
161.102 233.801 L
161.536 233.53 L
161.97 233.261 L
162.404 232.992 L
162.838 232.723 L
163.272 232.455 L
163.706 232.188 L
164.14 231.921 L
164.574 231.655 L
165.008 231.39 L
165.442 231.125 L
165.876 230.861 L
166.31 230.598 L
166.744 230.336 L
167.178 230.074 L
167.612 229.814 L
168.046 229.554 L
168.48 229.295 L
168.914 229.037 L
169.348 228.78 L
169.782 228.524 L
170.216 228.269 L
170.65 228.015 L
171.084 227.762 L
171.518 227.51 L
171.952 227.259 L
172.386 227.009 L
172.82 226.76 L
173.254 226.512 L
173.688 226.266 L
174.122 226.021 L
174.556 225.777 L
174.99 225.534 L
175.424 225.293 L
175.858 225.053 L
176.292 224.814 L
176.726 224.576 L
177.16 224.34 L
177.594 224.106 L
178.028 223.872 L
178.462 223.641 L
178.896 223.41 L
179.33 223.182 L
179.764 222.954 L
180.198 222.729 L
180.632 222.504 L
181.066 222.282 L
181.5 222.061 L
181.934 221.842 L
182.368 221.624 L
182.802 221.408 L
183.236 221.194 L
183.67 220.982 L
184.104 220.772 L
184.538 220.563 L
184.972 220.356 L
185.406 220.151 L
185.84 219.948 L
186.274 219.747 L
186.708 219.548 L
187.142 219.35 L
187.576 219.155 L
188.01 218.962 L
188.444 218.771 L
188.878 218.582 L
189.312 218.395 L
189.746 218.21 L
190.18 218.027 L
190.614 217.847 L
191.048 217.669 L
191.482 217.492 L
191.916 217.319 L
192.35 217.147 L
192.784 216.978 L
193.218 216.811 L
193.652 216.647 L
194.086 216.484 L
194.52 216.325 L
194.954 216.167 L
195.388 216.012 L
195.822 215.86 L
196.256 215.71 L
196.69 215.563 L
197.124 215.417 L
197.558 215.275 L
197.992 215.135 L
198.426 214.998 L
198.86 214.863 L
199.294 214.731 L
199.728 214.602 L
200.162 214.475 L
200.596 214.35 L
201.03 214.229 L
201.464 214.11 L
201.898 213.994 L
202.332 213.88 L
202.766 213.769 L
203.2 213.661 L
203.634 213.556 L
204.068 213.453 L
204.502 213.353 L
204.936 213.256 L
205.37 213.162 L
205.804 213.07 L
206.238 212.981 L
206.672 212.895 L
207.106 212.811 L
207.54 212.731 L
207.974 212.653 L
208.408 212.578 L
208.842 212.505 L
209.276 212.436 L
209.71 212.369 L
210.144 212.304 L
210.578 212.243 L
211.012 212.184 L
211.446 212.128 L
211.88 212.075 L
212.314 212.024 L
212.748 211.976 L
213.182 211.931 L
213.616 211.889 L
214.05 211.849 L
214.484 211.812 L
214.918 211.777 L
215.352 211.745 L
215.786 211.716 L
216.22 211.689 L
216.654 211.665 L
217.088 211.643 L
217.522 211.624 L
217.956 211.607 L
218.39 211.593 L
218.824 211.581 L
219.258 211.572 L
219.692 211.566 L
220.126 211.561 L
220.56 211.559 L
220.994 211.56 L
221.428 211.563 L
221.862 211.568 L
222.296 211.575 L
222.73 211.585 L
223.164 211.597 L
223.598 211.611 L
224.032 211.628 L
224.466 211.646 L
224.9 211.667 L
225.334 211.69 L
225.768 211.715 L
226.202 211.742 L
226.636 211.771 L
227.07 211.803 L
227.504 211.836 L
227.938 211.871 L
228.372 211.908 L
228.806 211.947 L
229.24 211.988 L
229.674 212.031 L
230.108 212.076 L
230.542 212.123 L
230.976 212.171 L
231.41 212.221 L
231.844 212.273 L
232.278 212.327 L
232.712 212.382 L
233.146 212.439 L
233.58 212.498 L
234.014 212.558 L
234.448 212.62 L
234.882 212.683 L
235.316 212.748 L
235.75 212.815 L
236.184 212.883 L
236.618 212.952 L
237.052 213.023 L
237.486 213.095 L
237.92 213.169 L
238.354 213.244 L
238.788 213.32 L
239.222 213.398 L
239.656 213.477 L
240.09 213.557 L
240.524 213.639 L
240.958 213.722 L
241.392 213.805 L
241.826 213.891 L
242.26 213.977 L
242.694 214.064 L
243.128 214.152 L
243.562 214.242 L
243.996 214.332 L
244.43 214.424 L
244.864 214.516 L
245.298 214.61 L
245.732 214.704 L
246.166 214.8 L
246.6 214.896 L
247.034 214.993 L
247.468 215.091 L
247.902 215.19 L
248.336 215.29 L
248.77 215.39 L
249.204 215.491 L
249.638 215.593 L
250.072 215.696 L
250.506 215.799 L
250.94 215.903 L
251.374 216.007 L
251.808 216.113 L
252.242 216.218 L
252.676 216.325 L
253.11 216.431 L
253.544 216.539 L
253.978 216.647 L
254.412 216.755 L
254.846 216.864 L
255.28 216.973 L
255.714 217.082 L
256.148 217.192 L
256.582 217.302 L
257.016 217.413 L
257.45 217.523 L
257.884 217.635 L
258.318 217.746 L
258.752 217.857 L
259.186 217.969 L
259.62 218.081 L
260.054 218.193 L
260.488 218.305 L
260.922 218.417 L
261.356 218.529 L
261.79 218.641 L
262.224 218.753 L
262.658 218.865 L
263.092 218.977 L
263.526 219.089 L
263.96 219.201 L
264.394 219.313 L
264.828 219.424 L
265.262 219.536 L
265.696 219.647 L
266.13 219.757 L
266.564 219.868 L
266.998 219.978 L
267.432 220.089 L
267.866 220.198 L
268.3 220.307 L
268.734 220.416 L
269.168 220.525 L
269.602 220.633 L
270.036 220.74 L
270.47 220.847 L
270.904 220.954 L
271.338 221.06 L
271.772 221.165 L
272.206 221.27 L
272.64 221.374 L
273.074 221.478 L
273.508 221.581 L
273.942 221.683 L
274.376 221.785 L
274.81 221.886 L
275.244 221.986 L
275.678 222.085 L
276.112 222.184 L
276.546 222.282 L
276.98 222.379 L
277.414 222.475 L
277.848 222.57 L
278.282 222.665 L
278.716 222.758 L
279.15 222.851 L
279.584 222.943 L
280.018 223.034 L
280.452 223.124 L
280.886 223.213 L
281.32 223.301 L
281.754 223.388 L
282.188 223.475 L
282.622 223.56 L
283.056 223.644 L
283.49 223.728 L
283.924 223.81 L
284.358 223.891 L
284.792 223.972 L
285.226 224.051 L
285.66 224.13 L
286.094 224.207 L
286.528 224.284 L
286.962 224.359 L
287.396 224.434 L
287.83 224.507 L
288.264 224.58 L
288.698 224.652 L
289.132 224.722 L
289.566 224.792 L
290 224.861 L
290.434 224.929 L
290.868 224.995 L
291.302 225.061 L
291.736 225.126 L
292.17 225.191 L
292.604 225.254 L
293.038 225.316 L
293.472 225.378 L
293.906 225.438 L
294.34 225.498 L
294.774 225.557 L
295.208 225.616 L
295.642 225.673 L
296.076 225.73 L
296.51 225.786 L
296.944 225.841 L
297.378 225.895 L
297.812 225.949 L
298.246 226.003 L
298.68 226.055 L
299.114 226.107 L
299.548 226.158 L
299.982 226.209 L
300.416 226.259 L
300.85 226.309 L
301.284 226.358 L
301.718 226.407 L
302.152 226.455 L
302.586 226.503 L
303.02 226.55 L
303.454 226.597 L
303.888 226.644 L
304.322 226.69 L
304.756 226.736 L
305.19 226.782 L
305.624 226.828 L
306.058 226.873 L
306.492 226.918 L
306.926 226.963 L
307.36 227.008 L
307.794 227.052 L
308.228 227.097 L
308.662 227.141 L
309.096 227.185 L
309.53 227.23 L
309.964 227.274 L
310.398 227.319 L
310.832 227.363 L
311.266 227.408 L
311.7 227.452 L
312.134 227.497 L
312.568 227.542 L
313.002 227.587 L
313.436 227.632 L
313.87 227.678 L
314.304 227.724 L
314.738 227.77 L
315.172 227.816 L
315.606 227.863 L
316.04 227.91 L
316.474 227.958 L
316.908 228.006 L
317.342 228.054 L
317.776 228.103 L
318.21 228.152 L
318.644 228.202 L
319.078 228.252 L
319.512 228.303 L
319.946 228.355 L
320.38 228.407 L
320.814 228.46 L
321.248 228.513 L
321.682 228.567 L
322.116 228.622 L
322.55 228.678 L
322.984 228.734 L
323.418 228.791 L
323.852 228.849 L
324.286 228.908 L
324.72 228.967 L
325.154 229.028 L
325.588 229.089 L
326.022 229.151 L
326.456 229.215 L
326.89 229.279 L
327.324 229.344 L
327.758 229.41 L
328.192 229.477 L
328.626 229.546 L
329.06 229.615 L
329.494 229.686 L
329.928 229.757 L
330.362 229.83 L
330.796 229.904 L
331.23 229.979 L
331.664 230.056 L
332.098 230.133 L
332.532 230.212 L
332.966 230.292 L
333.4 230.374 L
333.834 230.457 L
334.268 230.541 L
334.702 230.627 L
335.136 230.714 L
335.57 230.803 L
336.004 230.893 L
336.438 230.984 L
336.872 231.078 L
337.306 231.172 L
337.74 231.269 L
338.174 231.366 L
338.608 231.466 L
339.042 231.567 L
339.476 231.67 L
339.91 231.775 L
340.344 231.881 L
340.778 231.989 L
341.212 232.099 L
341.646 232.211 L
342.08 232.324 L
342.514 232.44 L
342.948 232.557 L
343.382 232.676 L
343.816 232.797 L
344.25 232.92 L
344.684 233.046 L
345.118 233.173 L
345.552 233.302 L
345.986 233.433 L
346.42 233.567 L
346.854 233.702 L
347.288 233.84 L
347.722 233.98 L
348.156 234.122 L
348.59 234.266 L
349.024 234.412 L
349.458 234.561 L
349.892 234.712 L
350.326 234.865 L
350.76 235.021 L
351.194 235.179 L
351.628 235.34 L
352.062 235.503 L
352.496 235.668 L
352.93 235.836 L
353.364 236.006 L
353.798 236.178 L
354.232 236.354 L
354.666 236.531 L
355.1 236.711 L
355.534 236.894 L
355.968 237.079 L
356.402 237.267 L
356.836 237.458 L
357.27 237.651 L
357.704 237.847 L
358.138 238.045 L
358.572 238.246 L
359.006 238.45 L
359.44 238.656 L
359.874 238.865 L
360.308 239.077 L
360.742 239.291 L
361.176 239.508 L
361.61 239.728 L
362.044 239.95 L
362.478 240.176 L
362.912 240.404 L
363.346 240.634 L
363.78 240.867 L
364.214 241.104 L
364.648 241.342 L
365.082 241.584 L
365.516 241.828 L
365.95 242.075 L
366.384 242.325 L
366.818 242.577 L
367.252 242.832 L
367.686 243.09 L
368.12 243.35 L
368.554 243.614 L
368.988 243.879 L
369.422 244.148 L
369.856 244.419 L
370.29 244.693 L
370.724 244.969 L
371.158 245.248 L
371.592 245.53 L
372.026 245.814 L
372.46 246.101 L
372.894 246.39 L
373.328 246.682 L
373.762 246.976 L
374.196 247.273 L
374.63 247.573 L
375.064 247.875 L
375.498 248.179 L
375.932 248.486 L
376.366 248.795 L
376.8 249.106 L
377.234 249.42 L
377.668 249.736 L
378.102 250.055 L
378.536 250.376 L
378.97 250.699 L
379.404 251.024 L
379.838 251.352 L
380.272 251.682 L
380.706 252.014 L
381.14 252.348 L
381.574 252.684 L
382.008 253.022 L
382.442 253.363 L
382.876 253.705 L
383.31 254.05 L
383.744 254.396 L
384.178 254.745 L
384.612 255.095 L
385.046 255.448 L
385.48 255.802 L
385.914 256.158 L
386.348 256.516 L
386.782 256.876 L
387.216 257.237 L
387.65 257.601 L
388.084 257.966 L
388.518 258.333 L
388.952 258.701 L
389.386 259.071 L
389.82 259.443 L
390.254 259.816 L
390.688 260.191 L
391.122 260.568 L
391.556 260.946 L
391.99 261.326 L
392.424 261.706 L
392.858 262.089 L
393.292 262.473 L
393.726 262.858 L
394.16 263.245 L
394.594 263.633 L
395.028 264.022 L
395.462 264.413 L
395.896 264.804 L
396.33 265.198 L
396.764 265.592 L
397.198 265.987 L
397.632 266.384 L
398.066 266.782 L
398.5 267.181 L
398.934 267.581 L
399.368 267.982 L
399.802 268.384 L
400.236 268.787 L
400.67 269.191 L
401.104 269.597 L
401.538 270.003 L
401.972 270.41 L
402.406 270.817 L
402.84 271.226 L
403.274 271.636 L
403.708 272.046 L
404.142 272.457 L
404.576 272.869 L
405.01 273.282 L
405.444 273.695 L
405.878 274.11 L
406.312 274.524 L
406.746 274.94 L
407.18 275.356 L
407.614 275.773 L
408.048 276.19 L
408.482 276.608 L
408.916 277.026 L
409.35 277.445 L
409.784 277.864 L
410.218 278.284 L
410.652 278.704 L
411.086 279.125 L
411.52 279.545 L
411.954 279.967 L
412.388 280.388 L
412.822 280.81 L
413.256 281.232 L
413.69 281.655 L
414.124 282.077 L
414.558 282.5 L
414.992 282.923 L
415.426 283.346 L
415.86 283.769 L
416.294 284.193 L
416.728 284.616 L
417.162 285.04 L
417.596 285.463 L
418.03 285.886 L
418.464 286.31 L
418.898 286.733 L
419.332 287.156 L
419.766 287.579 L
420.2 288.002 L
420.634 288.425 L
421.068 288.847 L
421.502 289.269 L
421.936 289.691 L
422.37 290.113 L
422.804 290.534 L
423.238 290.955 L
423.672 291.376 L
424.106 291.796 L
424.54 292.216 L
424.974 292.636 L
425.408 293.055 L
425.842 293.473 L
426.276 293.891 L
426.71 294.308 L
427.144 294.725 L
427.578 295.141 L
428.012 295.557 L
428.446 295.972 L
428.88 296.386 L
429.314 296.799 L
429.748 297.212 L
430.182 297.624 L
430.616 298.036 L
431.05 298.446 L
431.484 298.856 L
431.918 299.265 L
432.352 299.673 L
432.786 300.08 L
433.22 300.487 L
433.654 300.892 L
434.088 301.297 L
434.522 301.701 L
434.956 302.103 L
435.39 302.505 L
435.824 302.906 L
436.258 303.306 L
436.692 303.704 L
437.126 304.102 L
437.56 304.499 L
437.994 304.895 L
438.428 305.289 L
438.862 305.683 L
439.296 306.076 L
439.73 306.467 L
440.164 306.857 L
440.598 307.247 L
441.032 307.635 L
441.466 308.022 L
441.9 308.408 L
442.334 308.793 L
442.768 309.177 L
443.202 309.56 L
443.636 309.942 L
444.07 310.322 L
444.504 310.702 L
444.938 311.08 L
445.372 311.458 L
445.806 311.834 L
446.24 312.209 L
446.674 312.583 L
447.108 312.957 L
447.542 313.329 L
447.976 313.7 L
448.41 314.07 L
448.844 314.439 L
449.278 314.807 L
449.712 315.174 L
450.146 315.54 L
450.58 315.905 L
451.014 316.269 L
451.448 316.632 L
451.882 316.994 L
452.316 317.356 L
452.75 317.716 L
453.184 318.076 L
453.618 318.434 L
454.052 318.792 L
454.486 319.149 L
454.92 319.506 L
455.354 319.861 L
455.788 320.216 L
456.222 320.57 L
456.656 320.923 L
457.09 321.276 L
457.524 321.628 L
457.958 321.98 L
458.392 322.33 L
458.826 322.68 L
459.26 323.03 L
459.694 323.379 L
460.128 323.728 L
460.562 324.076 L
460.996 324.423 L
461.43 324.771 L
461.864 325.117 L
462.298 325.464 L
462.732 325.81 L
463.166 326.155 L
463.6 326.501 L
464.034 326.846 L
464.468 327.19 L
464.902 327.535 L
465.336 327.879 L
465.77 328.223 L
466.204 328.567 L
466.638 328.911 L
467.072 329.255 L
467.506 329.599 L
467.94 329.942 L
468.374 330.286 L
468.808 330.629 L
469.242 330.973 L
469.676 331.317 L
470.11 331.66 L
470.544 332.004 L
470.978 332.348 L
471.412 332.692 L
471.846 333.036 L
472.28 333.381 L
472.714 333.725 L
473.148 334.07 L
473.582 334.416 L
474.016 334.761 L
474.45 335.107 L
474.884 335.453 L
475.318 335.799 L
475.752 336.146 L
476.186 336.494 L
476.62 336.841 L
477.054 337.19 L
477.488 337.538 L
477.922 337.888 L
478.356 338.237 L
478.79 338.588 L
479.224 338.939 L
479.658 339.29 L
480.092 339.642 L
480.526 339.995 L
480.96 340.348 L
481.394 340.703 L
481.828 341.057 L
482.262 341.413 L
482.696 341.77 L
483.13 342.127 L
483.564 342.485 L
483.998 342.844 L
484.432 343.203 L
484.866 343.564 L
485.3 343.925 L
485.734 344.288 L
486.168 344.651 L
486.602 345.016 L
487.036 345.381 L
487.47 345.748 L
487.904 346.115 L
488.338 346.484 L
488.772 346.853 L
489.206 347.224 L
489.64 347.596 L
490.074 347.969 L
490.508 348.343 L
490.942 348.719 L
491.376 349.096 L
491.81 349.474 L
492.244 349.853 L
492.678 350.234 L
493.112 350.616 L
493.546 350.999 L
493.98 351.384 L
494.414 351.77 L
494.848 352.158 L
495.282 352.547 L
495.716 352.937 L
496.15 353.33 L
496.584 353.723 L
497.018 354.118 L
497.452 354.515 L
497.886 354.914 L
498.32 355.314 L
498.754 355.716 L
499.188 356.119 L
499.622 356.525 L
500.056 356.931 L
500.49 357.34 L
500.924 357.751 L
501.358 358.163 L
501.792 358.577 L
502.226 358.994 L
502.66 359.412 L
503.094 359.832 L
503.528 360.254 L
503.962 360.677 L
504.396 361.103 L
504.83 361.531 L
505.264 361.961 L
505.698 362.393 L
506.132 362.827 L
506.566 363.264 L
507 363.702 L
S
GR
GS
0.851 0.325 0.098 RC
1 LJ
2 LW
N
73 281.982 M
73.434 281.787 L
73.868 281.592 L
74.302 281.398 L
74.736 281.205 L
75.17 281.013 L
75.604 280.822 L
76.038 280.631 L
76.472 280.441 L
76.906 280.252 L
77.34 280.063 L
77.774 279.875 L
78.208 279.687 L
78.642 279.501 L
79.076 279.314 L
79.51 279.128 L
79.944 278.943 L
80.378 278.758 L
80.812 278.574 L
81.246 278.39 L
81.68 278.206 L
82.114 278.023 L
82.548 277.84 L
82.982 277.657 L
83.416 277.475 L
83.85 277.293 L
84.284 277.111 L
84.718 276.929 L
85.152 276.748 L
85.586 276.566 L
86.02 276.385 L
86.454 276.204 L
86.888 276.023 L
87.322 275.842 L
87.756 275.661 L
88.19 275.48 L
88.624 275.3 L
89.058 275.119 L
89.492 274.938 L
89.926 274.757 L
90.36 274.575 L
90.794 274.394 L
91.228 274.213 L
91.662 274.031 L
92.096 273.849 L
92.53 273.667 L
92.964 273.484 L
93.398 273.302 L
93.832 273.119 L
94.266 272.936 L
94.7 272.752 L
95.134 272.568 L
95.568 272.383 L
96.002 272.198 L
96.436 272.013 L
96.87 271.827 L
97.304 271.641 L
97.738 271.454 L
98.172 271.266 L
98.606 271.078 L
99.04 270.889 L
99.474 270.7 L
99.908 270.51 L
100.342 270.319 L
100.776 270.128 L
101.21 269.936 L
101.644 269.742 L
102.078 269.549 L
102.512 269.354 L
102.946 269.158 L
103.38 268.962 L
103.814 268.765 L
104.248 268.566 L
104.682 268.367 L
105.116 268.167 L
105.55 267.965 L
105.984 267.763 L
106.418 267.559 L
106.852 267.355 L
107.286 267.149 L
107.72 266.942 L
108.154 266.734 L
108.588 266.525 L
109.022 266.314 L
109.456 266.102 L
109.89 265.889 L
110.324 265.674 L
110.758 265.458 L
111.192 265.241 L
111.626 265.022 L
112.06 264.802 L
112.494 264.581 L
112.928 264.357 L
113.362 264.133 L
113.796 263.907 L
114.23 263.679 L
114.664 263.45 L
115.098 263.219 L
115.532 262.986 L
115.966 262.752 L
116.4 262.516 L
116.834 262.278 L
117.268 262.039 L
117.702 261.798 L
118.136 261.555 L
118.57 261.31 L
119.004 261.063 L
119.438 260.815 L
119.872 260.565 L
120.306 260.313 L
120.74 260.059 L
121.174 259.803 L
121.608 259.545 L
122.042 259.286 L
122.476 259.024 L
122.91 258.761 L
123.344 258.495 L
123.778 258.228 L
124.212 257.959 L
124.646 257.687 L
125.08 257.414 L
125.514 257.139 L
125.948 256.861 L
126.382 256.582 L
126.816 256.301 L
127.25 256.017 L
127.684 255.732 L
128.118 255.445 L
128.552 255.155 L
128.986 254.864 L
129.42 254.571 L
129.854 254.275 L
130.288 253.978 L
130.722 253.679 L
131.156 253.378 L
131.59 253.074 L
132.024 252.769 L
132.458 252.462 L
132.892 252.153 L
133.326 251.842 L
133.76 251.529 L
134.194 251.214 L
134.628 250.898 L
135.062 250.579 L
135.496 250.259 L
135.93 249.937 L
136.364 249.613 L
136.798 249.287 L
137.232 248.959 L
137.666 248.63 L
138.1 248.299 L
138.534 247.966 L
138.968 247.631 L
139.402 247.295 L
139.836 246.957 L
140.27 246.618 L
140.704 246.277 L
141.138 245.935 L
141.572 245.591 L
142.006 245.245 L
142.44 244.898 L
142.874 244.549 L
143.308 244.199 L
143.742 243.848 L
144.176 243.495 L
144.61 243.141 L
145.044 242.786 L
145.478 242.429 L
145.912 242.072 L
146.346 241.712 L
146.78 241.352 L
147.214 240.991 L
147.648 240.628 L
148.082 240.264 L
148.516 239.9 L
148.95 239.534 L
149.384 239.167 L
149.818 238.799 L
150.252 238.431 L
150.686 238.061 L
151.12 237.691 L
151.554 237.319 L
151.988 236.947 L
152.422 236.574 L
152.856 236.201 L
153.29 235.826 L
153.724 235.451 L
154.158 235.076 L
154.592 234.699 L
155.026 234.322 L
155.46 233.945 L
155.894 233.567 L
156.328 233.188 L
156.762 232.809 L
157.196 232.43 L
157.63 232.05 L
158.064 231.67 L
158.498 231.289 L
158.932 230.908 L
159.366 230.527 L
159.8 230.145 L
160.234 229.763 L
160.668 229.381 L
161.102 228.999 L
161.536 228.617 L
161.97 228.234 L
162.404 227.852 L
162.838 227.469 L
163.272 227.086 L
163.706 226.703 L
164.14 226.321 L
164.574 225.938 L
165.008 225.555 L
165.442 225.173 L
165.876 224.79 L
166.31 224.408 L
166.744 224.025 L
167.178 223.643 L
167.612 223.262 L
168.046 222.88 L
168.48 222.499 L
168.914 222.118 L
169.348 221.737 L
169.782 221.357 L
170.216 220.976 L
170.65 220.597 L
171.084 220.218 L
171.518 219.839 L
171.952 219.46 L
172.386 219.083 L
172.82 218.705 L
173.254 218.328 L
173.688 217.952 L
174.122 217.576 L
174.556 217.201 L
174.99 216.827 L
175.424 216.453 L
175.858 216.08 L
176.292 215.707 L
176.726 215.336 L
177.16 214.965 L
177.594 214.595 L
178.028 214.225 L
178.462 213.857 L
178.896 213.489 L
179.33 213.122 L
179.764 212.756 L
180.198 212.391 L
180.632 212.027 L
181.066 211.664 L
181.5 211.301 L
181.934 210.94 L
182.368 210.58 L
182.802 210.221 L
183.236 209.863 L
183.67 209.506 L
184.104 209.151 L
184.538 208.796 L
184.972 208.443 L
185.406 208.09 L
185.84 207.739 L
186.274 207.39 L
186.708 207.041 L
187.142 206.694 L
187.576 206.348 L
188.01 206.003 L
188.444 205.66 L
188.878 205.319 L
189.312 204.978 L
189.746 204.639 L
190.18 204.302 L
190.614 203.965 L
191.048 203.631 L
191.482 203.298 L
191.916 202.966 L
192.35 202.636 L
192.784 202.308 L
193.218 201.981 L
193.652 201.655 L
194.086 201.332 L
194.52 201.01 L
194.954 200.689 L
195.388 200.37 L
195.822 200.053 L
196.256 199.738 L
196.69 199.424 L
197.124 199.113 L
197.558 198.802 L
197.992 198.494 L
198.426 198.187 L
198.86 197.882 L
199.294 197.579 L
199.728 197.278 L
200.162 196.978 L
200.596 196.681 L
201.03 196.385 L
201.464 196.091 L
201.898 195.798 L
202.332 195.508 L
202.766 195.22 L
203.2 194.933 L
203.634 194.648 L
204.068 194.365 L
204.502 194.084 L
204.936 193.805 L
205.37 193.528 L
205.804 193.252 L
206.238 192.979 L
206.672 192.707 L
207.106 192.437 L
207.54 192.169 L
207.974 191.903 L
208.408 191.639 L
208.842 191.376 L
209.276 191.115 L
209.71 190.857 L
210.144 190.6 L
210.578 190.344 L
211.012 190.091 L
211.446 189.84 L
211.88 189.59 L
212.314 189.342 L
212.748 189.096 L
213.182 188.851 L
213.616 188.608 L
214.05 188.367 L
214.484 188.128 L
214.918 187.89 L
215.352 187.654 L
215.786 187.42 L
216.22 187.187 L
216.654 186.956 L
217.088 186.727 L
217.522 186.499 L
217.956 186.273 L
218.39 186.048 L
218.824 185.825 L
219.258 185.603 L
219.692 185.383 L
220.126 185.164 L
220.56 184.947 L
220.994 184.731 L
221.428 184.516 L
221.862 184.303 L
222.296 184.091 L
222.73 183.881 L
223.164 183.672 L
223.598 183.464 L
224.032 183.257 L
224.466 183.052 L
224.9 182.848 L
225.334 182.645 L
225.768 182.443 L
226.202 182.242 L
226.636 182.043 L
227.07 181.844 L
227.504 181.647 L
227.938 181.45 L
228.372 181.255 L
228.806 181.061 L
229.24 180.867 L
229.674 180.675 L
230.108 180.483 L
230.542 180.293 L
230.976 180.103 L
231.41 179.914 L
231.844 179.726 L
232.278 179.538 L
232.712 179.352 L
233.146 179.166 L
233.58 178.981 L
234.014 178.796 L
234.448 178.613 L
234.882 178.43 L
235.316 178.247 L
235.75 178.065 L
236.184 177.884 L
236.618 177.703 L
237.052 177.523 L
237.486 177.343 L
237.92 177.164 L
238.354 176.985 L
238.788 176.807 L
239.222 176.629 L
239.656 176.451 L
240.09 176.274 L
240.524 176.097 L
240.958 175.921 L
241.392 175.745 L
241.826 175.569 L
242.26 175.393 L
242.694 175.217 L
243.128 175.042 L
243.562 174.867 L
243.996 174.692 L
244.43 174.517 L
244.864 174.343 L
245.298 174.168 L
245.732 173.994 L
246.166 173.819 L
246.6 173.645 L
247.034 173.47 L
247.468 173.296 L
247.902 173.121 L
248.336 172.947 L
248.77 172.772 L
249.204 172.597 L
249.638 172.422 L
250.072 172.247 L
250.506 172.072 L
250.94 171.897 L
251.374 171.721 L
251.808 171.545 L
252.242 171.369 L
252.676 171.192 L
253.11 171.015 L
253.544 170.838 L
253.978 170.661 L
254.412 170.483 L
254.846 170.304 L
255.28 170.125 L
255.714 169.946 L
256.148 169.766 L
256.582 169.586 L
257.016 169.405 L
257.45 169.223 L
257.884 169.041 L
258.318 168.859 L
258.752 168.675 L
259.186 168.491 L
259.62 168.306 L
260.054 168.121 L
260.488 167.935 L
260.922 167.748 L
261.356 167.56 L
261.79 167.371 L
262.224 167.181 L
262.658 166.991 L
263.092 166.8 L
263.526 166.607 L
263.96 166.414 L
264.394 166.22 L
264.828 166.025 L
265.262 165.828 L
265.696 165.631 L
266.13 165.432 L
266.564 165.233 L
266.998 165.032 L
267.432 164.83 L
267.866 164.627 L
268.3 164.422 L
268.734 164.217 L
269.168 164.01 L
269.602 163.801 L
270.036 163.592 L
270.47 163.381 L
270.904 163.169 L
271.338 162.955 L
271.772 162.74 L
272.206 162.523 L
272.64 162.305 L
273.074 162.086 L
273.508 161.865 L
273.942 161.642 L
274.376 161.418 L
274.81 161.193 L
275.244 160.965 L
275.678 160.737 L
276.112 160.506 L
276.546 160.274 L
276.98 160.041 L
277.414 159.805 L
277.848 159.568 L
278.282 159.33 L
278.716 159.089 L
279.15 158.847 L
279.584 158.603 L
280.018 158.358 L
280.452 158.111 L
280.886 157.862 L
281.32 157.611 L
281.754 157.358 L
282.188 157.104 L
282.622 156.848 L
283.056 156.59 L
283.49 156.331 L
283.924 156.07 L
284.358 155.807 L
284.792 155.542 L
285.226 155.275 L
285.66 155.007 L
286.094 154.737 L
286.528 154.465 L
286.962 154.192 L
287.396 153.916 L
287.83 153.639 L
288.264 153.361 L
288.698 153.08 L
289.132 152.798 L
289.566 152.514 L
290 152.229 L
290.434 151.942 L
290.868 151.653 L
291.302 151.363 L
291.736 151.071 L
292.17 150.778 L
292.604 150.483 L
293.038 150.186 L
293.472 149.888 L
293.906 149.589 L
294.34 149.288 L
294.774 148.985 L
295.208 148.681 L
295.642 148.376 L
296.076 148.069 L
296.51 147.761 L
296.944 147.452 L
297.378 147.141 L
297.812 146.829 L
298.246 146.516 L
298.68 146.202 L
299.114 145.886 L
299.548 145.569 L
299.982 145.251 L
300.416 144.932 L
300.85 144.612 L
301.284 144.291 L
301.718 143.969 L
302.152 143.646 L
302.586 143.322 L
303.02 142.997 L
303.454 142.671 L
303.888 142.345 L
304.322 142.017 L
304.756 141.689 L
305.19 141.36 L
305.624 141.03 L
306.058 140.7 L
306.492 140.368 L
306.926 140.037 L
307.36 139.704 L
307.794 139.371 L
308.228 139.038 L
308.662 138.704 L
309.096 138.369 L
309.53 138.035 L
309.964 137.699 L
310.398 137.363 L
310.832 137.027 L
311.266 136.691 L
311.7 136.354 L
312.134 136.017 L
312.568 135.68 L
313.002 135.343 L
313.436 135.005 L
313.87 134.668 L
314.304 134.33 L
314.738 133.992 L
315.172 133.654 L
315.606 133.316 L
316.04 132.978 L
316.474 132.64 L
316.908 132.302 L
317.342 131.964 L
317.776 131.626 L
318.21 131.288 L
318.644 130.951 L
319.078 130.613 L
319.512 130.276 L
319.946 129.939 L
320.38 129.603 L
320.814 129.266 L
321.248 128.93 L
321.682 128.594 L
322.116 128.259 L
322.55 127.924 L
322.984 127.589 L
323.418 127.255 L
323.852 126.921 L
324.286 126.588 L
324.72 126.255 L
325.154 125.923 L
325.588 125.591 L
326.022 125.26 L
326.456 124.929 L
326.89 124.599 L
327.324 124.269 L
327.758 123.941 L
328.192 123.612 L
328.626 123.285 L
329.06 122.958 L
329.494 122.632 L
329.928 122.307 L
330.362 121.982 L
330.796 121.658 L
331.23 121.335 L
331.664 121.013 L
332.098 120.692 L
332.532 120.371 L
332.966 120.052 L
333.4 119.733 L
333.834 119.415 L
334.268 119.099 L
334.702 118.783 L
335.136 118.468 L
335.57 118.154 L
336.004 117.841 L
336.438 117.53 L
336.872 117.219 L
337.306 116.909 L
337.74 116.601 L
338.174 116.293 L
338.608 115.987 L
339.042 115.682 L
339.476 115.378 L
339.91 115.076 L
340.344 114.774 L
340.778 114.474 L
341.212 114.175 L
341.646 113.877 L
342.08 113.581 L
342.514 113.286 L
342.948 112.992 L
343.382 112.7 L
343.816 112.409 L
344.25 112.119 L
344.684 111.831 L
345.118 111.545 L
345.552 111.259 L
345.986 110.975 L
346.42 110.693 L
346.854 110.412 L
347.288 110.133 L
347.722 109.855 L
348.156 109.579 L
348.59 109.304 L
349.024 109.031 L
349.458 108.76 L
349.892 108.49 L
350.326 108.222 L
350.76 107.955 L
351.194 107.69 L
351.628 107.427 L
352.062 107.166 L
352.496 106.906 L
352.93 106.648 L
353.364 106.392 L
353.798 106.137 L
354.232 105.884 L
354.666 105.633 L
355.1 105.384 L
355.534 105.136 L
355.968 104.891 L
356.402 104.647 L
356.836 104.405 L
357.27 104.165 L
357.704 103.926 L
358.138 103.69 L
358.572 103.455 L
359.006 103.222 L
359.44 102.991 L
359.874 102.762 L
360.308 102.535 L
360.742 102.31 L
361.176 102.086 L
361.61 101.865 L
362.044 101.645 L
362.478 101.427 L
362.912 101.212 L
363.346 100.998 L
363.78 100.785 L
364.214 100.575 L
364.648 100.367 L
365.082 100.161 L
365.516 99.956 L
365.95 99.753 L
366.384 99.552 L
366.818 99.353 L
367.252 99.156 L
367.686 98.961 L
368.12 98.768 L
368.554 98.576 L
368.988 98.387 L
369.422 98.199 L
369.856 98.013 L
370.29 97.828 L
370.724 97.646 L
371.158 97.465 L
371.592 97.286 L
372.026 97.109 L
372.46 96.933 L
372.894 96.76 L
373.328 96.588 L
373.762 96.417 L
374.196 96.249 L
374.63 96.082 L
375.064 95.916 L
375.498 95.753 L
375.932 95.591 L
376.366 95.43 L
376.8 95.271 L
377.234 95.114 L
377.668 94.958 L
378.102 94.804 L
378.536 94.651 L
378.97 94.5 L
379.404 94.351 L
379.838 94.202 L
380.272 94.056 L
380.706 93.91 L
381.14 93.766 L
381.574 93.624 L
382.008 93.482 L
382.442 93.342 L
382.876 93.204 L
383.31 93.066 L
383.744 92.93 L
384.178 92.796 L
384.612 92.662 L
385.046 92.53 L
385.48 92.399 L
385.914 92.269 L
386.348 92.14 L
386.782 92.012 L
387.216 91.886 L
387.65 91.76 L
388.084 91.636 L
388.518 91.513 L
388.952 91.39 L
389.386 91.269 L
389.82 91.149 L
390.254 91.029 L
390.688 90.911 L
391.122 90.793 L
391.556 90.677 L
391.99 90.561 L
392.424 90.446 L
392.858 90.332 L
393.292 90.219 L
393.726 90.107 L
394.16 89.995 L
394.594 89.884 L
395.028 89.774 L
395.462 89.665 L
395.896 89.556 L
396.33 89.448 L
396.764 89.34 L
397.198 89.234 L
397.632 89.127 L
398.066 89.022 L
398.5 88.917 L
398.934 88.812 L
399.368 88.708 L
399.802 88.605 L
400.236 88.502 L
400.67 88.4 L
401.104 88.298 L
401.538 88.196 L
401.972 88.095 L
402.406 87.994 L
402.84 87.894 L
403.274 87.794 L
403.708 87.694 L
404.142 87.594 L
404.576 87.495 L
405.01 87.396 L
405.444 87.297 L
405.878 87.199 L
406.312 87.101 L
406.746 87.002 L
407.18 86.904 L
407.614 86.806 L
408.048 86.709 L
408.482 86.611 L
408.916 86.513 L
409.35 86.415 L
409.784 86.318 L
410.218 86.22 L
410.652 86.122 L
411.086 86.025 L
411.52 85.927 L
411.954 85.829 L
412.388 85.73 L
412.822 85.632 L
413.256 85.533 L
413.69 85.435 L
414.124 85.336 L
414.558 85.236 L
414.992 85.137 L
415.426 85.037 L
415.86 84.937 L
416.294 84.836 L
416.728 84.735 L
417.162 84.633 L
417.596 84.531 L
418.03 84.429 L
418.464 84.326 L
418.898 84.222 L
419.332 84.118 L
419.766 84.014 L
420.2 83.908 L
420.634 83.802 L
421.068 83.696 L
421.502 83.588 L
421.936 83.48 L
422.37 83.371 L
422.804 83.262 L
423.238 83.151 L
423.672 83.04 L
424.106 82.928 L
424.54 82.814 L
424.974 82.7 L
425.408 82.585 L
425.842 82.469 L
426.276 82.352 L
426.71 82.234 L
427.144 82.115 L
427.578 81.995 L
428.012 81.873 L
428.446 81.751 L
428.88 81.627 L
429.314 81.502 L
429.748 81.376 L
430.182 81.249 L
430.616 81.12 L
431.05 80.99 L
431.484 80.859 L
431.918 80.727 L
432.352 80.593 L
432.786 80.457 L
433.22 80.321 L
433.654 80.183 L
434.088 80.043 L
434.522 79.902 L
434.956 79.76 L
435.39 79.616 L
435.824 79.47 L
436.258 79.323 L
436.692 79.175 L
437.126 79.025 L
437.56 78.874 L
437.994 78.72 L
438.428 78.566 L
438.862 78.41 L
439.296 78.252 L
439.73 78.092 L
440.164 77.932 L
440.598 77.769 L
441.032 77.605 L
441.466 77.439 L
441.9 77.272 L
442.334 77.103 L
442.768 76.932 L
443.202 76.76 L
443.636 76.586 L
444.07 76.411 L
444.504 76.234 L
444.938 76.055 L
445.372 75.875 L
445.806 75.693 L
446.24 75.51 L
446.674 75.325 L
447.108 75.139 L
447.542 74.951 L
447.976 74.762 L
448.41 74.571 L
448.844 74.378 L
449.278 74.184 L
449.712 73.989 L
450.146 73.792 L
450.58 73.594 L
451.014 73.394 L
451.448 73.193 L
451.882 72.991 L
452.316 72.787 L
452.75 72.582 L
453.184 72.376 L
453.618 72.168 L
454.052 71.959 L
454.486 71.749 L
454.92 71.538 L
455.354 71.325 L
455.788 71.111 L
456.222 70.897 L
456.656 70.681 L
457.09 70.464 L
457.524 70.246 L
457.958 70.027 L
458.392 69.807 L
458.826 69.586 L
459.26 69.364 L
459.694 69.141 L
460.128 68.917 L
460.562 68.692 L
460.996 68.467 L
461.43 68.241 L
461.864 68.014 L
462.298 67.786 L
462.732 67.557 L
463.166 67.328 L
463.6 67.099 L
464.034 66.868 L
464.468 66.637 L
464.902 66.406 L
465.336 66.173 L
465.77 65.941 L
466.204 65.708 L
466.638 65.474 L
467.072 65.24 L
467.506 65.006 L
467.94 64.771 L
468.374 64.536 L
468.808 64.301 L
469.242 64.066 L
469.676 63.83 L
470.11 63.594 L
470.544 63.357 L
470.978 63.121 L
471.412 62.884 L
471.846 62.648 L
472.28 62.411 L
472.714 62.174 L
473.148 61.937 L
473.582 61.701 L
474.016 61.464 L
474.45 61.227 L
474.884 60.99 L
475.318 60.753 L
475.752 60.517 L
476.186 60.28 L
476.62 60.044 L
477.054 59.808 L
477.488 59.572 L
477.922 59.336 L
478.356 59.101 L
478.79 58.866 L
479.224 58.631 L
479.658 58.396 L
480.092 58.162 L
480.526 57.928 L
480.96 57.695 L
481.394 57.462 L
481.828 57.229 L
482.262 56.997 L
482.696 56.765 L
483.13 56.534 L
483.564 56.303 L
483.998 56.072 L
484.432 55.843 L
484.866 55.613 L
485.3 55.385 L
485.734 55.157 L
486.168 54.929 L
486.602 54.702 L
487.036 54.476 L
487.47 54.251 L
487.904 54.026 L
488.338 53.802 L
488.772 53.578 L
489.206 53.356 L
489.64 53.134 L
490.074 52.913 L
490.508 52.693 L
490.942 52.473 L
491.376 52.254 L
491.81 52.037 L
492.244 51.82 L
492.678 51.604 L
493.112 51.389 L
493.546 51.174 L
493.98 50.961 L
494.414 50.749 L
494.848 50.537 L
495.282 50.327 L
495.716 50.118 L
496.15 49.909 L
496.584 49.702 L
497.018 49.496 L
497.452 49.291 L
497.886 49.087 L
498.32 48.884 L
498.754 48.682 L
499.188 48.482 L
499.622 48.283 L
500.056 48.084 L
500.49 47.888 L
500.924 47.692 L
501.358 47.497 L
501.792 47.304 L
502.226 47.112 L
502.66 46.922 L
503.094 46.732 L
503.528 46.545 L
503.962 46.358 L
504.396 46.173 L
504.83 45.989 L
505.264 45.807 L
505.698 45.626 L
506.132 45.446 L
506.566 45.268 L
507 45.092 L
S
GR
GS
1 GC
N
203 89 M
203 39.5 L
81 39.5 L
81 89 L
cp
f
GR
GS
[1 0 0 1 118 52.75] CT
/Times-Roman 20 F
GS
[1 0 0 1 0 0] CT
0 6.5 moveto 
1 -1 scale
(linear) t 
GR
GR
GS
0 0.447 0.741 RC
1 LJ
2 LW
N
85 52.75 M
115 52.75 L
S
GR
GS
[1 0 0 1 118 75.75] CT
/Times-Roman 20 F
GS
[1 0 0 1 0 0] CT
0 6.5 moveto 
1 -1 scale
(non linear) t 
GR
GR
GS
0.851 0.325 0.098 RC
1 LJ
2 LW
N
85 75.75 M
115 75.75 L
S
GR
GS
0.149 GC
10.0 ML
0.5 LW
N
81 89 M
81 39.5 L
203 39.5 L
203 89 L
cp
S
GR
%%Trailer
%%Pages: 1
%%EOF
