%!PS-Adobe-3.0 EPSF-3.0
%%Creator: (MATLAB, The Mathworks, Inc. Version 9.13.0.2049777 \(R2022b\). Operating System: Mac OS X)
%%Title: ../../Figure/Q2/psi_1000.eps
%%CreationDate: 2023-01-24T21:49:50
%%Pages: (atend)
%%BoundingBox:    10     2   531   395
%%LanguageLevel: 3
%%EndComments
%%BeginProlog
%%BeginResource: procset (Apache XML Graphics Std ProcSet) 1.2 0
%%Version: 1.2 0
%%Copyright: (Copyright 2001-2003,2010 The Apache Software Foundation. License terms: http://www.apache.org/licenses/LICENSE-2.0)
/bd{bind def}bind def
/ld{load def}bd
/GR/grestore ld
/GS/gsave ld
/RM/rmoveto ld
/C/curveto ld
/t/show ld
/L/lineto ld
/ML/setmiterlimit ld
/CT/concat ld
/f/fill ld
/N/newpath ld
/S/stroke ld
/CC/setcmykcolor ld
/A/ashow ld
/cp/closepath ld
/RC/setrgbcolor ld
/LJ/setlinejoin ld
/GC/setgray ld
/LW/setlinewidth ld
/M/moveto ld
/re {4 2 roll M
1 index 0 rlineto
0 exch rlineto
neg 0 rlineto
cp } bd
/_ctm matrix def
/_tm matrix def
/BT { _ctm currentmatrix pop matrix _tm copy pop 0 0 moveto } bd
/ET { _ctm setmatrix } bd
/iTm { _ctm setmatrix _tm concat } bd
/Tm { _tm astore pop iTm 0 0 moveto } bd
/ux 0.0 def
/uy 0.0 def
/F {
  /Tp exch def
  /Tf exch def
  Tf findfont Tp scalefont setfont
  /cf Tf def  /cs Tp def
} bd
/ULS {currentpoint /uy exch def /ux exch def} bd
/ULE {
  /Tcx currentpoint pop def
  gsave
  newpath
  cf findfont cs scalefont dup
  /FontMatrix get 0 get /Ts exch def /FontInfo get dup
  /UnderlinePosition get Ts mul /To exch def
  /UnderlineThickness get Ts mul /Tt exch def
  ux uy To add moveto  Tcx uy To add lineto
  Tt setlinewidth stroke
  grestore
} bd
/OLE {
  /Tcx currentpoint pop def
  gsave
  newpath
  cf findfont cs scalefont dup
  /FontMatrix get 0 get /Ts exch def /FontInfo get dup
  /UnderlinePosition get Ts mul /To exch def
  /UnderlineThickness get Ts mul /Tt exch def
  ux uy To add cs add moveto Tcx uy To add cs add lineto
  Tt setlinewidth stroke
  grestore
} bd
/SOE {
  /Tcx currentpoint pop def
  gsave
  newpath
  cf findfont cs scalefont dup
  /FontMatrix get 0 get /Ts exch def /FontInfo get dup
  /UnderlinePosition get Ts mul /To exch def
  /UnderlineThickness get Ts mul /Tt exch def
  ux uy To add cs 10 mul 26 idiv add moveto Tcx uy To add cs 10 mul 26 idiv add lineto
  Tt setlinewidth stroke
  grestore
} bd
/QT {
/Y22 exch store
/X22 exch store
/Y21 exch store
/X21 exch store
currentpoint
/Y21 load 2 mul add 3 div exch
/X21 load 2 mul add 3 div exch
/X21 load 2 mul /X22 load add 3 div
/Y21 load 2 mul /Y22 load add 3 div
/X22 load /Y22 load curveto
} bd
/SSPD {
dup length /d exch dict def
{
/v exch def
/k exch def
currentpagedevice k known {
/cpdv currentpagedevice k get def
v cpdv ne {
/upd false def
/nullv v type /nulltype eq def
/nullcpdv cpdv type /nulltype eq def
nullv nullcpdv or
{
/upd true def
} {
/sametype v type cpdv type eq def
sametype {
v type /arraytype eq {
/vlen v length def
/cpdvlen cpdv length def
vlen cpdvlen eq {
0 1 vlen 1 sub {
/i exch def
/obj v i get def
/cpdobj cpdv i get def
obj cpdobj ne {
/upd true def
exit
} if
} for
} {
/upd true def
} ifelse
} {
v type /dicttype eq {
v {
/dv exch def
/dk exch def
/cpddv cpdv dk get def
dv cpddv ne {
/upd true def
exit
} if
} forall
} {
/upd true def
} ifelse
} ifelse
} if
} ifelse
upd true eq {
d k v put
} if
} if
} if
} forall
d length 0 gt {
d setpagedevice
} if
} bd
/RE { % /NewFontName [NewEncodingArray] /FontName RE -
  findfont dup length dict begin
  {
    1 index /FID ne
    {def} {pop pop} ifelse
  } forall
  /Encoding exch def
  /FontName 1 index def
  currentdict definefont pop
  end
} bind def
%%EndResource
%%BeginResource: procset (Apache XML Graphics EPS ProcSet) 1.0 0
%%Version: 1.0 0
%%Copyright: (Copyright 2002-2003 The Apache Software Foundation. License terms: http://www.apache.org/licenses/LICENSE-2.0)
/BeginEPSF { %def
/b4_Inc_state save def         % Save state for cleanup
/dict_count countdictstack def % Count objects on dict stack
/op_count count 1 sub def      % Count objects on operand stack
userdict begin                 % Push userdict on dict stack
/showpage { } def              % Redefine showpage, { } = null proc
0 setgray 0 setlinecap         % Prepare graphics state
1 setlinewidth 0 setlinejoin
10 setmiterlimit [ ] 0 setdash newpath
/languagelevel where           % If level not equal to 1 then
{pop languagelevel             % set strokeadjust and
1 ne                           % overprint to their defaults.
{false setstrokeadjust false setoverprint
} if
} if
} bd
/EndEPSF { %def
count op_count sub {pop} repeat            % Clean up stacks
countdictstack dict_count sub {end} repeat
b4_Inc_state restore
} bd
%%EndResource
%FOPBeginFontDict
%%IncludeResource: font Courier-Oblique
%%IncludeResource: font Courier-BoldOblique
%%IncludeResource: font Courier-Bold
%%IncludeResource: font ZapfDingbats
%%IncludeResource: font Symbol
%%IncludeResource: font Helvetica
%%IncludeResource: font Helvetica-Oblique
%%IncludeResource: font Helvetica-Bold
%%IncludeResource: font Helvetica-BoldOblique
%%IncludeResource: font Times-Roman
%%IncludeResource: font Times-Italic
%%IncludeResource: font Times-Bold
%%IncludeResource: font Times-BoldItalic
%%IncludeResource: font Courier
%FOPEndFontDict
%%BeginResource: encoding WinAnsiEncoding
/WinAnsiEncoding [
/.notdef /.notdef /.notdef /.notdef /.notdef
/.notdef /.notdef /.notdef /.notdef /.notdef
/.notdef /.notdef /.notdef /.notdef /.notdef
/.notdef /.notdef /.notdef /.notdef /.notdef
/.notdef /.notdef /.notdef /.notdef /.notdef
/.notdef /.notdef /.notdef /.notdef /.notdef
/.notdef /.notdef /space /exclam /quotedbl
/numbersign /dollar /percent /ampersand /quotesingle
/parenleft /parenright /asterisk /plus /comma
/hyphen /period /slash /zero /one
/two /three /four /five /six
/seven /eight /nine /colon /semicolon
/less /equal /greater /question /at
/A /B /C /D /E
/F /G /H /I /J
/K /L /M /N /O
/P /Q /R /S /T
/U /V /W /X /Y
/Z /bracketleft /backslash /bracketright /asciicircum
/underscore /quoteleft /a /b /c
/d /e /f /g /h
/i /j /k /l /m
/n /o /p /q /r
/s /t /u /v /w
/x /y /z /braceleft /bar
/braceright /asciitilde /bullet /Euro /bullet
/quotesinglbase /florin /quotedblbase /ellipsis /dagger
/daggerdbl /circumflex /perthousand /Scaron /guilsinglleft
/OE /bullet /Zcaron /bullet /bullet
/quoteleft /quoteright /quotedblleft /quotedblright /bullet
/endash /emdash /asciitilde /trademark /scaron
/guilsinglright /oe /bullet /zcaron /Ydieresis
/space /exclamdown /cent /sterling /currency
/yen /brokenbar /section /dieresis /copyright
/ordfeminine /guillemotleft /logicalnot /sfthyphen /registered
/macron /degree /plusminus /twosuperior /threesuperior
/acute /mu /paragraph /middot /cedilla
/onesuperior /ordmasculine /guillemotright /onequarter /onehalf
/threequarters /questiondown /Agrave /Aacute /Acircumflex
/Atilde /Adieresis /Aring /AE /Ccedilla
/Egrave /Eacute /Ecircumflex /Edieresis /Igrave
/Iacute /Icircumflex /Idieresis /Eth /Ntilde
/Ograve /Oacute /Ocircumflex /Otilde /Odieresis
/multiply /Oslash /Ugrave /Uacute /Ucircumflex
/Udieresis /Yacute /Thorn /germandbls /agrave
/aacute /acircumflex /atilde /adieresis /aring
/ae /ccedilla /egrave /eacute /ecircumflex
/edieresis /igrave /iacute /icircumflex /idieresis
/eth /ntilde /ograve /oacute /ocircumflex
/otilde /odieresis /divide /oslash /ugrave
/uacute /ucircumflex /udieresis /yacute /thorn
/ydieresis
] def
%%EndResource
%FOPBeginFontReencode
/Courier-Oblique findfont
dup length dict begin
  {1 index /FID ne {def} {pop pop} ifelse} forall
  /Encoding WinAnsiEncoding def
  currentdict
end
/Courier-Oblique exch definefont pop
/Courier-BoldOblique findfont
dup length dict begin
  {1 index /FID ne {def} {pop pop} ifelse} forall
  /Encoding WinAnsiEncoding def
  currentdict
end
/Courier-BoldOblique exch definefont pop
/Courier-Bold findfont
dup length dict begin
  {1 index /FID ne {def} {pop pop} ifelse} forall
  /Encoding WinAnsiEncoding def
  currentdict
end
/Courier-Bold exch definefont pop
/Helvetica findfont
dup length dict begin
  {1 index /FID ne {def} {pop pop} ifelse} forall
  /Encoding WinAnsiEncoding def
  currentdict
end
/Helvetica exch definefont pop
/Helvetica-Oblique findfont
dup length dict begin
  {1 index /FID ne {def} {pop pop} ifelse} forall
  /Encoding WinAnsiEncoding def
  currentdict
end
/Helvetica-Oblique exch definefont pop
/Helvetica-Bold findfont
dup length dict begin
  {1 index /FID ne {def} {pop pop} ifelse} forall
  /Encoding WinAnsiEncoding def
  currentdict
end
/Helvetica-Bold exch definefont pop
/Helvetica-BoldOblique findfont
dup length dict begin
  {1 index /FID ne {def} {pop pop} ifelse} forall
  /Encoding WinAnsiEncoding def
  currentdict
end
/Helvetica-BoldOblique exch definefont pop
/Times-Roman findfont
dup length dict begin
  {1 index /FID ne {def} {pop pop} ifelse} forall
  /Encoding WinAnsiEncoding def
  currentdict
end
/Times-Roman exch definefont pop
/Times-Italic findfont
dup length dict begin
  {1 index /FID ne {def} {pop pop} ifelse} forall
  /Encoding WinAnsiEncoding def
  currentdict
end
/Times-Italic exch definefont pop
/Times-Bold findfont
dup length dict begin
  {1 index /FID ne {def} {pop pop} ifelse} forall
  /Encoding WinAnsiEncoding def
  currentdict
end
/Times-Bold exch definefont pop
/Times-BoldItalic findfont
dup length dict begin
  {1 index /FID ne {def} {pop pop} ifelse} forall
  /Encoding WinAnsiEncoding def
  currentdict
end
/Times-BoldItalic exch definefont pop
/Courier findfont
dup length dict begin
  {1 index /FID ne {def} {pop pop} ifelse} forall
  /Encoding WinAnsiEncoding def
  currentdict
end
/Courier exch definefont pop
%FOPEndFontReencode
%%EndProlog
%%Page: 1 1
%%PageBoundingBox: 0 0 560 420
%%BeginPageSetup
N
   10     2 M
  541     2 L
  541   397 L
   10   397 L
cp
clip
[1 0 0 -1 0 420] CT
%%EndPageSetup
GS
1 GC
N
0 0 560 420 re
f
GR
GS
1 GC
N
0 0 560 420 re
f
GR
GS
1 GC
N
73 367 M
507 367 L
507 31.5 L
73 31.5 L
cp
f
GR
GS
0.149 GC
2 setlinecap
1 LJ
0.5 LW
N
73 367 M
507 367 L
S
GR
GS
0.149 GC
2 setlinecap
1 LJ
0.5 LW
N
73 31.5 M
507 31.5 L
S
GR
GS
0.149 GC
2 setlinecap
1 LJ
0.5 LW
N
73 367 M
73 362.66 L
S
GR
GS
0.149 GC
2 setlinecap
1 LJ
0.5 LW
N
159.8 367 M
159.8 362.66 L
S
GR
GS
0.149 GC
2 setlinecap
1 LJ
0.5 LW
N
246.6 367 M
246.6 362.66 L
S
GR
GS
0.149 GC
2 setlinecap
1 LJ
0.5 LW
N
333.4 367 M
333.4 362.66 L
S
GR
GS
0.149 GC
2 setlinecap
1 LJ
0.5 LW
N
420.2 367 M
420.2 362.66 L
S
GR
GS
0.149 GC
2 setlinecap
1 LJ
0.5 LW
N
507 367 M
507 362.66 L
S
GR
GS
0.149 GC
2 setlinecap
1 LJ
0.5 LW
N
73 31.5 M
73 35.84 L
S
GR
GS
0.149 GC
2 setlinecap
1 LJ
0.5 LW
N
159.8 31.5 M
159.8 35.84 L
S
GR
GS
0.149 GC
2 setlinecap
1 LJ
0.5 LW
N
246.6 31.5 M
246.6 35.84 L
S
GR
GS
0.149 GC
2 setlinecap
1 LJ
0.5 LW
N
333.4 31.5 M
333.4 35.84 L
S
GR
GS
0.149 GC
2 setlinecap
1 LJ
0.5 LW
N
420.2 31.5 M
420.2 35.84 L
S
GR
GS
0.149 GC
2 setlinecap
1 LJ
0.5 LW
N
507 31.5 M
507 35.84 L
S
GR
GS
[1 0 0 1 73 372.19998] CT
0.149 GC
/Times-Roman 16 F
GS
[1 0 0 1 0 0] CT
-4 15 moveto 
1 -1 scale
(0) t 
GR
GR
GS
[1 0 0 1 159.8 372.19998] CT
0.149 GC
/Times-Roman 16 F
GS
[1 0 0 1 0 0] CT
-12 15 moveto 
1 -1 scale
(200) t 
GR
GR
GS
[1 0 0 1 246.60001 372.19998] CT
0.149 GC
/Times-Roman 16 F
GS
[1 0 0 1 0 0] CT
-12 15 moveto 
1 -1 scale
(400) t 
GR
GR
GS
[1 0 0 1 333.39999 372.19998] CT
0.149 GC
/Times-Roman 16 F
GS
[1 0 0 1 0 0] CT
-12 15 moveto 
1 -1 scale
(600) t 
GR
GR
GS
[1 0 0 1 420.20001 372.19998] CT
0.149 GC
/Times-Roman 16 F
GS
[1 0 0 1 0 0] CT
-12 15 moveto 
1 -1 scale
(800) t 
GR
GR
GS
[1 0 0 1 507 372.19998] CT
0.149 GC
/Times-Roman 16 F
GS
[1 0 0 1 0 0] CT
-16 15 moveto 
1 -1 scale
(1000) t 
GR
GR
GS
[1 0 0 1 290.00021 391.19998] CT
0.149 GC
N
-52.004 20.16 M
-52.004 19.316 L
-50.801 19.316 -49.668 19.183 QT
-48.535 19.051 -48.535 18.551 QT
-48.535 5.363 L
-48.535 4.847 -48.817 4.73 QT
-49.098 4.613 -49.754 4.613 QT
-50.754 4.613 L
-52.739 4.613 -53.567 5.472 QT
-54.004 5.91 -54.192 6.863 QT
-54.379 7.816 -54.504 9.254 QT
-55.192 9.254 L
-54.739 3.769 L
-40.082 3.769 L
-39.629 9.254 L
-40.332 9.254 L
-40.473 7.707 -40.637 6.801 QT
-40.801 5.894 -41.254 5.472 QT
-42.098 4.613 -44.067 4.613 QT
-45.067 4.613 L
-45.504 4.613 -45.746 4.644 QT
-45.989 4.676 -46.137 4.847 QT
-46.285 5.019 -46.285 5.363 QT
-46.285 18.551 L
-46.285 19.051 -45.153 19.183 QT
-44.02 19.316 -42.817 19.316 QT
-42.817 20.16 L
-52.004 20.16 L
cp
f
GR
GS
[1 0 0 1 290.00021 391.19998] CT
0.149 GC
N
-37.999 20.16 M
-37.999 19.316 L
-37.171 19.316 -36.647 19.183 QT
-36.124 19.051 -36.124 18.551 QT
-36.124 12.004 L
-36.124 11.082 -36.476 10.871 QT
-36.827 10.66 -37.89 10.66 QT
-37.89 9.816 L
-34.436 9.551 L
-34.436 18.551 L
-34.436 19.051 -33.976 19.183 QT
-33.515 19.316 -32.749 19.316 QT
-32.749 20.16 L
-37.999 20.16 L
cp
-36.968 5.426 M
-36.968 4.894 -36.569 4.496 QT
-36.171 4.097 -35.655 4.097 QT
-35.327 4.097 -35.007 4.277 QT
-34.686 4.457 -34.515 4.769 QT
-34.343 5.082 -34.343 5.426 QT
-34.343 5.941 -34.741 6.34 QT
-35.14 6.738 -35.655 6.738 QT
-36.171 6.738 -36.569 6.34 QT
-36.968 5.941 -36.968 5.426 QT
cp
f
GR
GS
[1 0 0 1 290.00021 391.19998] CT
0.149 GC
N
-31.348 20.16 M
-31.348 19.316 L
-30.535 19.316 -30.004 19.183 QT
-29.473 19.051 -29.473 18.551 QT
-29.473 12.004 L
-29.473 11.363 -29.668 11.074 QT
-29.864 10.785 -30.223 10.722 QT
-30.582 10.66 -31.348 10.66 QT
-31.348 9.816 L
-27.864 9.551 L
-27.864 11.894 L
-27.395 10.863 -26.449 10.207 QT
-25.504 9.551 -24.395 9.551 QT
-21.629 9.551 -21.145 11.801 QT
-20.66 10.801 -19.739 10.176 QT
-18.817 9.551 -17.707 9.551 QT
-16.614 9.551 -15.871 9.902 QT
-15.129 10.254 -14.754 10.972 QT
-14.379 11.691 -14.379 12.785 QT
-14.379 18.551 L
-14.379 19.051 -13.848 19.183 QT
-13.317 19.316 -12.504 19.316 QT
-12.504 20.16 L
-18.004 20.16 L
-18.004 19.316 L
-17.176 19.316 -16.653 19.183 QT
-16.129 19.051 -16.129 18.551 QT
-16.129 12.863 L
-16.129 11.644 -16.465 10.91 QT
-16.801 10.176 -17.864 10.176 QT
-19.239 10.176 -20.145 11.285 QT
-21.051 12.394 -21.051 13.816 QT
-21.051 18.551 L
-21.051 19.051 -20.52 19.183 QT
-19.989 19.316 -19.176 19.316 QT
-19.176 20.16 L
-24.676 20.16 L
-24.676 19.316 L
-23.848 19.316 -23.324 19.183 QT
-22.801 19.051 -22.801 18.551 QT
-22.801 12.863 L
-22.801 11.691 -23.137 10.933 QT
-23.473 10.176 -24.535 10.176 QT
-25.926 10.176 -26.824 11.285 QT
-27.723 12.394 -27.723 13.816 QT
-27.723 18.551 L
-27.723 19.051 -27.192 19.183 QT
-26.66 19.316 -25.848 19.316 QT
-25.848 20.16 L
-31.348 20.16 L
cp
f
GR
GS
[1 0 0 1 290.00021 391.19998] CT
0.149 GC
N
-6.082 20.426 M
-7.551 20.426 -8.778 19.66 QT
-10.004 18.894 -10.699 17.613 QT
-11.395 16.332 -11.395 14.894 QT
-11.395 13.488 -10.754 12.222 QT
-10.113 10.957 -8.973 10.176 QT
-7.832 9.394 -6.426 9.394 QT
-5.332 9.394 -4.512 9.769 QT
-3.692 10.144 -3.168 10.801 QT
-2.645 11.457 -2.371 12.347 QT
-2.098 13.238 -2.098 14.301 QT
-2.098 14.613 -2.348 14.613 QT
-9.301 14.613 L
-9.301 14.879 L
-9.301 16.863 -8.496 18.293 QT
-7.692 19.722 -5.879 19.722 QT
-5.145 19.722 -4.512 19.394 QT
-3.879 19.066 -3.418 18.48 QT
-2.957 17.894 -2.801 17.222 QT
-2.77 17.144 -2.707 17.082 QT
-2.645 17.019 -2.567 17.019 QT
-2.348 17.019 L
-2.098 17.019 -2.098 17.316 QT
-2.442 18.676 -3.567 19.551 QT
-4.692 20.426 -6.082 20.426 QT
cp
-9.27 14.019 M
-3.801 14.019 L
-3.801 13.113 -4.051 12.191 QT
-4.301 11.269 -4.887 10.652 QT
-5.473 10.035 -6.426 10.035 QT
-7.785 10.035 -8.528 11.308 QT
-9.27 12.582 -9.27 14.019 QT
cp
f
GR
GS
[1 0 0 1 290.00021 391.19998] CT
0.149 GC
N
14.038 26.113 M
12.709 25.066 11.741 23.699 QT
10.772 22.332 10.155 20.785 QT
9.538 19.238 9.233 17.551 QT
8.928 15.863 8.928 14.16 QT
8.928 12.441 9.233 10.754 QT
9.538 9.066 10.17 7.504 QT
10.803 5.941 11.772 4.582 QT
12.741 3.222 14.038 2.207 QT
14.038 2.16 14.163 2.16 QT
14.381 2.16 L
14.459 2.16 14.514 2.222 QT
14.569 2.285 14.569 2.363 QT
14.569 2.472 14.522 2.519 QT
13.35 3.676 12.569 4.988 QT
11.788 6.301 11.319 7.777 QT
10.85 9.254 10.639 10.847 QT
10.428 12.441 10.428 14.16 QT
10.428 21.785 14.506 25.754 QT
14.569 25.816 14.569 25.957 QT
14.569 26.004 14.506 26.082 QT
14.444 26.16 14.381 26.16 QT
14.163 26.16 L
14.038 26.16 14.038 26.113 QT
cp
f
GR
GS
[1 0 0 1 290.00021 391.19998] CT
0.149 GC
N
16.73 20.238 M
16.73 16.316 L
16.73 16.129 16.949 16.129 QT
17.23 16.129 L
17.371 16.129 17.418 16.316 QT
18.09 19.801 20.652 19.801 QT
21.793 19.801 22.558 19.285 QT
23.324 18.769 23.324 17.691 QT
23.324 16.91 22.73 16.363 QT
22.137 15.816 21.308 15.629 QT
19.715 15.301 L
18.902 15.129 18.238 14.769 QT
17.574 14.41 17.152 13.801 QT
16.73 13.191 16.73 12.394 QT
16.73 11.347 17.285 10.676 QT
17.84 10.004 18.73 9.699 QT
19.621 9.394 20.652 9.394 QT
21.887 9.394 22.808 10.051 QT
23.496 9.457 L
23.496 9.394 23.605 9.394 QT
23.793 9.394 L
23.855 9.394 23.918 9.465 QT
23.98 9.535 23.98 9.597 QT
23.98 12.738 L
23.98 12.957 23.793 12.957 QT
23.496 12.957 L
23.277 12.957 23.277 12.738 QT
23.277 11.488 22.582 10.722 QT
21.887 9.957 20.637 9.957 QT
19.558 9.957 18.769 10.355 QT
17.98 10.754 17.98 11.738 QT
17.98 12.394 18.543 12.824 QT
19.105 13.254 19.871 13.441 QT
21.496 13.754 L
22.324 13.941 23.035 14.386 QT
23.746 14.832 24.16 15.511 QT
24.574 16.191 24.574 17.035 QT
24.574 17.91 24.277 18.551 QT
23.98 19.191 23.441 19.613 QT
22.902 20.035 22.176 20.23 QT
21.449 20.426 20.652 20.426 QT
19.152 20.426 18.09 19.426 QT
17.215 20.379 L
17.215 20.426 17.09 20.426 QT
16.949 20.426 L
16.73 20.426 16.73 20.238 QT
cp
f
GR
GS
[1 0 0 1 290.00021 391.19998] CT
0.149 GC
N
31.384 20.426 M
29.916 20.426 28.689 19.66 QT
27.463 18.894 26.767 17.613 QT
26.072 16.332 26.072 14.894 QT
26.072 13.488 26.713 12.222 QT
27.353 10.957 28.494 10.176 QT
29.634 9.394 31.041 9.394 QT
32.134 9.394 32.955 9.769 QT
33.775 10.144 34.299 10.801 QT
34.822 11.457 35.095 12.347 QT
35.369 13.238 35.369 14.301 QT
35.369 14.613 35.119 14.613 QT
28.166 14.613 L
28.166 14.879 L
28.166 16.863 28.97 18.293 QT
29.775 19.722 31.588 19.722 QT
32.322 19.722 32.955 19.394 QT
33.588 19.066 34.049 18.48 QT
34.509 17.894 34.666 17.222 QT
34.697 17.144 34.759 17.082 QT
34.822 17.019 34.9 17.019 QT
35.119 17.019 L
35.369 17.019 35.369 17.316 QT
35.025 18.676 33.9 19.551 QT
32.775 20.426 31.384 20.426 QT
cp
28.197 14.019 M
33.666 14.019 L
33.666 13.113 33.416 12.191 QT
33.166 11.269 32.58 10.652 QT
31.994 10.035 31.041 10.035 QT
29.681 10.035 28.939 11.308 QT
28.197 12.582 28.197 14.019 QT
cp
f
GR
GS
[1 0 0 1 290.00021 391.19998] CT
0.149 GC
N
42.051 20.426 M
40.598 20.426 39.41 19.668 QT
38.223 18.91 37.543 17.652 QT
36.864 16.394 36.864 14.972 QT
36.864 13.566 37.535 12.261 QT
38.207 10.957 39.403 10.176 QT
40.598 9.394 42.051 9.394 QT
43.457 9.394 44.606 9.949 QT
45.754 10.504 45.754 11.754 QT
45.754 12.222 45.426 12.566 QT
45.098 12.91 44.614 12.91 QT
44.129 12.91 43.793 12.566 QT
43.457 12.222 43.457 11.754 QT
43.457 11.332 43.731 11.019 QT
44.004 10.707 44.395 10.629 QT
43.567 10.097 42.067 10.097 QT
40.926 10.097 40.223 10.863 QT
39.52 11.629 39.239 12.754 QT
38.957 13.879 38.957 14.972 QT
38.957 16.144 39.301 17.222 QT
39.645 18.301 40.41 19.011 QT
41.176 19.722 42.332 19.722 QT
43.473 19.722 44.27 19.027 QT
45.067 18.332 45.364 17.207 QT
45.364 17.066 45.551 17.066 QT
45.848 17.066 L
45.91 17.066 45.973 17.129 QT
46.035 17.191 46.035 17.269 QT
46.035 17.347 L
45.66 18.769 44.582 19.597 QT
43.504 20.426 42.051 20.426 QT
cp
f
GR
GS
[1 0 0 1 290.00021 391.19998] CT
0.149 GC
N
48.296 26.16 M
48.077 26.16 48.077 25.957 QT
48.077 25.847 48.124 25.801 QT
52.233 21.785 52.233 14.16 QT
52.233 6.535 48.171 2.566 QT
48.077 2.504 48.077 2.363 QT
48.077 2.285 48.147 2.222 QT
48.218 2.16 48.296 2.16 QT
48.515 2.16 L
48.593 2.16 48.64 2.207 QT
50.358 3.566 51.507 5.511 QT
52.655 7.457 53.187 9.66 QT
53.718 11.863 53.718 14.16 QT
53.718 15.863 53.429 17.504 QT
53.14 19.144 52.515 20.746 QT
51.89 22.347 50.929 23.707 QT
49.968 25.066 48.64 26.113 QT
48.593 26.16 48.515 26.16 QT
48.296 26.16 L
cp
f
GR
GS
0.149 GC
2 setlinecap
1 LJ
0.5 LW
N
73 367 M
73 31.5 L
S
GR
GS
0.149 GC
2 setlinecap
1 LJ
0.5 LW
N
507 367 M
507 31.5 L
S
GR
GS
0.149 GC
2 setlinecap
1 LJ
0.5 LW
N
73 367 M
77.34 367 L
S
GR
GS
0.149 GC
2 setlinecap
1 LJ
0.5 LW
N
73 329.722 M
77.34 329.722 L
S
GR
GS
0.149 GC
2 setlinecap
1 LJ
0.5 LW
N
73 292.444 M
77.34 292.444 L
S
GR
GS
0.149 GC
2 setlinecap
1 LJ
0.5 LW
N
73 255.167 M
77.34 255.167 L
S
GR
GS
0.149 GC
2 setlinecap
1 LJ
0.5 LW
N
73 217.889 M
77.34 217.889 L
S
GR
GS
0.149 GC
2 setlinecap
1 LJ
0.5 LW
N
73 180.611 M
77.34 180.611 L
S
GR
GS
0.149 GC
2 setlinecap
1 LJ
0.5 LW
N
73 143.333 M
77.34 143.333 L
S
GR
GS
0.149 GC
2 setlinecap
1 LJ
0.5 LW
N
73 106.056 M
77.34 106.056 L
S
GR
GS
0.149 GC
2 setlinecap
1 LJ
0.5 LW
N
73 68.778 M
77.34 68.778 L
S
GR
GS
0.149 GC
2 setlinecap
1 LJ
0.5 LW
N
73 31.5 M
77.34 31.5 L
S
GR
GS
0.149 GC
2 setlinecap
1 LJ
0.5 LW
N
507 367 M
502.66 367 L
S
GR
GS
0.149 GC
2 setlinecap
1 LJ
0.5 LW
N
507 329.722 M
502.66 329.722 L
S
GR
GS
0.149 GC
2 setlinecap
1 LJ
0.5 LW
N
507 292.444 M
502.66 292.444 L
S
GR
GS
0.149 GC
2 setlinecap
1 LJ
0.5 LW
N
507 255.167 M
502.66 255.167 L
S
GR
GS
0.149 GC
2 setlinecap
1 LJ
0.5 LW
N
507 217.889 M
502.66 217.889 L
S
GR
GS
0.149 GC
2 setlinecap
1 LJ
0.5 LW
N
507 180.611 M
502.66 180.611 L
S
GR
GS
0.149 GC
2 setlinecap
1 LJ
0.5 LW
N
507 143.333 M
502.66 143.333 L
S
GR
GS
0.149 GC
2 setlinecap
1 LJ
0.5 LW
N
507 106.056 M
502.66 106.056 L
S
GR
GS
0.149 GC
2 setlinecap
1 LJ
0.5 LW
N
507 68.778 M
502.66 68.778 L
S
GR
GS
0.149 GC
2 setlinecap
1 LJ
0.5 LW
N
507 31.5 M
502.66 31.5 L
S
GR
GS
[1 0 0 1 67.8 367] CT
0.149 GC
/Times-Roman 16 F
GS
[1 0 0 1 0 0] CT
-30 5.5 moveto 
1 -1 scale
(-100) t 
GR
GR
GS
[1 0 0 1 67.8 329.72223] CT
0.149 GC
/Times-Roman 16 F
GS
[1 0 0 1 0 0] CT
-22 5.5 moveto 
1 -1 scale
(-80) t 
GR
GR
GS
[1 0 0 1 67.8 292.44446] CT
0.149 GC
/Times-Roman 16 F
GS
[1 0 0 1 0 0] CT
-22 5.5 moveto 
1 -1 scale
(-60) t 
GR
GR
GS
[1 0 0 1 67.8 255.16667] CT
0.149 GC
/Times-Roman 16 F
GS
[1 0 0 1 0 0] CT
-22 5.5 moveto 
1 -1 scale
(-40) t 
GR
GR
GS
[1 0 0 1 67.8 217.88889] CT
0.149 GC
/Times-Roman 16 F
GS
[1 0 0 1 0 0] CT
-22 5.5 moveto 
1 -1 scale
(-20) t 
GR
GR
GS
[1 0 0 1 67.8 180.61111] CT
0.149 GC
/Times-Roman 16 F
GS
[1 0 0 1 0 0] CT
-8 5.5 moveto 
1 -1 scale
(0) t 
GR
GR
GS
[1 0 0 1 67.8 143.33333] CT
0.149 GC
/Times-Roman 16 F
GS
[1 0 0 1 0 0] CT
-16 5.5 moveto 
1 -1 scale
(20) t 
GR
GR
GS
[1 0 0 1 67.8 106.05556] CT
0.149 GC
/Times-Roman 16 F
GS
[1 0 0 1 0 0] CT
-16 5.5 moveto 
1 -1 scale
(40) t 
GR
GR
GS
[1 0 0 1 67.8 68.77778] CT
0.149 GC
/Times-Roman 16 F
GS
[1 0 0 1 0 0] CT
-16 5.5 moveto 
1 -1 scale
(60) t 
GR
GR
GS
[1 0 0 1 67.8 31.5] CT
0.149 GC
/Times-Roman 16 F
GS
[1 0 0 1 0 0] CT
-16 5.5 moveto 
1 -1 scale
(80) t 
GR
GR
GS
[0 -1 1 0 35.3 199.24985] CT
0.149 GC
N
-7.344 -3.968 M
-6.203 -8.421 L
-7.25 -8.421 -8.227 -8.82 QT
-9.203 -9.218 -9.805 -9.976 QT
-10.407 -10.734 -10.407 -11.828 QT
-10.407 -12.453 -10.188 -13.249 QT
-9.969 -14.046 -9.711 -14.71 QT
-9.453 -15.374 -9.032 -16.468 QT
-8.719 -17.343 -8.719 -17.906 QT
-8.719 -18.624 -9.25 -18.624 QT
-10.203 -18.624 -10.813 -17.648 QT
-11.422 -16.671 -11.719 -15.468 QT
-11.766 -15.312 -11.922 -15.312 QT
-12.203 -15.312 L
-12.407 -15.312 -12.407 -15.531 QT
-12.407 -15.609 L
-12.016 -17.031 -11.219 -18.14 QT
-10.422 -19.249 -9.203 -19.249 QT
-8.344 -19.249 -7.75 -18.687 QT
-7.157 -18.124 -7.157 -17.249 QT
-7.157 -16.812 -7.36 -16.312 QT
-7.782 -15.234 -8.032 -14.585 QT
-8.282 -13.937 -8.5 -13.124 QT
-8.719 -12.312 -8.719 -11.671 QT
-8.719 -10.499 -7.985 -9.851 QT
-7.25 -9.203 -6.063 -9.046 QT
-2.032 -25.156 L
-1.985 -25.296 -1.844 -25.296 QT
-1.547 -25.296 L
-1.36 -25.296 -1.36 -25.062 QT
-5.375 -8.999 L
-5.094 -8.999 L
-4.094 -8.999 -2.977 -9.601 QT
-1.86 -10.203 -0.938 -11.171 QT
-0.016 -12.14 0.523 -13.265 QT
1.062 -14.39 1.062 -15.359 QT
1.062 -16.078 0.828 -16.484 QT
0.593 -16.89 0.218 -17.328 QT
-0.157 -17.765 -0.157 -18.031 QT
-0.157 -18.499 0.234 -18.882 QT
0.625 -19.265 1.093 -19.265 QT
1.656 -19.265 1.914 -18.742 QT
2.172 -18.218 2.172 -17.546 QT
2.172 -16.843 2.031 -16.14 QT
1.89 -15.437 1.64 -14.484 QT
1.093 -12.281 -0.657 -10.546 QT
-1.25 -9.937 -1.977 -9.445 QT
-2.703 -8.953 -3.5 -8.664 QT
-4.297 -8.374 -5.125 -8.374 QT
-5.516 -8.374 L
-6.641 -3.859 L
-6.688 -3.718 -6.828 -3.718 QT
-7.11 -3.718 L
-7.203 -3.718 -7.274 -3.796 QT
-7.344 -3.874 -7.344 -3.968 QT
cp
f
GR
GS
[0 -1 1 0 35.3 199.24985] CT
0.149 GC
N
7.697 -18.303 M
6.822 -18.303 6.057 -18.748 QT
5.291 -19.193 4.846 -19.967 QT
4.4 -20.74 4.4 -21.6 QT
4.4 -22.459 4.846 -23.232 QT
5.291 -24.006 6.057 -24.451 QT
6.822 -24.896 7.697 -24.896 QT
8.572 -24.896 9.33 -24.451 QT
10.088 -24.006 10.533 -23.232 QT
10.979 -22.459 10.979 -21.6 QT
10.979 -20.74 10.533 -19.967 QT
10.088 -19.193 9.33 -18.748 QT
8.572 -18.303 7.697 -18.303 QT
cp
7.697 -18.99 M
8.76 -18.99 9.525 -19.764 QT
10.291 -20.537 10.291 -21.6 QT
10.291 -22.287 9.939 -22.896 QT
9.588 -23.506 8.994 -23.857 QT
8.4 -24.209 7.697 -24.209 QT
7.182 -24.209 6.705 -24.006 QT
6.229 -23.803 5.854 -23.435 QT
5.479 -23.068 5.283 -22.592 QT
5.088 -22.115 5.088 -21.6 QT
5.088 -20.537 5.854 -19.764 QT
6.619 -18.99 7.697 -18.99 QT
cp
f
GR
GS
0 0.447 0.741 RC
1 LJ
2 LW
N
73 59.155 M
73.434 59.443 L
73.868 59.731 L
74.302 60.019 L
74.736 60.307 L
75.17 60.595 L
75.604 60.883 L
76.038 61.171 L
76.472 61.459 L
76.906 61.748 L
77.34 62.036 L
77.774 62.324 L
78.208 62.612 L
78.642 62.901 L
79.076 63.189 L
79.51 63.477 L
79.944 63.766 L
80.378 64.054 L
80.812 64.342 L
81.246 64.631 L
81.68 64.919 L
82.114 65.208 L
82.548 65.496 L
82.982 65.784 L
83.416 66.073 L
83.85 66.361 L
84.284 66.649 L
84.718 66.938 L
85.152 67.226 L
85.586 67.514 L
86.02 67.802 L
86.454 68.091 L
86.888 68.379 L
87.322 68.667 L
87.756 68.955 L
88.19 69.243 L
88.624 69.531 L
89.058 69.819 L
89.492 70.107 L
89.926 70.395 L
90.36 70.683 L
90.794 70.971 L
91.228 71.259 L
91.662 71.547 L
92.096 71.834 L
92.53 72.122 L
92.964 72.41 L
93.398 72.698 L
93.832 72.985 L
94.266 73.273 L
94.7 73.56 L
95.134 73.848 L
95.568 74.136 L
96.002 74.423 L
96.436 74.711 L
96.87 74.998 L
97.304 75.286 L
97.738 75.573 L
98.172 75.86 L
98.606 76.148 L
99.04 76.435 L
99.474 76.723 L
99.908 77.01 L
100.342 77.298 L
100.776 77.585 L
101.21 77.872 L
101.644 78.16 L
102.078 78.447 L
102.512 78.735 L
102.946 79.022 L
103.38 79.31 L
103.814 79.597 L
104.248 79.885 L
104.682 80.173 L
105.116 80.46 L
105.55 80.748 L
105.984 81.036 L
106.418 81.323 L
106.852 81.611 L
107.286 81.899 L
107.72 82.187 L
108.154 82.475 L
108.588 82.763 L
109.022 83.052 L
109.456 83.34 L
109.89 83.628 L
110.324 83.917 L
110.758 84.205 L
111.192 84.494 L
111.626 84.783 L
112.06 85.072 L
112.494 85.361 L
112.928 85.65 L
113.362 85.939 L
113.796 86.228 L
114.23 86.518 L
114.664 86.807 L
115.098 87.097 L
115.532 87.387 L
115.966 87.677 L
116.4 87.968 L
116.834 88.258 L
117.268 88.549 L
117.702 88.839 L
118.136 89.13 L
118.57 89.421 L
119.004 89.713 L
119.438 90.004 L
119.872 90.296 L
120.306 90.588 L
120.74 90.88 L
121.174 91.172 L
121.608 91.464 L
122.042 91.757 L
122.476 92.05 L
122.91 92.343 L
123.344 92.636 L
123.778 92.93 L
124.212 93.224 L
124.646 93.518 L
125.08 93.812 L
125.514 94.106 L
125.948 94.401 L
126.382 94.696 L
126.816 94.991 L
127.25 95.286 L
127.684 95.582 L
128.118 95.878 L
128.552 96.174 L
128.986 96.47 L
129.42 96.766 L
129.854 97.063 L
130.288 97.36 L
130.722 97.657 L
131.156 97.955 L
131.59 98.253 L
132.024 98.551 L
132.458 98.849 L
132.892 99.147 L
133.326 99.446 L
133.76 99.745 L
134.194 100.044 L
134.628 100.343 L
135.062 100.643 L
135.496 100.943 L
135.93 101.243 L
136.364 101.543 L
136.798 101.843 L
137.232 102.144 L
137.666 102.445 L
138.1 102.746 L
138.534 103.047 L
138.968 103.349 L
139.402 103.65 L
139.836 103.952 L
140.27 104.254 L
140.704 104.557 L
141.138 104.859 L
141.572 105.162 L
142.006 105.465 L
142.44 105.768 L
142.874 106.071 L
143.308 106.374 L
143.742 106.678 L
144.176 106.981 L
144.61 107.285 L
145.044 107.589 L
145.478 107.893 L
145.912 108.197 L
146.346 108.502 L
146.78 108.806 L
147.214 109.111 L
147.648 109.416 L
148.082 109.721 L
148.516 110.026 L
148.95 110.331 L
149.384 110.636 L
149.818 110.942 L
150.252 111.247 L
150.686 111.552 L
151.12 111.858 L
151.554 112.164 L
151.988 112.47 L
152.422 112.776 L
152.856 113.081 L
153.29 113.388 L
153.724 113.694 L
154.158 114 L
154.592 114.306 L
155.026 114.612 L
155.46 114.919 L
155.894 115.225 L
156.328 115.531 L
156.762 115.838 L
157.196 116.144 L
157.63 116.451 L
158.064 116.757 L
158.498 117.064 L
158.932 117.371 L
159.366 117.677 L
159.8 117.984 L
160.234 118.29 L
160.668 118.597 L
161.102 118.904 L
161.536 119.21 L
161.97 119.517 L
162.404 119.824 L
162.838 120.131 L
163.272 120.437 L
163.706 120.744 L
164.14 121.051 L
164.574 121.357 L
165.008 121.664 L
165.442 121.971 L
165.876 122.277 L
166.31 122.584 L
166.744 122.891 L
167.178 123.197 L
167.612 123.504 L
168.046 123.811 L
168.48 124.117 L
168.914 124.424 L
169.348 124.73 L
169.782 125.037 L
170.216 125.344 L
170.65 125.65 L
171.084 125.957 L
171.518 126.263 L
171.952 126.57 L
172.386 126.876 L
172.82 127.183 L
173.254 127.489 L
173.688 127.796 L
174.122 128.102 L
174.556 128.409 L
174.99 128.715 L
175.424 129.022 L
175.858 129.328 L
176.292 129.635 L
176.726 129.941 L
177.16 130.247 L
177.594 130.554 L
178.028 130.86 L
178.462 131.167 L
178.896 131.474 L
179.33 131.78 L
179.764 132.087 L
180.198 132.393 L
180.632 132.7 L
181.066 133.006 L
181.5 133.313 L
181.934 133.62 L
182.368 133.927 L
182.802 134.233 L
183.236 134.54 L
183.67 134.847 L
184.104 135.154 L
184.538 135.461 L
184.972 135.768 L
185.406 136.075 L
185.84 136.382 L
186.274 136.69 L
186.708 136.997 L
187.142 137.304 L
187.576 137.612 L
188.01 137.919 L
188.444 138.227 L
188.878 138.535 L
189.312 138.843 L
189.746 139.15 L
190.18 139.458 L
190.614 139.767 L
191.048 140.075 L
191.482 140.383 L
191.916 140.692 L
192.35 141 L
192.784 141.309 L
193.218 141.618 L
193.652 141.927 L
194.086 142.236 L
194.52 142.545 L
194.954 142.854 L
195.388 143.164 L
195.822 143.473 L
196.256 143.783 L
196.69 144.093 L
197.124 144.403 L
197.558 144.713 L
197.992 145.024 L
198.426 145.334 L
198.86 145.645 L
199.294 145.956 L
199.728 146.267 L
200.162 146.578 L
200.596 146.89 L
201.03 147.201 L
201.464 147.513 L
201.898 147.825 L
202.332 148.137 L
202.766 148.449 L
203.2 148.761 L
203.634 149.074 L
204.068 149.387 L
204.502 149.7 L
204.936 150.013 L
205.37 150.326 L
205.804 150.639 L
206.238 150.953 L
206.672 151.267 L
207.106 151.581 L
207.54 151.895 L
207.974 152.209 L
208.408 152.523 L
208.842 152.838 L
209.276 153.153 L
209.71 153.468 L
210.144 153.783 L
210.578 154.098 L
211.012 154.413 L
211.446 154.729 L
211.88 155.045 L
212.314 155.36 L
212.748 155.676 L
213.182 155.993 L
213.616 156.309 L
214.05 156.625 L
214.484 156.942 L
214.918 157.258 L
215.352 157.575 L
215.786 157.892 L
216.22 158.209 L
216.654 158.526 L
217.088 158.843 L
217.522 159.16 L
217.956 159.478 L
218.39 159.795 L
218.824 160.113 L
219.258 160.43 L
219.692 160.748 L
220.126 161.066 L
220.56 161.384 L
220.994 161.701 L
221.428 162.019 L
221.862 162.337 L
222.296 162.655 L
222.73 162.973 L
223.164 163.292 L
223.598 163.61 L
224.032 163.928 L
224.466 164.246 L
224.9 164.564 L
225.334 164.882 L
225.768 165.2 L
226.202 165.518 L
226.636 165.837 L
227.07 166.155 L
227.504 166.473 L
227.938 166.791 L
228.372 167.109 L
228.806 167.427 L
229.24 167.745 L
229.674 168.063 L
230.108 168.38 L
230.542 168.698 L
230.976 169.016 L
231.41 169.333 L
231.844 169.651 L
232.278 169.969 L
232.712 170.286 L
233.146 170.603 L
233.58 170.92 L
234.014 171.238 L
234.448 171.555 L
234.882 171.871 L
235.316 172.188 L
235.75 172.505 L
236.184 172.822 L
236.618 173.138 L
237.052 173.454 L
237.486 173.77 L
237.92 174.087 L
238.354 174.402 L
238.788 174.718 L
239.222 175.034 L
239.656 175.349 L
240.09 175.665 L
240.524 175.98 L
240.958 176.295 L
241.392 176.61 L
241.826 176.925 L
242.26 177.239 L
242.694 177.554 L
243.128 177.868 L
243.562 178.182 L
243.996 178.496 L
244.43 178.81 L
244.864 179.124 L
245.298 179.437 L
245.732 179.75 L
246.166 180.063 L
246.6 180.376 L
247.034 180.689 L
247.468 181.002 L
247.902 181.314 L
248.336 181.627 L
248.77 181.939 L
249.204 182.251 L
249.638 182.562 L
250.072 182.874 L
250.506 183.186 L
250.94 183.497 L
251.374 183.808 L
251.808 184.119 L
252.242 184.43 L
252.676 184.74 L
253.11 185.051 L
253.544 185.361 L
253.978 185.671 L
254.412 185.981 L
254.846 186.291 L
255.28 186.601 L
255.714 186.911 L
256.148 187.22 L
256.582 187.529 L
257.016 187.838 L
257.45 188.147 L
257.884 188.456 L
258.318 188.765 L
258.752 189.074 L
259.186 189.382 L
259.62 189.691 L
260.054 189.999 L
260.488 190.307 L
260.922 190.615 L
261.356 190.923 L
261.79 191.231 L
262.224 191.539 L
262.658 191.846 L
263.092 192.154 L
263.526 192.462 L
263.96 192.769 L
264.394 193.076 L
264.828 193.384 L
265.262 193.691 L
265.696 193.998 L
266.13 194.305 L
266.564 194.612 L
266.998 194.919 L
267.432 195.226 L
267.866 195.533 L
268.3 195.84 L
268.734 196.147 L
269.168 196.454 L
269.602 196.761 L
270.036 197.067 L
270.47 197.374 L
270.904 197.681 L
271.338 197.988 L
271.772 198.295 L
272.206 198.602 L
272.64 198.908 L
273.074 199.215 L
273.508 199.522 L
273.942 199.829 L
274.376 200.136 L
274.81 200.443 L
275.244 200.75 L
275.678 201.057 L
276.112 201.364 L
276.546 201.671 L
276.98 201.979 L
277.414 202.286 L
277.848 202.593 L
278.282 202.901 L
278.716 203.208 L
279.15 203.516 L
279.584 203.823 L
280.018 204.131 L
280.452 204.439 L
280.886 204.747 L
281.32 205.055 L
281.754 205.363 L
282.188 205.671 L
282.622 205.979 L
283.056 206.287 L
283.49 206.596 L
283.924 206.904 L
284.358 207.213 L
284.792 207.521 L
285.226 207.83 L
285.66 208.139 L
286.094 208.448 L
286.528 208.757 L
286.962 209.066 L
287.396 209.376 L
287.83 209.685 L
288.264 209.995 L
288.698 210.304 L
289.132 210.614 L
289.566 210.924 L
290 211.234 L
290.434 211.544 L
290.868 211.854 L
291.302 212.164 L
291.736 212.474 L
292.17 212.784 L
292.604 213.095 L
293.038 213.405 L
293.472 213.716 L
293.906 214.027 L
294.34 214.338 L
294.774 214.648 L
295.208 214.959 L
295.642 215.27 L
296.076 215.581 L
296.51 215.892 L
296.944 216.204 L
297.378 216.515 L
297.812 216.826 L
298.246 217.137 L
298.68 217.449 L
299.114 217.76 L
299.548 218.072 L
299.982 218.383 L
300.416 218.695 L
300.85 219.006 L
301.284 219.318 L
301.718 219.629 L
302.152 219.941 L
302.586 220.253 L
303.02 220.564 L
303.454 220.876 L
303.888 221.187 L
304.322 221.499 L
304.756 221.811 L
305.19 222.122 L
305.624 222.434 L
306.058 222.745 L
306.492 223.057 L
306.926 223.368 L
307.36 223.679 L
307.794 223.991 L
308.228 224.302 L
308.662 224.613 L
309.096 224.925 L
309.53 225.236 L
309.964 225.547 L
310.398 225.858 L
310.832 226.169 L
311.266 226.48 L
311.7 226.79 L
312.134 227.101 L
312.568 227.412 L
313.002 227.722 L
313.436 228.033 L
313.87 228.343 L
314.304 228.653 L
314.738 228.963 L
315.172 229.273 L
315.606 229.583 L
316.04 229.893 L
316.474 230.202 L
316.908 230.512 L
317.342 230.821 L
317.776 231.131 L
318.21 231.44 L
318.644 231.749 L
319.078 232.058 L
319.512 232.367 L
319.946 232.675 L
320.38 232.984 L
320.814 233.292 L
321.248 233.6 L
321.682 233.908 L
322.116 234.216 L
322.55 234.524 L
322.984 234.832 L
323.418 235.139 L
323.852 235.446 L
324.286 235.754 L
324.72 236.061 L
325.154 236.368 L
325.588 236.674 L
326.022 236.981 L
326.456 237.287 L
326.89 237.594 L
327.324 237.9 L
327.758 238.206 L
328.192 238.512 L
328.626 238.817 L
329.06 239.123 L
329.494 239.428 L
329.928 239.733 L
330.362 240.039 L
330.796 240.343 L
331.23 240.648 L
331.664 240.953 L
332.098 241.257 L
332.532 241.562 L
332.966 241.866 L
333.4 242.17 L
333.834 242.474 L
334.268 242.778 L
334.702 243.082 L
335.136 243.385 L
335.57 243.689 L
336.004 243.992 L
336.438 244.296 L
336.872 244.599 L
337.306 244.902 L
337.74 245.205 L
338.174 245.507 L
338.608 245.81 L
339.042 246.113 L
339.476 246.415 L
339.91 246.717 L
340.344 247.02 L
340.778 247.322 L
341.212 247.624 L
341.646 247.926 L
342.08 248.228 L
342.514 248.53 L
342.948 248.832 L
343.382 249.134 L
343.816 249.435 L
344.25 249.737 L
344.684 250.038 L
345.118 250.34 L
345.552 250.641 L
345.986 250.943 L
346.42 251.244 L
346.854 251.546 L
347.288 251.847 L
347.722 252.148 L
348.156 252.449 L
348.59 252.751 L
349.024 253.052 L
349.458 253.353 L
349.892 253.654 L
350.326 253.955 L
350.76 254.256 L
351.194 254.557 L
351.628 254.859 L
352.062 255.16 L
352.496 255.461 L
352.93 255.762 L
353.364 256.063 L
353.798 256.364 L
354.232 256.665 L
354.666 256.967 L
355.1 257.268 L
355.534 257.569 L
355.968 257.87 L
356.402 258.172 L
356.836 258.473 L
357.27 258.774 L
357.704 259.076 L
358.138 259.377 L
358.572 259.678 L
359.006 259.98 L
359.44 260.281 L
359.874 260.583 L
360.308 260.885 L
360.742 261.186 L
361.176 261.488 L
361.61 261.789 L
362.044 262.091 L
362.478 262.393 L
362.912 262.695 L
363.346 262.997 L
363.78 263.298 L
364.214 263.6 L
364.648 263.902 L
365.082 264.204 L
365.516 264.506 L
365.95 264.808 L
366.384 265.11 L
366.818 265.412 L
367.252 265.714 L
367.686 266.016 L
368.12 266.318 L
368.554 266.62 L
368.988 266.923 L
369.422 267.225 L
369.856 267.527 L
370.29 267.829 L
370.724 268.131 L
371.158 268.433 L
371.592 268.735 L
372.026 269.037 L
372.46 269.339 L
372.894 269.641 L
373.328 269.943 L
373.762 270.245 L
374.196 270.547 L
374.63 270.849 L
375.064 271.151 L
375.498 271.453 L
375.932 271.755 L
376.366 272.056 L
376.8 272.358 L
377.234 272.659 L
377.668 272.961 L
378.102 273.262 L
378.536 273.564 L
378.97 273.865 L
379.404 274.166 L
379.838 274.467 L
380.272 274.768 L
380.706 275.068 L
381.14 275.369 L
381.574 275.67 L
382.008 275.97 L
382.442 276.27 L
382.876 276.57 L
383.31 276.87 L
383.744 277.17 L
384.178 277.47 L
384.612 277.77 L
385.046 278.069 L
385.48 278.368 L
385.914 278.667 L
386.348 278.966 L
386.782 279.264 L
387.216 279.563 L
387.65 279.861 L
388.084 280.159 L
388.518 280.457 L
388.952 280.755 L
389.386 281.052 L
389.82 281.349 L
390.254 281.646 L
390.688 281.943 L
391.122 282.239 L
391.556 282.535 L
391.99 282.831 L
392.424 283.127 L
392.858 283.423 L
393.292 283.718 L
393.726 284.013 L
394.16 284.308 L
394.594 284.602 L
395.028 284.896 L
395.462 285.19 L
395.896 285.484 L
396.33 285.777 L
396.764 286.07 L
397.198 286.363 L
397.632 286.656 L
398.066 286.948 L
398.5 287.24 L
398.934 287.531 L
399.368 287.823 L
399.802 288.114 L
400.236 288.405 L
400.67 288.695 L
401.104 288.985 L
401.538 289.275 L
401.972 289.565 L
402.406 289.854 L
402.84 290.143 L
403.274 290.432 L
403.708 290.72 L
404.142 291.008 L
404.576 291.296 L
405.01 291.583 L
405.444 291.871 L
405.878 292.157 L
406.312 292.444 L
406.746 292.73 L
407.18 293.016 L
407.614 293.302 L
408.048 293.587 L
408.482 293.872 L
408.916 294.157 L
409.35 294.441 L
409.784 294.725 L
410.218 295.009 L
410.652 295.293 L
411.086 295.576 L
411.52 295.859 L
411.954 296.142 L
412.388 296.424 L
412.822 296.707 L
413.256 296.988 L
413.69 297.27 L
414.124 297.551 L
414.558 297.832 L
414.992 298.113 L
415.426 298.394 L
415.86 298.674 L
416.294 298.954 L
416.728 299.234 L
417.162 299.514 L
417.596 299.793 L
418.03 300.072 L
418.464 300.351 L
418.898 300.629 L
419.332 300.908 L
419.766 301.186 L
420.2 301.464 L
420.634 301.741 L
421.068 302.019 L
421.502 302.296 L
421.936 302.573 L
422.37 302.85 L
422.804 303.127 L
423.238 303.403 L
423.672 303.68 L
424.106 303.956 L
424.54 304.232 L
424.974 304.508 L
425.408 304.783 L
425.842 305.059 L
426.276 305.334 L
426.71 305.61 L
427.144 305.885 L
427.578 306.159 L
428.012 306.434 L
428.446 306.709 L
428.88 306.983 L
429.314 307.258 L
429.748 307.532 L
430.182 307.806 L
430.616 308.08 L
431.05 308.354 L
431.484 308.628 L
431.918 308.902 L
432.352 309.176 L
432.786 309.449 L
433.22 309.723 L
433.654 309.996 L
434.088 310.27 L
434.522 310.543 L
434.956 310.816 L
435.39 311.089 L
435.824 311.362 L
436.258 311.635 L
436.692 311.908 L
437.126 312.181 L
437.56 312.454 L
437.994 312.727 L
438.428 313 L
438.862 313.273 L
439.296 313.545 L
439.73 313.818 L
440.164 314.09 L
440.598 314.363 L
441.032 314.636 L
441.466 314.908 L
441.9 315.181 L
442.334 315.453 L
442.768 315.726 L
443.202 315.998 L
443.636 316.27 L
444.07 316.543 L
444.504 316.815 L
444.938 317.087 L
445.372 317.359 L
445.806 317.632 L
446.24 317.904 L
446.674 318.176 L
447.108 318.448 L
447.542 318.72 L
447.976 318.992 L
448.41 319.264 L
448.844 319.536 L
449.278 319.808 L
449.712 320.08 L
450.146 320.352 L
450.58 320.624 L
451.014 320.895 L
451.448 321.167 L
451.882 321.439 L
452.316 321.71 L
452.75 321.982 L
453.184 322.253 L
453.618 322.525 L
454.052 322.796 L
454.486 323.067 L
454.92 323.338 L
455.354 323.609 L
455.788 323.88 L
456.222 324.151 L
456.656 324.422 L
457.09 324.693 L
457.524 324.963 L
457.958 325.234 L
458.392 325.504 L
458.826 325.774 L
459.26 326.044 L
459.694 326.314 L
460.128 326.584 L
460.562 326.854 L
460.996 327.124 L
461.43 327.393 L
461.864 327.662 L
462.298 327.932 L
462.732 328.201 L
463.166 328.469 L
463.6 328.738 L
464.034 329.007 L
464.468 329.275 L
464.902 329.543 L
465.336 329.811 L
465.77 330.079 L
466.204 330.347 L
466.638 330.614 L
467.072 330.881 L
467.506 331.149 L
467.94 331.415 L
468.374 331.682 L
468.808 331.948 L
469.242 332.215 L
469.676 332.481 L
470.11 332.746 L
470.544 333.012 L
470.978 333.277 L
471.412 333.542 L
471.846 333.807 L
472.28 334.072 L
472.714 334.336 L
473.148 334.6 L
473.582 334.864 L
474.016 335.128 L
474.45 335.391 L
474.884 335.654 L
475.318 335.917 L
475.752 336.18 L
476.186 336.442 L
476.62 336.704 L
477.054 336.966 L
477.488 337.228 L
477.922 337.489 L
478.356 337.75 L
478.79 338.011 L
479.224 338.271 L
479.658 338.531 L
480.092 338.791 L
480.526 339.051 L
480.96 339.31 L
481.394 339.57 L
481.828 339.828 L
482.262 340.087 L
482.696 340.345 L
483.13 340.603 L
483.564 340.861 L
483.998 341.118 L
484.432 341.376 L
484.866 341.632 L
485.3 341.889 L
485.734 342.145 L
486.168 342.401 L
486.602 342.657 L
487.036 342.913 L
487.47 343.168 L
487.904 343.423 L
488.338 343.678 L
488.772 343.932 L
489.206 344.186 L
489.64 344.44 L
490.074 344.694 L
490.508 344.947 L
490.942 345.2 L
491.376 345.453 L
491.81 345.706 L
492.244 345.958 L
492.678 346.21 L
493.112 346.462 L
493.546 346.714 L
493.98 346.965 L
494.414 347.216 L
494.848 347.467 L
495.282 347.718 L
495.716 347.968 L
496.15 348.219 L
496.584 348.468 L
497.018 348.718 L
497.452 348.968 L
497.886 349.217 L
498.32 349.466 L
498.754 349.715 L
499.188 349.964 L
499.622 350.213 L
500.056 350.461 L
500.49 350.709 L
500.924 350.957 L
501.358 351.205 L
501.792 351.452 L
502.226 351.7 L
502.66 351.947 L
503.094 352.194 L
503.528 352.441 L
503.962 352.688 L
504.396 352.934 L
504.83 353.181 L
505.264 353.427 L
505.698 353.673 L
506.132 353.919 L
506.566 354.165 L
507 354.411 L
S
GR
GS
0.851 0.325 0.098 RC
1 LJ
2 LW
N
73 59.155 M
73.434 59.138 L
73.868 59.12 L
74.302 59.103 L
74.736 59.087 L
75.17 59.071 L
75.604 59.056 L
76.038 59.041 L
76.472 59.027 L
76.906 59.013 L
77.34 58.999 L
77.774 58.987 L
78.208 58.974 L
78.642 58.963 L
79.076 58.952 L
79.51 58.941 L
79.944 58.931 L
80.378 58.921 L
80.812 58.913 L
81.246 58.904 L
81.68 58.896 L
82.114 58.889 L
82.548 58.883 L
82.982 58.876 L
83.416 58.871 L
83.85 58.866 L
84.284 58.862 L
84.718 58.858 L
85.152 58.855 L
85.586 58.852 L
86.02 58.85 L
86.454 58.849 L
86.888 58.848 L
87.322 58.848 L
87.756 58.848 L
88.19 58.849 L
88.624 58.851 L
89.058 58.853 L
89.492 58.856 L
89.926 58.859 L
90.36 58.863 L
90.794 58.868 L
91.228 58.873 L
91.662 58.879 L
92.096 58.885 L
92.53 58.892 L
92.964 58.9 L
93.398 58.908 L
93.832 58.917 L
94.266 58.926 L
94.7 58.936 L
95.134 58.947 L
95.568 58.958 L
96.002 58.97 L
96.436 58.982 L
96.87 58.995 L
97.304 59.008 L
97.738 59.022 L
98.172 59.037 L
98.606 59.052 L
99.04 59.067 L
99.474 59.084 L
99.908 59.1 L
100.342 59.118 L
100.776 59.136 L
101.21 59.154 L
101.644 59.173 L
102.078 59.193 L
102.512 59.213 L
102.946 59.233 L
103.38 59.254 L
103.814 59.276 L
104.248 59.298 L
104.682 59.321 L
105.116 59.344 L
105.55 59.367 L
105.984 59.391 L
106.418 59.416 L
106.852 59.441 L
107.286 59.466 L
107.72 59.492 L
108.154 59.518 L
108.588 59.545 L
109.022 59.572 L
109.456 59.6 L
109.89 59.628 L
110.324 59.656 L
110.758 59.685 L
111.192 59.714 L
111.626 59.744 L
112.06 59.774 L
112.494 59.804 L
112.928 59.835 L
113.362 59.866 L
113.796 59.897 L
114.23 59.928 L
114.664 59.96 L
115.098 59.993 L
115.532 60.025 L
115.966 60.058 L
116.4 60.091 L
116.834 60.124 L
117.268 60.158 L
117.702 60.191 L
118.136 60.225 L
118.57 60.259 L
119.004 60.294 L
119.438 60.328 L
119.872 60.363 L
120.306 60.398 L
120.74 60.433 L
121.174 60.468 L
121.608 60.503 L
122.042 60.539 L
122.476 60.574 L
122.91 60.61 L
123.344 60.646 L
123.778 60.681 L
124.212 60.717 L
124.646 60.753 L
125.08 60.789 L
125.514 60.825 L
125.948 60.861 L
126.382 60.897 L
126.816 60.933 L
127.25 60.969 L
127.684 61.005 L
128.118 61.041 L
128.552 61.076 L
128.986 61.112 L
129.42 61.148 L
129.854 61.183 L
130.288 61.219 L
130.722 61.254 L
131.156 61.29 L
131.59 61.325 L
132.024 61.36 L
132.458 61.395 L
132.892 61.43 L
133.326 61.464 L
133.76 61.499 L
134.194 61.533 L
134.628 61.567 L
135.062 61.601 L
135.496 61.635 L
135.93 61.669 L
136.364 61.702 L
136.798 61.736 L
137.232 61.769 L
137.666 61.801 L
138.1 61.834 L
138.534 61.866 L
138.968 61.898 L
139.402 61.93 L
139.836 61.962 L
140.27 61.993 L
140.704 62.025 L
141.138 62.055 L
141.572 62.086 L
142.006 62.117 L
142.44 62.147 L
142.874 62.177 L
143.308 62.206 L
143.742 62.236 L
144.176 62.265 L
144.61 62.294 L
145.044 62.322 L
145.478 62.35 L
145.912 62.379 L
146.346 62.406 L
146.78 62.434 L
147.214 62.461 L
147.648 62.488 L
148.082 62.515 L
148.516 62.541 L
148.95 62.567 L
149.384 62.593 L
149.818 62.619 L
150.252 62.644 L
150.686 62.669 L
151.12 62.694 L
151.554 62.719 L
151.988 62.743 L
152.422 62.767 L
152.856 62.791 L
153.29 62.814 L
153.724 62.838 L
154.158 62.861 L
154.592 62.883 L
155.026 62.906 L
155.46 62.928 L
155.894 62.95 L
156.328 62.972 L
156.762 62.994 L
157.196 63.015 L
157.63 63.036 L
158.064 63.057 L
158.498 63.077 L
158.932 63.098 L
159.366 63.118 L
159.8 63.138 L
160.234 63.158 L
160.668 63.177 L
161.102 63.196 L
161.536 63.216 L
161.97 63.234 L
162.404 63.253 L
162.838 63.271 L
163.272 63.29 L
163.706 63.308 L
164.14 63.326 L
164.574 63.343 L
165.008 63.361 L
165.442 63.378 L
165.876 63.395 L
166.31 63.412 L
166.744 63.428 L
167.178 63.445 L
167.612 63.461 L
168.046 63.477 L
168.48 63.493 L
168.914 63.509 L
169.348 63.524 L
169.782 63.54 L
170.216 63.555 L
170.65 63.57 L
171.084 63.584 L
171.518 63.599 L
171.952 63.613 L
172.386 63.628 L
172.82 63.642 L
173.254 63.656 L
173.688 63.669 L
174.122 63.683 L
174.556 63.696 L
174.99 63.709 L
175.424 63.722 L
175.858 63.735 L
176.292 63.748 L
176.726 63.76 L
177.16 63.772 L
177.594 63.784 L
178.028 63.796 L
178.462 63.808 L
178.896 63.82 L
179.33 63.831 L
179.764 63.842 L
180.198 63.853 L
180.632 63.864 L
181.066 63.874 L
181.5 63.885 L
181.934 63.895 L
182.368 63.905 L
182.802 63.915 L
183.236 63.925 L
183.67 63.934 L
184.104 63.943 L
184.538 63.952 L
184.972 63.961 L
185.406 63.97 L
185.84 63.979 L
186.274 63.987 L
186.708 63.995 L
187.142 64.003 L
187.576 64.011 L
188.01 64.018 L
188.444 64.026 L
188.878 64.033 L
189.312 64.04 L
189.746 64.047 L
190.18 64.053 L
190.614 64.059 L
191.048 64.066 L
191.482 64.072 L
191.916 64.078 L
192.35 64.083 L
192.784 64.089 L
193.218 64.094 L
193.652 64.099 L
194.086 64.104 L
194.52 64.108 L
194.954 64.113 L
195.388 64.117 L
195.822 64.121 L
196.256 64.125 L
196.69 64.129 L
197.124 64.133 L
197.558 64.136 L
197.992 64.139 L
198.426 64.142 L
198.86 64.145 L
199.294 64.148 L
199.728 64.151 L
200.162 64.153 L
200.596 64.156 L
201.03 64.158 L
201.464 64.16 L
201.898 64.162 L
202.332 64.163 L
202.766 64.165 L
203.2 64.166 L
203.634 64.168 L
204.068 64.169 L
204.502 64.17 L
204.936 64.171 L
205.37 64.172 L
205.804 64.173 L
206.238 64.174 L
206.672 64.174 L
207.106 64.175 L
207.54 64.176 L
207.974 64.176 L
208.408 64.176 L
208.842 64.177 L
209.276 64.177 L
209.71 64.177 L
210.144 64.178 L
210.578 64.178 L
211.012 64.178 L
211.446 64.178 L
211.88 64.178 L
212.314 64.179 L
212.748 64.179 L
213.182 64.179 L
213.616 64.179 L
214.05 64.18 L
214.484 64.18 L
214.918 64.18 L
215.352 64.181 L
215.786 64.181 L
216.22 64.182 L
216.654 64.183 L
217.088 64.183 L
217.522 64.184 L
217.956 64.185 L
218.39 64.186 L
218.824 64.188 L
219.258 64.189 L
219.692 64.19 L
220.126 64.192 L
220.56 64.194 L
220.994 64.196 L
221.428 64.198 L
221.862 64.2 L
222.296 64.203 L
222.73 64.206 L
223.164 64.208 L
223.598 64.212 L
224.032 64.215 L
224.466 64.218 L
224.9 64.222 L
225.334 64.226 L
225.768 64.231 L
226.202 64.235 L
226.636 64.24 L
227.07 64.245 L
227.504 64.25 L
227.938 64.256 L
228.372 64.262 L
228.806 64.268 L
229.24 64.274 L
229.674 64.281 L
230.108 64.288 L
230.542 64.296 L
230.976 64.303 L
231.41 64.311 L
231.844 64.32 L
232.278 64.329 L
232.712 64.338 L
233.146 64.347 L
233.58 64.357 L
234.014 64.367 L
234.448 64.378 L
234.882 64.388 L
235.316 64.4 L
235.75 64.411 L
236.184 64.423 L
236.618 64.436 L
237.052 64.448 L
237.486 64.461 L
237.92 64.475 L
238.354 64.489 L
238.788 64.503 L
239.222 64.518 L
239.656 64.533 L
240.09 64.549 L
240.524 64.564 L
240.958 64.581 L
241.392 64.598 L
241.826 64.615 L
242.26 64.632 L
242.694 64.65 L
243.128 64.669 L
243.562 64.688 L
243.996 64.707 L
244.43 64.727 L
244.864 64.747 L
245.298 64.767 L
245.732 64.788 L
246.166 64.809 L
246.6 64.831 L
247.034 64.853 L
247.468 64.876 L
247.902 64.899 L
248.336 64.923 L
248.77 64.947 L
249.204 64.971 L
249.638 64.996 L
250.072 65.021 L
250.506 65.046 L
250.94 65.072 L
251.374 65.099 L
251.808 65.125 L
252.242 65.153 L
252.676 65.18 L
253.11 65.208 L
253.544 65.237 L
253.978 65.265 L
254.412 65.295 L
254.846 65.324 L
255.28 65.354 L
255.714 65.385 L
256.148 65.415 L
256.582 65.446 L
257.016 65.478 L
257.45 65.51 L
257.884 65.542 L
258.318 65.575 L
258.752 65.608 L
259.186 65.641 L
259.62 65.675 L
260.054 65.709 L
260.488 65.743 L
260.922 65.777 L
261.356 65.812 L
261.79 65.848 L
262.224 65.883 L
262.658 65.919 L
263.092 65.955 L
263.526 65.992 L
263.96 66.029 L
264.394 66.066 L
264.828 66.103 L
265.262 66.141 L
265.696 66.179 L
266.13 66.217 L
266.564 66.255 L
266.998 66.294 L
267.432 66.333 L
267.866 66.372 L
268.3 66.411 L
268.734 66.451 L
269.168 66.49 L
269.602 66.53 L
270.036 66.57 L
270.47 66.61 L
270.904 66.651 L
271.338 66.691 L
271.772 66.732 L
272.206 66.773 L
272.64 66.814 L
273.074 66.855 L
273.508 66.897 L
273.942 66.938 L
274.376 66.98 L
274.81 67.021 L
275.244 67.063 L
275.678 67.105 L
276.112 67.147 L
276.546 67.188 L
276.98 67.23 L
277.414 67.272 L
277.848 67.315 L
278.282 67.357 L
278.716 67.399 L
279.15 67.441 L
279.584 67.483 L
280.018 67.525 L
280.452 67.568 L
280.886 67.61 L
281.32 67.652 L
281.754 67.694 L
282.188 67.736 L
282.622 67.778 L
283.056 67.82 L
283.49 67.862 L
283.924 67.904 L
284.358 67.946 L
284.792 67.988 L
285.226 68.029 L
285.66 68.071 L
286.094 68.113 L
286.528 68.154 L
286.962 68.195 L
287.396 68.237 L
287.83 68.278 L
288.264 68.319 L
288.698 68.36 L
289.132 68.401 L
289.566 68.442 L
290 68.482 L
290.434 68.523 L
290.868 68.563 L
291.302 68.604 L
291.736 68.644 L
292.17 68.684 L
292.604 68.724 L
293.038 68.763 L
293.472 68.803 L
293.906 68.843 L
294.34 68.882 L
294.774 68.921 L
295.208 68.96 L
295.642 68.999 L
296.076 69.038 L
296.51 69.077 L
296.944 69.115 L
297.378 69.154 L
297.812 69.192 L
298.246 69.23 L
298.68 69.269 L
299.114 69.306 L
299.548 69.344 L
299.982 69.382 L
300.416 69.42 L
300.85 69.457 L
301.284 69.494 L
301.718 69.532 L
302.152 69.569 L
302.586 69.606 L
303.02 69.643 L
303.454 69.68 L
303.888 69.716 L
304.322 69.753 L
304.756 69.789 L
305.19 69.826 L
305.624 69.862 L
306.058 69.899 L
306.492 69.935 L
306.926 69.971 L
307.36 70.007 L
307.794 70.043 L
308.228 70.079 L
308.662 70.115 L
309.096 70.151 L
309.53 70.187 L
309.964 70.222 L
310.398 70.258 L
310.832 70.294 L
311.266 70.329 L
311.7 70.365 L
312.134 70.401 L
312.568 70.436 L
313.002 70.472 L
313.436 70.507 L
313.87 70.543 L
314.304 70.579 L
314.738 70.614 L
315.172 70.65 L
315.606 70.685 L
316.04 70.721 L
316.474 70.756 L
316.908 70.792 L
317.342 70.828 L
317.776 70.863 L
318.21 70.899 L
318.644 70.935 L
319.078 70.97 L
319.512 71.006 L
319.946 71.042 L
320.38 71.078 L
320.814 71.114 L
321.248 71.15 L
321.682 71.185 L
322.116 71.222 L
322.55 71.258 L
322.984 71.294 L
323.418 71.33 L
323.852 71.366 L
324.286 71.402 L
324.72 71.439 L
325.154 71.475 L
325.588 71.512 L
326.022 71.548 L
326.456 71.585 L
326.89 71.621 L
327.324 71.658 L
327.758 71.695 L
328.192 71.731 L
328.626 71.768 L
329.06 71.805 L
329.494 71.842 L
329.928 71.879 L
330.362 71.916 L
330.796 71.954 L
331.23 71.991 L
331.664 72.028 L
332.098 72.065 L
332.532 72.103 L
332.966 72.14 L
333.4 72.178 L
333.834 72.215 L
334.268 72.253 L
334.702 72.291 L
335.136 72.328 L
335.57 72.366 L
336.004 72.404 L
336.438 72.442 L
336.872 72.48 L
337.306 72.517 L
337.74 72.555 L
338.174 72.593 L
338.608 72.631 L
339.042 72.669 L
339.476 72.707 L
339.91 72.745 L
340.344 72.784 L
340.778 72.822 L
341.212 72.86 L
341.646 72.898 L
342.08 72.936 L
342.514 72.974 L
342.948 73.012 L
343.382 73.05 L
343.816 73.088 L
344.25 73.126 L
344.684 73.164 L
345.118 73.202 L
345.552 73.24 L
345.986 73.278 L
346.42 73.316 L
346.854 73.354 L
347.288 73.392 L
347.722 73.43 L
348.156 73.468 L
348.59 73.505 L
349.024 73.543 L
349.458 73.581 L
349.892 73.618 L
350.326 73.656 L
350.76 73.693 L
351.194 73.73 L
351.628 73.768 L
352.062 73.805 L
352.496 73.842 L
352.93 73.879 L
353.364 73.916 L
353.798 73.953 L
354.232 73.99 L
354.666 74.026 L
355.1 74.063 L
355.534 74.1 L
355.968 74.136 L
356.402 74.172 L
356.836 74.209 L
357.27 74.245 L
357.704 74.281 L
358.138 74.317 L
358.572 74.353 L
359.006 74.388 L
359.44 74.424 L
359.874 74.459 L
360.308 74.495 L
360.742 74.53 L
361.176 74.565 L
361.61 74.6 L
362.044 74.635 L
362.478 74.67 L
362.912 74.705 L
363.346 74.739 L
363.78 74.774 L
364.214 74.808 L
364.648 74.843 L
365.082 74.877 L
365.516 74.911 L
365.95 74.945 L
366.384 74.979 L
366.818 75.013 L
367.252 75.046 L
367.686 75.08 L
368.12 75.113 L
368.554 75.147 L
368.988 75.18 L
369.422 75.214 L
369.856 75.247 L
370.29 75.28 L
370.724 75.313 L
371.158 75.346 L
371.592 75.379 L
372.026 75.412 L
372.46 75.444 L
372.894 75.477 L
373.328 75.51 L
373.762 75.542 L
374.196 75.575 L
374.63 75.607 L
375.064 75.64 L
375.498 75.672 L
375.932 75.705 L
376.366 75.737 L
376.8 75.77 L
377.234 75.802 L
377.668 75.835 L
378.102 75.867 L
378.536 75.899 L
378.97 75.932 L
379.404 75.964 L
379.838 75.997 L
380.272 76.029 L
380.706 76.062 L
381.14 76.094 L
381.574 76.127 L
382.008 76.159 L
382.442 76.192 L
382.876 76.225 L
383.31 76.258 L
383.744 76.291 L
384.178 76.324 L
384.612 76.357 L
385.046 76.39 L
385.48 76.423 L
385.914 76.456 L
386.348 76.489 L
386.782 76.523 L
387.216 76.557 L
387.65 76.59 L
388.084 76.624 L
388.518 76.658 L
388.952 76.692 L
389.386 76.726 L
389.82 76.76 L
390.254 76.795 L
390.688 76.829 L
391.122 76.864 L
391.556 76.899 L
391.99 76.934 L
392.424 76.969 L
392.858 77.005 L
393.292 77.04 L
393.726 77.076 L
394.16 77.112 L
394.594 77.148 L
395.028 77.184 L
395.462 77.22 L
395.896 77.257 L
396.33 77.294 L
396.764 77.33 L
397.198 77.368 L
397.632 77.405 L
398.066 77.442 L
398.5 77.48 L
398.934 77.518 L
399.368 77.556 L
399.802 77.594 L
400.236 77.633 L
400.67 77.671 L
401.104 77.71 L
401.538 77.749 L
401.972 77.789 L
402.406 77.828 L
402.84 77.868 L
403.274 77.908 L
403.708 77.948 L
404.142 77.988 L
404.576 78.029 L
405.01 78.069 L
405.444 78.11 L
405.878 78.151 L
406.312 78.193 L
406.746 78.234 L
407.18 78.276 L
407.614 78.318 L
408.048 78.36 L
408.482 78.402 L
408.916 78.445 L
409.35 78.487 L
409.784 78.53 L
410.218 78.573 L
410.652 78.617 L
411.086 78.66 L
411.52 78.704 L
411.954 78.748 L
412.388 78.792 L
412.822 78.836 L
413.256 78.88 L
413.69 78.924 L
414.124 78.969 L
414.558 79.014 L
414.992 79.059 L
415.426 79.104 L
415.86 79.149 L
416.294 79.195 L
416.728 79.24 L
417.162 79.286 L
417.596 79.332 L
418.03 79.378 L
418.464 79.424 L
418.898 79.47 L
419.332 79.516 L
419.766 79.562 L
420.2 79.609 L
420.634 79.656 L
421.068 79.702 L
421.502 79.749 L
421.936 79.796 L
422.37 79.843 L
422.804 79.89 L
423.238 79.937 L
423.672 79.984 L
424.106 80.031 L
424.54 80.079 L
424.974 80.126 L
425.408 80.173 L
425.842 80.221 L
426.276 80.268 L
426.71 80.315 L
427.144 80.363 L
427.578 80.41 L
428.012 80.458 L
428.446 80.505 L
428.88 80.553 L
429.314 80.6 L
429.748 80.648 L
430.182 80.695 L
430.616 80.742 L
431.05 80.79 L
431.484 80.837 L
431.918 80.884 L
432.352 80.932 L
432.786 80.979 L
433.22 81.026 L
433.654 81.073 L
434.088 81.12 L
434.522 81.167 L
434.956 81.214 L
435.39 81.261 L
435.824 81.308 L
436.258 81.355 L
436.692 81.401 L
437.126 81.448 L
437.56 81.494 L
437.994 81.541 L
438.428 81.587 L
438.862 81.633 L
439.296 81.679 L
439.73 81.725 L
440.164 81.771 L
440.598 81.817 L
441.032 81.863 L
441.466 81.908 L
441.9 81.954 L
442.334 81.999 L
442.768 82.045 L
443.202 82.09 L
443.636 82.135 L
444.07 82.18 L
444.504 82.225 L
444.938 82.27 L
445.372 82.314 L
445.806 82.359 L
446.24 82.403 L
446.674 82.448 L
447.108 82.492 L
447.542 82.536 L
447.976 82.58 L
448.41 82.624 L
448.844 82.668 L
449.278 82.712 L
449.712 82.756 L
450.146 82.799 L
450.58 82.843 L
451.014 82.887 L
451.448 82.93 L
451.882 82.973 L
452.316 83.017 L
452.75 83.06 L
453.184 83.103 L
453.618 83.146 L
454.052 83.19 L
454.486 83.233 L
454.92 83.276 L
455.354 83.319 L
455.788 83.362 L
456.222 83.405 L
456.656 83.448 L
457.09 83.491 L
457.524 83.534 L
457.958 83.577 L
458.392 83.62 L
458.826 83.663 L
459.26 83.706 L
459.694 83.749 L
460.128 83.792 L
460.562 83.835 L
460.996 83.878 L
461.43 83.922 L
461.864 83.965 L
462.298 84.008 L
462.732 84.052 L
463.166 84.095 L
463.6 84.139 L
464.034 84.182 L
464.468 84.226 L
464.902 84.27 L
465.336 84.314 L
465.77 84.358 L
466.204 84.402 L
466.638 84.446 L
467.072 84.491 L
467.506 84.535 L
467.94 84.58 L
468.374 84.625 L
468.808 84.67 L
469.242 84.715 L
469.676 84.76 L
470.11 84.806 L
470.544 84.851 L
470.978 84.897 L
471.412 84.943 L
471.846 84.989 L
472.28 85.035 L
472.714 85.082 L
473.148 85.128 L
473.582 85.175 L
474.016 85.222 L
474.45 85.27 L
474.884 85.317 L
475.318 85.365 L
475.752 85.413 L
476.186 85.461 L
476.62 85.509 L
477.054 85.557 L
477.488 85.606 L
477.922 85.655 L
478.356 85.704 L
478.79 85.754 L
479.224 85.803 L
479.658 85.853 L
480.092 85.903 L
480.526 85.953 L
480.96 86.004 L
481.394 86.055 L
481.828 86.106 L
482.262 86.157 L
482.696 86.208 L
483.13 86.26 L
483.564 86.312 L
483.998 86.364 L
484.432 86.417 L
484.866 86.469 L
485.3 86.522 L
485.734 86.575 L
486.168 86.629 L
486.602 86.682 L
487.036 86.736 L
487.47 86.79 L
487.904 86.844 L
488.338 86.899 L
488.772 86.953 L
489.206 87.008 L
489.64 87.063 L
490.074 87.119 L
490.508 87.174 L
490.942 87.23 L
491.376 87.286 L
491.81 87.342 L
492.244 87.398 L
492.678 87.455 L
493.112 87.511 L
493.546 87.568 L
493.98 87.625 L
494.414 87.683 L
494.848 87.74 L
495.282 87.798 L
495.716 87.855 L
496.15 87.913 L
496.584 87.972 L
497.018 88.03 L
497.452 88.088 L
497.886 88.147 L
498.32 88.205 L
498.754 88.264 L
499.188 88.323 L
499.622 88.382 L
500.056 88.441 L
500.49 88.5 L
500.924 88.56 L
501.358 88.619 L
501.792 88.679 L
502.226 88.738 L
502.66 88.798 L
503.094 88.858 L
503.528 88.917 L
503.962 88.977 L
504.396 89.037 L
504.83 89.097 L
505.264 89.157 L
505.698 89.217 L
506.132 89.277 L
506.566 89.337 L
507 89.397 L
S
GR
GS
1 GC
N
203 359 M
203 309.5 L
81 309.5 L
81 359 L
cp
f
GR
GS
[1 0 0 1 118 322.75] CT
/Times-Roman 20 F
GS
[1 0 0 1 0 0] CT
0 6.5 moveto 
1 -1 scale
(linear) t 
GR
GR
GS
0 0.447 0.741 RC
1 LJ
2 LW
N
85 322.75 M
115 322.75 L
S
GR
GS
[1 0 0 1 118 345.75] CT
/Times-Roman 20 F
GS
[1 0 0 1 0 0] CT
0 6.5 moveto 
1 -1 scale
(non linear) t 
GR
GR
GS
0.851 0.325 0.098 RC
1 LJ
2 LW
N
85 345.75 M
115 345.75 L
S
GR
GS
0.149 GC
10.0 ML
0.5 LW
N
81 359 M
81 309.5 L
203 309.5 L
203 359 L
cp
S
GR
%%Trailer
%%Pages: 1
%%EOF
