%!PS-Adobe-3.0 EPSF-3.0
%%Creator: (MATLAB, The Mathworks, Inc. Version 9.13.0.2049777 \(R2022b\). Operating System: Mac OS X)
%%Title: ../../Figure/Q2/theta_50.eps
%%CreationDate: 2023-01-24T22:33:53
%%Pages: (atend)
%%BoundingBox:    13     2   519   395
%%LanguageLevel: 3
%%EndComments
%%BeginProlog
%%BeginResource: procset (Apache XML Graphics Std ProcSet) 1.2 0
%%Version: 1.2 0
%%Copyright: (Copyright 2001-2003,2010 The Apache Software Foundation. License terms: http://www.apache.org/licenses/LICENSE-2.0)
/bd{bind def}bind def
/ld{load def}bd
/GR/grestore ld
/GS/gsave ld
/RM/rmoveto ld
/C/curveto ld
/t/show ld
/L/lineto ld
/ML/setmiterlimit ld
/CT/concat ld
/f/fill ld
/N/newpath ld
/S/stroke ld
/CC/setcmykcolor ld
/A/ashow ld
/cp/closepath ld
/RC/setrgbcolor ld
/LJ/setlinejoin ld
/GC/setgray ld
/LW/setlinewidth ld
/M/moveto ld
/re {4 2 roll M
1 index 0 rlineto
0 exch rlineto
neg 0 rlineto
cp } bd
/_ctm matrix def
/_tm matrix def
/BT { _ctm currentmatrix pop matrix _tm copy pop 0 0 moveto } bd
/ET { _ctm setmatrix } bd
/iTm { _ctm setmatrix _tm concat } bd
/Tm { _tm astore pop iTm 0 0 moveto } bd
/ux 0.0 def
/uy 0.0 def
/F {
  /Tp exch def
  /Tf exch def
  Tf findfont Tp scalefont setfont
  /cf Tf def  /cs Tp def
} bd
/ULS {currentpoint /uy exch def /ux exch def} bd
/ULE {
  /Tcx currentpoint pop def
  gsave
  newpath
  cf findfont cs scalefont dup
  /FontMatrix get 0 get /Ts exch def /FontInfo get dup
  /UnderlinePosition get Ts mul /To exch def
  /UnderlineThickness get Ts mul /Tt exch def
  ux uy To add moveto  Tcx uy To add lineto
  Tt setlinewidth stroke
  grestore
} bd
/OLE {
  /Tcx currentpoint pop def
  gsave
  newpath
  cf findfont cs scalefont dup
  /FontMatrix get 0 get /Ts exch def /FontInfo get dup
  /UnderlinePosition get Ts mul /To exch def
  /UnderlineThickness get Ts mul /Tt exch def
  ux uy To add cs add moveto Tcx uy To add cs add lineto
  Tt setlinewidth stroke
  grestore
} bd
/SOE {
  /Tcx currentpoint pop def
  gsave
  newpath
  cf findfont cs scalefont dup
  /FontMatrix get 0 get /Ts exch def /FontInfo get dup
  /UnderlinePosition get Ts mul /To exch def
  /UnderlineThickness get Ts mul /Tt exch def
  ux uy To add cs 10 mul 26 idiv add moveto Tcx uy To add cs 10 mul 26 idiv add lineto
  Tt setlinewidth stroke
  grestore
} bd
/QT {
/Y22 exch store
/X22 exch store
/Y21 exch store
/X21 exch store
currentpoint
/Y21 load 2 mul add 3 div exch
/X21 load 2 mul add 3 div exch
/X21 load 2 mul /X22 load add 3 div
/Y21 load 2 mul /Y22 load add 3 div
/X22 load /Y22 load curveto
} bd
/SSPD {
dup length /d exch dict def
{
/v exch def
/k exch def
currentpagedevice k known {
/cpdv currentpagedevice k get def
v cpdv ne {
/upd false def
/nullv v type /nulltype eq def
/nullcpdv cpdv type /nulltype eq def
nullv nullcpdv or
{
/upd true def
} {
/sametype v type cpdv type eq def
sametype {
v type /arraytype eq {
/vlen v length def
/cpdvlen cpdv length def
vlen cpdvlen eq {
0 1 vlen 1 sub {
/i exch def
/obj v i get def
/cpdobj cpdv i get def
obj cpdobj ne {
/upd true def
exit
} if
} for
} {
/upd true def
} ifelse
} {
v type /dicttype eq {
v {
/dv exch def
/dk exch def
/cpddv cpdv dk get def
dv cpddv ne {
/upd true def
exit
} if
} forall
} {
/upd true def
} ifelse
} ifelse
} if
} ifelse
upd true eq {
d k v put
} if
} if
} if
} forall
d length 0 gt {
d setpagedevice
} if
} bd
/RE { % /NewFontName [NewEncodingArray] /FontName RE -
  findfont dup length dict begin
  {
    1 index /FID ne
    {def} {pop pop} ifelse
  } forall
  /Encoding exch def
  /FontName 1 index def
  currentdict definefont pop
  end
} bind def
%%EndResource
%%BeginResource: procset (Apache XML Graphics EPS ProcSet) 1.0 0
%%Version: 1.0 0
%%Copyright: (Copyright 2002-2003 The Apache Software Foundation. License terms: http://www.apache.org/licenses/LICENSE-2.0)
/BeginEPSF { %def
/b4_Inc_state save def         % Save state for cleanup
/dict_count countdictstack def % Count objects on dict stack
/op_count count 1 sub def      % Count objects on operand stack
userdict begin                 % Push userdict on dict stack
/showpage { } def              % Redefine showpage, { } = null proc
0 setgray 0 setlinecap         % Prepare graphics state
1 setlinewidth 0 setlinejoin
10 setmiterlimit [ ] 0 setdash newpath
/languagelevel where           % If level not equal to 1 then
{pop languagelevel             % set strokeadjust and
1 ne                           % overprint to their defaults.
{false setstrokeadjust false setoverprint
} if
} if
} bd
/EndEPSF { %def
count op_count sub {pop} repeat            % Clean up stacks
countdictstack dict_count sub {end} repeat
b4_Inc_state restore
} bd
%%EndResource
%FOPBeginFontDict
%%IncludeResource: font Courier-Oblique
%%IncludeResource: font Courier-BoldOblique
%%IncludeResource: font Courier-Bold
%%IncludeResource: font ZapfDingbats
%%IncludeResource: font Symbol
%%IncludeResource: font Helvetica
%%IncludeResource: font Helvetica-Oblique
%%IncludeResource: font Helvetica-Bold
%%IncludeResource: font Helvetica-BoldOblique
%%IncludeResource: font Times-Roman
%%IncludeResource: font Times-Italic
%%IncludeResource: font Times-Bold
%%IncludeResource: font Times-BoldItalic
%%IncludeResource: font Courier
%FOPEndFontDict
%%BeginResource: encoding WinAnsiEncoding
/WinAnsiEncoding [
/.notdef /.notdef /.notdef /.notdef /.notdef
/.notdef /.notdef /.notdef /.notdef /.notdef
/.notdef /.notdef /.notdef /.notdef /.notdef
/.notdef /.notdef /.notdef /.notdef /.notdef
/.notdef /.notdef /.notdef /.notdef /.notdef
/.notdef /.notdef /.notdef /.notdef /.notdef
/.notdef /.notdef /space /exclam /quotedbl
/numbersign /dollar /percent /ampersand /quotesingle
/parenleft /parenright /asterisk /plus /comma
/hyphen /period /slash /zero /one
/two /three /four /five /six
/seven /eight /nine /colon /semicolon
/less /equal /greater /question /at
/A /B /C /D /E
/F /G /H /I /J
/K /L /M /N /O
/P /Q /R /S /T
/U /V /W /X /Y
/Z /bracketleft /backslash /bracketright /asciicircum
/underscore /quoteleft /a /b /c
/d /e /f /g /h
/i /j /k /l /m
/n /o /p /q /r
/s /t /u /v /w
/x /y /z /braceleft /bar
/braceright /asciitilde /bullet /Euro /bullet
/quotesinglbase /florin /quotedblbase /ellipsis /dagger
/daggerdbl /circumflex /perthousand /Scaron /guilsinglleft
/OE /bullet /Zcaron /bullet /bullet
/quoteleft /quoteright /quotedblleft /quotedblright /bullet
/endash /emdash /asciitilde /trademark /scaron
/guilsinglright /oe /bullet /zcaron /Ydieresis
/space /exclamdown /cent /sterling /currency
/yen /brokenbar /section /dieresis /copyright
/ordfeminine /guillemotleft /logicalnot /sfthyphen /registered
/macron /degree /plusminus /twosuperior /threesuperior
/acute /mu /paragraph /middot /cedilla
/onesuperior /ordmasculine /guillemotright /onequarter /onehalf
/threequarters /questiondown /Agrave /Aacute /Acircumflex
/Atilde /Adieresis /Aring /AE /Ccedilla
/Egrave /Eacute /Ecircumflex /Edieresis /Igrave
/Iacute /Icircumflex /Idieresis /Eth /Ntilde
/Ograve /Oacute /Ocircumflex /Otilde /Odieresis
/multiply /Oslash /Ugrave /Uacute /Ucircumflex
/Udieresis /Yacute /Thorn /germandbls /agrave
/aacute /acircumflex /atilde /adieresis /aring
/ae /ccedilla /egrave /eacute /ecircumflex
/edieresis /igrave /iacute /icircumflex /idieresis
/eth /ntilde /ograve /oacute /ocircumflex
/otilde /odieresis /divide /oslash /ugrave
/uacute /ucircumflex /udieresis /yacute /thorn
/ydieresis
] def
%%EndResource
%FOPBeginFontReencode
/Courier-Oblique findfont
dup length dict begin
  {1 index /FID ne {def} {pop pop} ifelse} forall
  /Encoding WinAnsiEncoding def
  currentdict
end
/Courier-Oblique exch definefont pop
/Courier-BoldOblique findfont
dup length dict begin
  {1 index /FID ne {def} {pop pop} ifelse} forall
  /Encoding WinAnsiEncoding def
  currentdict
end
/Courier-BoldOblique exch definefont pop
/Courier-Bold findfont
dup length dict begin
  {1 index /FID ne {def} {pop pop} ifelse} forall
  /Encoding WinAnsiEncoding def
  currentdict
end
/Courier-Bold exch definefont pop
/Helvetica findfont
dup length dict begin
  {1 index /FID ne {def} {pop pop} ifelse} forall
  /Encoding WinAnsiEncoding def
  currentdict
end
/Helvetica exch definefont pop
/Helvetica-Oblique findfont
dup length dict begin
  {1 index /FID ne {def} {pop pop} ifelse} forall
  /Encoding WinAnsiEncoding def
  currentdict
end
/Helvetica-Oblique exch definefont pop
/Helvetica-Bold findfont
dup length dict begin
  {1 index /FID ne {def} {pop pop} ifelse} forall
  /Encoding WinAnsiEncoding def
  currentdict
end
/Helvetica-Bold exch definefont pop
/Helvetica-BoldOblique findfont
dup length dict begin
  {1 index /FID ne {def} {pop pop} ifelse} forall
  /Encoding WinAnsiEncoding def
  currentdict
end
/Helvetica-BoldOblique exch definefont pop
/Times-Roman findfont
dup length dict begin
  {1 index /FID ne {def} {pop pop} ifelse} forall
  /Encoding WinAnsiEncoding def
  currentdict
end
/Times-Roman exch definefont pop
/Times-Italic findfont
dup length dict begin
  {1 index /FID ne {def} {pop pop} ifelse} forall
  /Encoding WinAnsiEncoding def
  currentdict
end
/Times-Italic exch definefont pop
/Times-Bold findfont
dup length dict begin
  {1 index /FID ne {def} {pop pop} ifelse} forall
  /Encoding WinAnsiEncoding def
  currentdict
end
/Times-Bold exch definefont pop
/Times-BoldItalic findfont
dup length dict begin
  {1 index /FID ne {def} {pop pop} ifelse} forall
  /Encoding WinAnsiEncoding def
  currentdict
end
/Times-BoldItalic exch definefont pop
/Courier findfont
dup length dict begin
  {1 index /FID ne {def} {pop pop} ifelse} forall
  /Encoding WinAnsiEncoding def
  currentdict
end
/Courier exch definefont pop
%FOPEndFontReencode
%%EndProlog
%%Page: 1 1
%%PageBoundingBox: 0 0 560 420
%%BeginPageSetup
N
   13     2 M
  532     2 L
  532   397 L
   13   397 L
cp
clip
[1 0 0 -1 0 420] CT
%%EndPageSetup
GS
1 GC
N
0 0 560 420 re
f
GR
GS
1 GC
N
0 0 560 420 re
f
GR
GS
1 GC
N
73 367 M
507 367 L
507 31.5 L
73 31.5 L
cp
f
GR
GS
0.149 GC
2 setlinecap
1 LJ
0.5 LW
N
73 367 M
507 367 L
S
GR
GS
0.149 GC
2 setlinecap
1 LJ
0.5 LW
N
73 31.5 M
507 31.5 L
S
GR
GS
0.149 GC
2 setlinecap
1 LJ
0.5 LW
N
73 367 M
73 362.66 L
S
GR
GS
0.149 GC
2 setlinecap
1 LJ
0.5 LW
N
159.8 367 M
159.8 362.66 L
S
GR
GS
0.149 GC
2 setlinecap
1 LJ
0.5 LW
N
246.6 367 M
246.6 362.66 L
S
GR
GS
0.149 GC
2 setlinecap
1 LJ
0.5 LW
N
333.4 367 M
333.4 362.66 L
S
GR
GS
0.149 GC
2 setlinecap
1 LJ
0.5 LW
N
420.2 367 M
420.2 362.66 L
S
GR
GS
0.149 GC
2 setlinecap
1 LJ
0.5 LW
N
507 367 M
507 362.66 L
S
GR
GS
0.149 GC
2 setlinecap
1 LJ
0.5 LW
N
73 31.5 M
73 35.84 L
S
GR
GS
0.149 GC
2 setlinecap
1 LJ
0.5 LW
N
159.8 31.5 M
159.8 35.84 L
S
GR
GS
0.149 GC
2 setlinecap
1 LJ
0.5 LW
N
246.6 31.5 M
246.6 35.84 L
S
GR
GS
0.149 GC
2 setlinecap
1 LJ
0.5 LW
N
333.4 31.5 M
333.4 35.84 L
S
GR
GS
0.149 GC
2 setlinecap
1 LJ
0.5 LW
N
420.2 31.5 M
420.2 35.84 L
S
GR
GS
0.149 GC
2 setlinecap
1 LJ
0.5 LW
N
507 31.5 M
507 35.84 L
S
GR
GS
[1 0 0 1 73 372.20001] CT
0.149 GC
/Times-Roman 16 F
GS
[1 0 0 1 0 0] CT
-4 15 moveto 
1 -1 scale
(0) t 
GR
GR
GS
[1 0 0 1 159.8 372.20001] CT
0.149 GC
/Times-Roman 16 F
GS
[1 0 0 1 0 0] CT
-8 15 moveto 
1 -1 scale
(10) t 
GR
GR
GS
[1 0 0 1 246.60001 372.20001] CT
0.149 GC
/Times-Roman 16 F
GS
[1 0 0 1 0 0] CT
-8 15 moveto 
1 -1 scale
(20) t 
GR
GR
GS
[1 0 0 1 333.39999 372.20001] CT
0.149 GC
/Times-Roman 16 F
GS
[1 0 0 1 0 0] CT
-8 15 moveto 
1 -1 scale
(30) t 
GR
GR
GS
[1 0 0 1 420.20001 372.20001] CT
0.149 GC
/Times-Roman 16 F
GS
[1 0 0 1 0 0] CT
-8 15 moveto 
1 -1 scale
(40) t 
GR
GR
GS
[1 0 0 1 507 372.20001] CT
0.149 GC
/Times-Roman 16 F
GS
[1 0 0 1 0 0] CT
-8 15 moveto 
1 -1 scale
(50) t 
GR
GR
GS
[1 0 0 1 290.00021 391.20001] CT
0.149 GC
N
-52.004 20.16 M
-52.004 19.316 L
-50.801 19.316 -49.668 19.183 QT
-48.535 19.051 -48.535 18.551 QT
-48.535 5.363 L
-48.535 4.847 -48.817 4.73 QT
-49.098 4.613 -49.754 4.613 QT
-50.754 4.613 L
-52.739 4.613 -53.567 5.472 QT
-54.004 5.91 -54.192 6.863 QT
-54.379 7.816 -54.504 9.254 QT
-55.192 9.254 L
-54.739 3.769 L
-40.082 3.769 L
-39.629 9.254 L
-40.332 9.254 L
-40.473 7.707 -40.637 6.801 QT
-40.801 5.894 -41.254 5.472 QT
-42.098 4.613 -44.067 4.613 QT
-45.067 4.613 L
-45.504 4.613 -45.746 4.644 QT
-45.989 4.676 -46.137 4.847 QT
-46.285 5.019 -46.285 5.363 QT
-46.285 18.551 L
-46.285 19.051 -45.153 19.183 QT
-44.02 19.316 -42.817 19.316 QT
-42.817 20.16 L
-52.004 20.16 L
cp
f
GR
GS
[1 0 0 1 290.00021 391.20001] CT
0.149 GC
N
-37.999 20.16 M
-37.999 19.316 L
-37.171 19.316 -36.647 19.183 QT
-36.124 19.051 -36.124 18.551 QT
-36.124 12.004 L
-36.124 11.082 -36.476 10.871 QT
-36.827 10.66 -37.89 10.66 QT
-37.89 9.816 L
-34.436 9.551 L
-34.436 18.551 L
-34.436 19.051 -33.976 19.183 QT
-33.515 19.316 -32.749 19.316 QT
-32.749 20.16 L
-37.999 20.16 L
cp
-36.968 5.426 M
-36.968 4.894 -36.569 4.496 QT
-36.171 4.097 -35.655 4.097 QT
-35.327 4.097 -35.007 4.277 QT
-34.686 4.457 -34.515 4.769 QT
-34.343 5.082 -34.343 5.426 QT
-34.343 5.941 -34.741 6.34 QT
-35.14 6.738 -35.655 6.738 QT
-36.171 6.738 -36.569 6.34 QT
-36.968 5.941 -36.968 5.426 QT
cp
f
GR
GS
[1 0 0 1 290.00021 391.20001] CT
0.149 GC
N
-31.348 20.16 M
-31.348 19.316 L
-30.535 19.316 -30.004 19.183 QT
-29.473 19.051 -29.473 18.551 QT
-29.473 12.004 L
-29.473 11.363 -29.668 11.074 QT
-29.864 10.785 -30.223 10.722 QT
-30.582 10.66 -31.348 10.66 QT
-31.348 9.816 L
-27.864 9.551 L
-27.864 11.894 L
-27.395 10.863 -26.449 10.207 QT
-25.504 9.551 -24.395 9.551 QT
-21.629 9.551 -21.145 11.801 QT
-20.66 10.801 -19.739 10.176 QT
-18.817 9.551 -17.707 9.551 QT
-16.614 9.551 -15.871 9.902 QT
-15.129 10.254 -14.754 10.972 QT
-14.379 11.691 -14.379 12.785 QT
-14.379 18.551 L
-14.379 19.051 -13.848 19.183 QT
-13.317 19.316 -12.504 19.316 QT
-12.504 20.16 L
-18.004 20.16 L
-18.004 19.316 L
-17.176 19.316 -16.653 19.183 QT
-16.129 19.051 -16.129 18.551 QT
-16.129 12.863 L
-16.129 11.644 -16.465 10.91 QT
-16.801 10.176 -17.864 10.176 QT
-19.239 10.176 -20.145 11.285 QT
-21.051 12.394 -21.051 13.816 QT
-21.051 18.551 L
-21.051 19.051 -20.52 19.183 QT
-19.989 19.316 -19.176 19.316 QT
-19.176 20.16 L
-24.676 20.16 L
-24.676 19.316 L
-23.848 19.316 -23.324 19.183 QT
-22.801 19.051 -22.801 18.551 QT
-22.801 12.863 L
-22.801 11.691 -23.137 10.933 QT
-23.473 10.176 -24.535 10.176 QT
-25.926 10.176 -26.824 11.285 QT
-27.723 12.394 -27.723 13.816 QT
-27.723 18.551 L
-27.723 19.051 -27.192 19.183 QT
-26.66 19.316 -25.848 19.316 QT
-25.848 20.16 L
-31.348 20.16 L
cp
f
GR
GS
[1 0 0 1 290.00021 391.20001] CT
0.149 GC
N
-6.082 20.426 M
-7.551 20.426 -8.778 19.66 QT
-10.004 18.894 -10.699 17.613 QT
-11.395 16.332 -11.395 14.894 QT
-11.395 13.488 -10.754 12.222 QT
-10.113 10.957 -8.973 10.176 QT
-7.832 9.394 -6.426 9.394 QT
-5.332 9.394 -4.512 9.769 QT
-3.692 10.144 -3.168 10.801 QT
-2.645 11.457 -2.371 12.347 QT
-2.098 13.238 -2.098 14.301 QT
-2.098 14.613 -2.348 14.613 QT
-9.301 14.613 L
-9.301 14.879 L
-9.301 16.863 -8.496 18.293 QT
-7.692 19.722 -5.879 19.722 QT
-5.145 19.722 -4.512 19.394 QT
-3.879 19.066 -3.418 18.48 QT
-2.957 17.894 -2.801 17.222 QT
-2.77 17.144 -2.707 17.082 QT
-2.645 17.019 -2.567 17.019 QT
-2.348 17.019 L
-2.098 17.019 -2.098 17.316 QT
-2.442 18.676 -3.567 19.551 QT
-4.692 20.426 -6.082 20.426 QT
cp
-9.27 14.019 M
-3.801 14.019 L
-3.801 13.113 -4.051 12.191 QT
-4.301 11.269 -4.887 10.652 QT
-5.473 10.035 -6.426 10.035 QT
-7.785 10.035 -8.528 11.308 QT
-9.27 12.582 -9.27 14.019 QT
cp
f
GR
GS
[1 0 0 1 290.00021 391.20001] CT
0.149 GC
N
14.038 26.113 M
12.709 25.066 11.741 23.699 QT
10.772 22.332 10.155 20.785 QT
9.538 19.238 9.233 17.551 QT
8.928 15.863 8.928 14.16 QT
8.928 12.441 9.233 10.754 QT
9.538 9.066 10.17 7.504 QT
10.803 5.941 11.772 4.582 QT
12.741 3.222 14.038 2.207 QT
14.038 2.16 14.163 2.16 QT
14.381 2.16 L
14.459 2.16 14.514 2.222 QT
14.569 2.285 14.569 2.363 QT
14.569 2.472 14.522 2.519 QT
13.35 3.676 12.569 4.988 QT
11.788 6.301 11.319 7.777 QT
10.85 9.254 10.639 10.847 QT
10.428 12.441 10.428 14.16 QT
10.428 21.785 14.506 25.754 QT
14.569 25.816 14.569 25.957 QT
14.569 26.004 14.506 26.082 QT
14.444 26.16 14.381 26.16 QT
14.163 26.16 L
14.038 26.16 14.038 26.113 QT
cp
f
GR
GS
[1 0 0 1 290.00021 391.20001] CT
0.149 GC
N
16.73 20.238 M
16.73 16.316 L
16.73 16.129 16.949 16.129 QT
17.23 16.129 L
17.371 16.129 17.418 16.316 QT
18.09 19.801 20.652 19.801 QT
21.793 19.801 22.558 19.285 QT
23.324 18.769 23.324 17.691 QT
23.324 16.91 22.73 16.363 QT
22.137 15.816 21.308 15.629 QT
19.715 15.301 L
18.902 15.129 18.238 14.769 QT
17.574 14.41 17.152 13.801 QT
16.73 13.191 16.73 12.394 QT
16.73 11.347 17.285 10.676 QT
17.84 10.004 18.73 9.699 QT
19.621 9.394 20.652 9.394 QT
21.887 9.394 22.808 10.051 QT
23.496 9.457 L
23.496 9.394 23.605 9.394 QT
23.793 9.394 L
23.855 9.394 23.918 9.465 QT
23.98 9.535 23.98 9.597 QT
23.98 12.738 L
23.98 12.957 23.793 12.957 QT
23.496 12.957 L
23.277 12.957 23.277 12.738 QT
23.277 11.488 22.582 10.722 QT
21.887 9.957 20.637 9.957 QT
19.558 9.957 18.769 10.355 QT
17.98 10.754 17.98 11.738 QT
17.98 12.394 18.543 12.824 QT
19.105 13.254 19.871 13.441 QT
21.496 13.754 L
22.324 13.941 23.035 14.386 QT
23.746 14.832 24.16 15.511 QT
24.574 16.191 24.574 17.035 QT
24.574 17.91 24.277 18.551 QT
23.98 19.191 23.441 19.613 QT
22.902 20.035 22.176 20.23 QT
21.449 20.426 20.652 20.426 QT
19.152 20.426 18.09 19.426 QT
17.215 20.379 L
17.215 20.426 17.09 20.426 QT
16.949 20.426 L
16.73 20.426 16.73 20.238 QT
cp
f
GR
GS
[1 0 0 1 290.00021 391.20001] CT
0.149 GC
N
31.384 20.426 M
29.916 20.426 28.689 19.66 QT
27.463 18.894 26.767 17.613 QT
26.072 16.332 26.072 14.894 QT
26.072 13.488 26.713 12.222 QT
27.353 10.957 28.494 10.176 QT
29.634 9.394 31.041 9.394 QT
32.134 9.394 32.955 9.769 QT
33.775 10.144 34.299 10.801 QT
34.822 11.457 35.095 12.347 QT
35.369 13.238 35.369 14.301 QT
35.369 14.613 35.119 14.613 QT
28.166 14.613 L
28.166 14.879 L
28.166 16.863 28.97 18.293 QT
29.775 19.722 31.588 19.722 QT
32.322 19.722 32.955 19.394 QT
33.588 19.066 34.049 18.48 QT
34.509 17.894 34.666 17.222 QT
34.697 17.144 34.759 17.082 QT
34.822 17.019 34.9 17.019 QT
35.119 17.019 L
35.369 17.019 35.369 17.316 QT
35.025 18.676 33.9 19.551 QT
32.775 20.426 31.384 20.426 QT
cp
28.197 14.019 M
33.666 14.019 L
33.666 13.113 33.416 12.191 QT
33.166 11.269 32.58 10.652 QT
31.994 10.035 31.041 10.035 QT
29.681 10.035 28.939 11.308 QT
28.197 12.582 28.197 14.019 QT
cp
f
GR
GS
[1 0 0 1 290.00021 391.20001] CT
0.149 GC
N
42.051 20.426 M
40.598 20.426 39.41 19.668 QT
38.223 18.91 37.543 17.652 QT
36.864 16.394 36.864 14.972 QT
36.864 13.566 37.535 12.261 QT
38.207 10.957 39.403 10.176 QT
40.598 9.394 42.051 9.394 QT
43.457 9.394 44.606 9.949 QT
45.754 10.504 45.754 11.754 QT
45.754 12.222 45.426 12.566 QT
45.098 12.91 44.614 12.91 QT
44.129 12.91 43.793 12.566 QT
43.457 12.222 43.457 11.754 QT
43.457 11.332 43.731 11.019 QT
44.004 10.707 44.395 10.629 QT
43.567 10.097 42.067 10.097 QT
40.926 10.097 40.223 10.863 QT
39.52 11.629 39.239 12.754 QT
38.957 13.879 38.957 14.972 QT
38.957 16.144 39.301 17.222 QT
39.645 18.301 40.41 19.011 QT
41.176 19.722 42.332 19.722 QT
43.473 19.722 44.27 19.027 QT
45.067 18.332 45.364 17.207 QT
45.364 17.066 45.551 17.066 QT
45.848 17.066 L
45.91 17.066 45.973 17.129 QT
46.035 17.191 46.035 17.269 QT
46.035 17.347 L
45.66 18.769 44.582 19.597 QT
43.504 20.426 42.051 20.426 QT
cp
f
GR
GS
[1 0 0 1 290.00021 391.20001] CT
0.149 GC
N
48.296 26.16 M
48.077 26.16 48.077 25.957 QT
48.077 25.847 48.124 25.801 QT
52.233 21.785 52.233 14.16 QT
52.233 6.535 48.171 2.566 QT
48.077 2.504 48.077 2.363 QT
48.077 2.285 48.147 2.222 QT
48.218 2.16 48.296 2.16 QT
48.515 2.16 L
48.593 2.16 48.64 2.207 QT
50.358 3.566 51.507 5.511 QT
52.655 7.457 53.187 9.66 QT
53.718 11.863 53.718 14.16 QT
53.718 15.863 53.429 17.504 QT
53.14 19.144 52.515 20.746 QT
51.89 22.347 50.929 23.707 QT
49.968 25.066 48.64 26.113 QT
48.593 26.16 48.515 26.16 QT
48.296 26.16 L
cp
f
GR
GS
0.149 GC
2 setlinecap
1 LJ
0.5 LW
N
73 367 M
73 31.5 L
S
GR
GS
0.149 GC
2 setlinecap
1 LJ
0.5 LW
N
507 367 M
507 31.5 L
S
GR
GS
0.149 GC
2 setlinecap
1 LJ
0.5 LW
N
73 367 M
77.34 367 L
S
GR
GS
0.149 GC
2 setlinecap
1 LJ
0.5 LW
N
73 333.45 M
77.34 333.45 L
S
GR
GS
0.149 GC
2 setlinecap
1 LJ
0.5 LW
N
73 299.9 M
77.34 299.9 L
S
GR
GS
0.149 GC
2 setlinecap
1 LJ
0.5 LW
N
73 266.35 M
77.34 266.35 L
S
GR
GS
0.149 GC
2 setlinecap
1 LJ
0.5 LW
N
73 232.8 M
77.34 232.8 L
S
GR
GS
0.149 GC
2 setlinecap
1 LJ
0.5 LW
N
73 199.25 M
77.34 199.25 L
S
GR
GS
0.149 GC
2 setlinecap
1 LJ
0.5 LW
N
73 165.7 M
77.34 165.7 L
S
GR
GS
0.149 GC
2 setlinecap
1 LJ
0.5 LW
N
73 132.15 M
77.34 132.15 L
S
GR
GS
0.149 GC
2 setlinecap
1 LJ
0.5 LW
N
73 98.6 M
77.34 98.6 L
S
GR
GS
0.149 GC
2 setlinecap
1 LJ
0.5 LW
N
73 65.05 M
77.34 65.05 L
S
GR
GS
0.149 GC
2 setlinecap
1 LJ
0.5 LW
N
73 31.5 M
77.34 31.5 L
S
GR
GS
0.149 GC
2 setlinecap
1 LJ
0.5 LW
N
507 367 M
502.66 367 L
S
GR
GS
0.149 GC
2 setlinecap
1 LJ
0.5 LW
N
507 333.45 M
502.66 333.45 L
S
GR
GS
0.149 GC
2 setlinecap
1 LJ
0.5 LW
N
507 299.9 M
502.66 299.9 L
S
GR
GS
0.149 GC
2 setlinecap
1 LJ
0.5 LW
N
507 266.35 M
502.66 266.35 L
S
GR
GS
0.149 GC
2 setlinecap
1 LJ
0.5 LW
N
507 232.8 M
502.66 232.8 L
S
GR
GS
0.149 GC
2 setlinecap
1 LJ
0.5 LW
N
507 199.25 M
502.66 199.25 L
S
GR
GS
0.149 GC
2 setlinecap
1 LJ
0.5 LW
N
507 165.7 M
502.66 165.7 L
S
GR
GS
0.149 GC
2 setlinecap
1 LJ
0.5 LW
N
507 132.15 M
502.66 132.15 L
S
GR
GS
0.149 GC
2 setlinecap
1 LJ
0.5 LW
N
507 98.6 M
502.66 98.6 L
S
GR
GS
0.149 GC
2 setlinecap
1 LJ
0.5 LW
N
507 65.05 M
502.66 65.05 L
S
GR
GS
0.149 GC
2 setlinecap
1 LJ
0.5 LW
N
507 31.5 M
502.66 31.5 L
S
GR
GS
[1 0 0 1 67.8 367] CT
0.149 GC
/Times-Roman 16 F
GS
[1 0 0 1 0 0] CT
-14 5.5 moveto 
1 -1 scale
(-2) t 
GR
GR
GS
[1 0 0 1 67.8 333.45001] CT
0.149 GC
/Times-Roman 16 F
GS
[1 0 0 1 0 0] CT
-26 5.5 moveto 
1 -1 scale
(-1.5) t 
GR
GR
GS
[1 0 0 1 67.8 299.89999] CT
0.149 GC
/Times-Roman 16 F
GS
[1 0 0 1 0 0] CT
-14 5.5 moveto 
1 -1 scale
(-1) t 
GR
GR
GS
[1 0 0 1 67.8 266.35001] CT
0.149 GC
/Times-Roman 16 F
GS
[1 0 0 1 0 0] CT
-26 5.5 moveto 
1 -1 scale
(-0.5) t 
GR
GR
GS
[1 0 0 1 67.8 232.8] CT
0.149 GC
/Times-Roman 16 F
GS
[1 0 0 1 0 0] CT
-8 5.5 moveto 
1 -1 scale
(0) t 
GR
GR
GS
[1 0 0 1 67.8 199.25] CT
0.149 GC
/Times-Roman 16 F
GS
[1 0 0 1 0 0] CT
-20 5.5 moveto 
1 -1 scale
(0.5) t 
GR
GR
GS
[1 0 0 1 67.8 165.7] CT
0.149 GC
/Times-Roman 16 F
GS
[1 0 0 1 0 0] CT
-8 5.5 moveto 
1 -1 scale
(1) t 
GR
GR
GS
[1 0 0 1 67.8 132.14999] CT
0.149 GC
/Times-Roman 16 F
GS
[1 0 0 1 0 0] CT
-20 5.5 moveto 
1 -1 scale
(1.5) t 
GR
GR
GS
[1 0 0 1 67.8 98.6] CT
0.149 GC
/Times-Roman 16 F
GS
[1 0 0 1 0 0] CT
-8 5.5 moveto 
1 -1 scale
(2) t 
GR
GR
GS
[1 0 0 1 67.8 65.05] CT
0.149 GC
/Times-Roman 16 F
GS
[1 0 0 1 0 0] CT
-20 5.5 moveto 
1 -1 scale
(2.5) t 
GR
GR
GS
[1 0 0 1 67.8 31.5] CT
0.149 GC
/Times-Roman 16 F
GS
[1 0 0 1 0 0] CT
-8 5.5 moveto 
1 -1 scale
(3) t 
GR
GR
GS
[0 -1 1 0 39.3 199.24985] CT
0.149 GC
N
-6.892 -8.374 M
-7.985 -8.374 -8.642 -9.171 QT
-9.298 -9.968 -9.548 -11.093 QT
-9.798 -12.218 -9.798 -13.312 QT
-9.798 -13.343 L
-9.798 -14.531 -9.571 -15.82 QT
-9.345 -17.109 -8.915 -18.398 QT
-8.485 -19.687 -7.97 -20.687 QT
-7.626 -21.39 -7.071 -22.257 QT
-6.517 -23.124 -5.829 -23.882 QT
-5.142 -24.64 -4.353 -25.101 QT
-3.564 -25.562 -2.751 -25.562 QT
-2.72 -25.562 L
-1.86 -25.562 -1.282 -25.085 QT
-0.704 -24.609 -0.376 -23.859 QT
-0.048 -23.109 0.077 -22.249 QT
0.202 -21.39 0.202 -20.624 QT
0.202 -18.796 -0.29 -16.906 QT
-0.782 -15.015 -1.642 -13.249 QT
-1.97 -12.578 -2.556 -11.679 QT
-3.142 -10.781 -3.79 -10.062 QT
-4.439 -9.343 -5.243 -8.859 QT
-6.048 -8.374 -6.876 -8.374 QT
-6.892 -8.374 L
cp
-6.845 -8.999 M
-6.048 -8.999 -5.321 -9.851 QT
-4.595 -10.703 -4.04 -11.914 QT
-3.485 -13.124 -3.071 -14.398 QT
-2.657 -15.671 -2.454 -16.562 QT
-7.36 -16.562 L
-7.735 -15.046 -7.946 -13.953 QT
-8.157 -12.859 -8.157 -11.812 QT
-8.157 -8.999 -6.845 -8.999 QT
cp
-7.173 -17.406 M
-2.251 -17.406 L
-1.985 -18.468 -1.837 -19.171 QT
-1.689 -19.874 -1.579 -20.664 QT
-1.47 -21.453 -1.47 -22.124 QT
-1.47 -24.937 -2.751 -24.937 QT
-4.267 -24.937 -5.376 -22.484 QT
-6.485 -20.031 -7.173 -17.406 QT
cp
f
GR
GS
[0 -1 1 0 39.3 199.24985] CT
0.149 GC
N
5.417 -18.303 M
4.542 -18.303 3.776 -18.748 QT
3.01 -19.193 2.565 -19.967 QT
2.12 -20.74 2.12 -21.6 QT
2.12 -22.459 2.565 -23.232 QT
3.01 -24.006 3.776 -24.451 QT
4.542 -24.896 5.417 -24.896 QT
6.292 -24.896 7.049 -24.451 QT
7.807 -24.006 8.253 -23.232 QT
8.698 -22.459 8.698 -21.6 QT
8.698 -20.74 8.253 -19.967 QT
7.807 -19.193 7.049 -18.748 QT
6.292 -18.303 5.417 -18.303 QT
cp
5.417 -18.99 M
6.479 -18.99 7.245 -19.764 QT
8.01 -20.537 8.01 -21.6 QT
8.01 -22.287 7.659 -22.896 QT
7.307 -23.506 6.714 -23.857 QT
6.12 -24.209 5.417 -24.209 QT
4.901 -24.209 4.424 -24.006 QT
3.948 -23.803 3.573 -23.435 QT
3.198 -23.068 3.003 -22.592 QT
2.807 -22.115 2.807 -21.6 QT
2.807 -20.537 3.573 -19.764 QT
4.339 -18.99 5.417 -18.99 QT
cp
f
GR
GS
0 0.447 0.741 RC
1 LJ
2 LW
N
73 290.317 M
81.68 285.163 L
90.36 280.031 L
99.04 274.921 L
107.72 269.835 L
116.4 264.771 L
125.08 259.73 L
133.76 254.712 L
142.44 249.717 L
151.12 244.746 L
159.8 239.798 L
168.48 234.874 L
177.16 229.974 L
185.84 225.098 L
194.52 220.245 L
203.2 215.417 L
211.88 210.612 L
220.56 205.832 L
229.24 201.077 L
237.92 196.345 L
246.6 191.639 L
255.28 186.956 L
263.96 182.299 L
272.64 177.666 L
281.32 173.057 L
290 168.474 L
298.68 163.915 L
307.36 159.381 L
316.04 154.872 L
324.72 150.388 L
333.4 145.929 L
342.08 141.495 L
350.76 137.085 L
359.44 132.701 L
368.12 128.342 L
376.8 124.008 L
385.48 119.699 L
394.16 115.415 L
402.84 111.156 L
411.52 106.923 L
420.2 102.714 L
428.88 98.53 L
437.56 94.372 L
446.24 90.238 L
454.92 86.129 L
463.6 82.046 L
472.28 77.987 L
480.96 73.954 L
489.64 69.945 L
498.32 65.961 L
507 62.003 L
S
GR
GS
0.851 0.325 0.098 RC
1 LJ
2 LW
N
73 290.317 M
81.68 290.798 L
90.36 291.303 L
99.04 291.832 L
107.72 292.385 L
116.4 292.962 L
125.08 293.563 L
133.76 294.188 L
142.44 294.838 L
151.12 295.513 L
159.8 296.213 L
168.48 296.938 L
177.16 297.688 L
185.84 298.463 L
194.52 299.264 L
203.2 300.091 L
211.88 300.943 L
220.56 301.822 L
229.24 302.726 L
237.92 303.656 L
246.6 304.612 L
255.28 305.595 L
263.96 306.604 L
272.64 307.64 L
281.32 308.702 L
290 309.791 L
298.68 310.906 L
307.36 312.048 L
316.04 313.217 L
324.72 314.413 L
333.4 315.636 L
342.08 316.886 L
350.76 318.164 L
359.44 319.468 L
368.12 320.799 L
376.8 322.158 L
385.48 323.544 L
394.16 324.957 L
402.84 326.398 L
411.52 327.866 L
420.2 329.362 L
428.88 330.885 L
437.56 332.435 L
446.24 334.013 L
454.92 335.618 L
463.6 337.251 L
472.28 338.912 L
480.96 340.6 L
489.64 342.316 L
498.32 344.059 L
507 345.829 L
S
GR
GS
1 GC
N
203 89 M
203 39.5 L
81 39.5 L
81 89 L
cp
f
GR
GS
[1 0 0 1 118 52.75] CT
/Times-Roman 20 F
GS
[1 0 0 1 0 0] CT
0 6.5 moveto 
1 -1 scale
(linear) t 
GR
GR
GS
0 0.447 0.741 RC
1 LJ
2 LW
N
85 52.75 M
115 52.75 L
S
GR
GS
[1 0 0 1 118 75.75] CT
/Times-Roman 20 F
GS
[1 0 0 1 0 0] CT
0 6.5 moveto 
1 -1 scale
(non linear) t 
GR
GR
GS
0.851 0.325 0.098 RC
1 LJ
2 LW
N
85 75.75 M
115 75.75 L
S
GR
GS
0.149 GC
10.0 ML
0.5 LW
N
81 89 M
81 39.5 L
203 39.5 L
203 89 L
cp
S
GR
%%Trailer
%%Pages: 1
%%EOF
