%!PS-Adobe-3.0 EPSF-3.0
%%Creator: (MATLAB, The Mathworks, Inc. Version 9.13.0.2049777 \(R2022b\). Operating System: Mac OS X)
%%Title: ../../Figure/Q2/theta_1000.eps
%%CreationDate: 2023-01-24T21:49:49
%%Pages: (atend)
%%BoundingBox:    17     2   531   395
%%LanguageLevel: 3
%%EndComments
%%BeginProlog
%%BeginResource: procset (Apache XML Graphics Std ProcSet) 1.2 0
%%Version: 1.2 0
%%Copyright: (Copyright 2001-2003,2010 The Apache Software Foundation. License terms: http://www.apache.org/licenses/LICENSE-2.0)
/bd{bind def}bind def
/ld{load def}bd
/GR/grestore ld
/GS/gsave ld
/RM/rmoveto ld
/C/curveto ld
/t/show ld
/L/lineto ld
/ML/setmiterlimit ld
/CT/concat ld
/f/fill ld
/N/newpath ld
/S/stroke ld
/CC/setcmykcolor ld
/A/ashow ld
/cp/closepath ld
/RC/setrgbcolor ld
/LJ/setlinejoin ld
/GC/setgray ld
/LW/setlinewidth ld
/M/moveto ld
/re {4 2 roll M
1 index 0 rlineto
0 exch rlineto
neg 0 rlineto
cp } bd
/_ctm matrix def
/_tm matrix def
/BT { _ctm currentmatrix pop matrix _tm copy pop 0 0 moveto } bd
/ET { _ctm setmatrix } bd
/iTm { _ctm setmatrix _tm concat } bd
/Tm { _tm astore pop iTm 0 0 moveto } bd
/ux 0.0 def
/uy 0.0 def
/F {
  /Tp exch def
  /Tf exch def
  Tf findfont Tp scalefont setfont
  /cf Tf def  /cs Tp def
} bd
/ULS {currentpoint /uy exch def /ux exch def} bd
/ULE {
  /Tcx currentpoint pop def
  gsave
  newpath
  cf findfont cs scalefont dup
  /FontMatrix get 0 get /Ts exch def /FontInfo get dup
  /UnderlinePosition get Ts mul /To exch def
  /UnderlineThickness get Ts mul /Tt exch def
  ux uy To add moveto  Tcx uy To add lineto
  Tt setlinewidth stroke
  grestore
} bd
/OLE {
  /Tcx currentpoint pop def
  gsave
  newpath
  cf findfont cs scalefont dup
  /FontMatrix get 0 get /Ts exch def /FontInfo get dup
  /UnderlinePosition get Ts mul /To exch def
  /UnderlineThickness get Ts mul /Tt exch def
  ux uy To add cs add moveto Tcx uy To add cs add lineto
  Tt setlinewidth stroke
  grestore
} bd
/SOE {
  /Tcx currentpoint pop def
  gsave
  newpath
  cf findfont cs scalefont dup
  /FontMatrix get 0 get /Ts exch def /FontInfo get dup
  /UnderlinePosition get Ts mul /To exch def
  /UnderlineThickness get Ts mul /Tt exch def
  ux uy To add cs 10 mul 26 idiv add moveto Tcx uy To add cs 10 mul 26 idiv add lineto
  Tt setlinewidth stroke
  grestore
} bd
/QT {
/Y22 exch store
/X22 exch store
/Y21 exch store
/X21 exch store
currentpoint
/Y21 load 2 mul add 3 div exch
/X21 load 2 mul add 3 div exch
/X21 load 2 mul /X22 load add 3 div
/Y21 load 2 mul /Y22 load add 3 div
/X22 load /Y22 load curveto
} bd
/SSPD {
dup length /d exch dict def
{
/v exch def
/k exch def
currentpagedevice k known {
/cpdv currentpagedevice k get def
v cpdv ne {
/upd false def
/nullv v type /nulltype eq def
/nullcpdv cpdv type /nulltype eq def
nullv nullcpdv or
{
/upd true def
} {
/sametype v type cpdv type eq def
sametype {
v type /arraytype eq {
/vlen v length def
/cpdvlen cpdv length def
vlen cpdvlen eq {
0 1 vlen 1 sub {
/i exch def
/obj v i get def
/cpdobj cpdv i get def
obj cpdobj ne {
/upd true def
exit
} if
} for
} {
/upd true def
} ifelse
} {
v type /dicttype eq {
v {
/dv exch def
/dk exch def
/cpddv cpdv dk get def
dv cpddv ne {
/upd true def
exit
} if
} forall
} {
/upd true def
} ifelse
} ifelse
} if
} ifelse
upd true eq {
d k v put
} if
} if
} if
} forall
d length 0 gt {
d setpagedevice
} if
} bd
/RE { % /NewFontName [NewEncodingArray] /FontName RE -
  findfont dup length dict begin
  {
    1 index /FID ne
    {def} {pop pop} ifelse
  } forall
  /Encoding exch def
  /FontName 1 index def
  currentdict definefont pop
  end
} bind def
%%EndResource
%%BeginResource: procset (Apache XML Graphics EPS ProcSet) 1.0 0
%%Version: 1.0 0
%%Copyright: (Copyright 2002-2003 The Apache Software Foundation. License terms: http://www.apache.org/licenses/LICENSE-2.0)
/BeginEPSF { %def
/b4_Inc_state save def         % Save state for cleanup
/dict_count countdictstack def % Count objects on dict stack
/op_count count 1 sub def      % Count objects on operand stack
userdict begin                 % Push userdict on dict stack
/showpage { } def              % Redefine showpage, { } = null proc
0 setgray 0 setlinecap         % Prepare graphics state
1 setlinewidth 0 setlinejoin
10 setmiterlimit [ ] 0 setdash newpath
/languagelevel where           % If level not equal to 1 then
{pop languagelevel             % set strokeadjust and
1 ne                           % overprint to their defaults.
{false setstrokeadjust false setoverprint
} if
} if
} bd
/EndEPSF { %def
count op_count sub {pop} repeat            % Clean up stacks
countdictstack dict_count sub {end} repeat
b4_Inc_state restore
} bd
%%EndResource
%FOPBeginFontDict
%%IncludeResource: font Courier-Oblique
%%IncludeResource: font Courier-BoldOblique
%%IncludeResource: font Courier-Bold
%%IncludeResource: font ZapfDingbats
%%IncludeResource: font Symbol
%%IncludeResource: font Helvetica
%%IncludeResource: font Helvetica-Oblique
%%IncludeResource: font Helvetica-Bold
%%IncludeResource: font Helvetica-BoldOblique
%%IncludeResource: font Times-Roman
%%IncludeResource: font Times-Italic
%%IncludeResource: font Times-Bold
%%IncludeResource: font Times-BoldItalic
%%IncludeResource: font Courier
%FOPEndFontDict
%%BeginResource: encoding WinAnsiEncoding
/WinAnsiEncoding [
/.notdef /.notdef /.notdef /.notdef /.notdef
/.notdef /.notdef /.notdef /.notdef /.notdef
/.notdef /.notdef /.notdef /.notdef /.notdef
/.notdef /.notdef /.notdef /.notdef /.notdef
/.notdef /.notdef /.notdef /.notdef /.notdef
/.notdef /.notdef /.notdef /.notdef /.notdef
/.notdef /.notdef /space /exclam /quotedbl
/numbersign /dollar /percent /ampersand /quotesingle
/parenleft /parenright /asterisk /plus /comma
/hyphen /period /slash /zero /one
/two /three /four /five /six
/seven /eight /nine /colon /semicolon
/less /equal /greater /question /at
/A /B /C /D /E
/F /G /H /I /J
/K /L /M /N /O
/P /Q /R /S /T
/U /V /W /X /Y
/Z /bracketleft /backslash /bracketright /asciicircum
/underscore /quoteleft /a /b /c
/d /e /f /g /h
/i /j /k /l /m
/n /o /p /q /r
/s /t /u /v /w
/x /y /z /braceleft /bar
/braceright /asciitilde /bullet /Euro /bullet
/quotesinglbase /florin /quotedblbase /ellipsis /dagger
/daggerdbl /circumflex /perthousand /Scaron /guilsinglleft
/OE /bullet /Zcaron /bullet /bullet
/quoteleft /quoteright /quotedblleft /quotedblright /bullet
/endash /emdash /asciitilde /trademark /scaron
/guilsinglright /oe /bullet /zcaron /Ydieresis
/space /exclamdown /cent /sterling /currency
/yen /brokenbar /section /dieresis /copyright
/ordfeminine /guillemotleft /logicalnot /sfthyphen /registered
/macron /degree /plusminus /twosuperior /threesuperior
/acute /mu /paragraph /middot /cedilla
/onesuperior /ordmasculine /guillemotright /onequarter /onehalf
/threequarters /questiondown /Agrave /Aacute /Acircumflex
/Atilde /Adieresis /Aring /AE /Ccedilla
/Egrave /Eacute /Ecircumflex /Edieresis /Igrave
/Iacute /Icircumflex /Idieresis /Eth /Ntilde
/Ograve /Oacute /Ocircumflex /Otilde /Odieresis
/multiply /Oslash /Ugrave /Uacute /Ucircumflex
/Udieresis /Yacute /Thorn /germandbls /agrave
/aacute /acircumflex /atilde /adieresis /aring
/ae /ccedilla /egrave /eacute /ecircumflex
/edieresis /igrave /iacute /icircumflex /idieresis
/eth /ntilde /ograve /oacute /ocircumflex
/otilde /odieresis /divide /oslash /ugrave
/uacute /ucircumflex /udieresis /yacute /thorn
/ydieresis
] def
%%EndResource
%FOPBeginFontReencode
/Courier-Oblique findfont
dup length dict begin
  {1 index /FID ne {def} {pop pop} ifelse} forall
  /Encoding WinAnsiEncoding def
  currentdict
end
/Courier-Oblique exch definefont pop
/Courier-BoldOblique findfont
dup length dict begin
  {1 index /FID ne {def} {pop pop} ifelse} forall
  /Encoding WinAnsiEncoding def
  currentdict
end
/Courier-BoldOblique exch definefont pop
/Courier-Bold findfont
dup length dict begin
  {1 index /FID ne {def} {pop pop} ifelse} forall
  /Encoding WinAnsiEncoding def
  currentdict
end
/Courier-Bold exch definefont pop
/Helvetica findfont
dup length dict begin
  {1 index /FID ne {def} {pop pop} ifelse} forall
  /Encoding WinAnsiEncoding def
  currentdict
end
/Helvetica exch definefont pop
/Helvetica-Oblique findfont
dup length dict begin
  {1 index /FID ne {def} {pop pop} ifelse} forall
  /Encoding WinAnsiEncoding def
  currentdict
end
/Helvetica-Oblique exch definefont pop
/Helvetica-Bold findfont
dup length dict begin
  {1 index /FID ne {def} {pop pop} ifelse} forall
  /Encoding WinAnsiEncoding def
  currentdict
end
/Helvetica-Bold exch definefont pop
/Helvetica-BoldOblique findfont
dup length dict begin
  {1 index /FID ne {def} {pop pop} ifelse} forall
  /Encoding WinAnsiEncoding def
  currentdict
end
/Helvetica-BoldOblique exch definefont pop
/Times-Roman findfont
dup length dict begin
  {1 index /FID ne {def} {pop pop} ifelse} forall
  /Encoding WinAnsiEncoding def
  currentdict
end
/Times-Roman exch definefont pop
/Times-Italic findfont
dup length dict begin
  {1 index /FID ne {def} {pop pop} ifelse} forall
  /Encoding WinAnsiEncoding def
  currentdict
end
/Times-Italic exch definefont pop
/Times-Bold findfont
dup length dict begin
  {1 index /FID ne {def} {pop pop} ifelse} forall
  /Encoding WinAnsiEncoding def
  currentdict
end
/Times-Bold exch definefont pop
/Times-BoldItalic findfont
dup length dict begin
  {1 index /FID ne {def} {pop pop} ifelse} forall
  /Encoding WinAnsiEncoding def
  currentdict
end
/Times-BoldItalic exch definefont pop
/Courier findfont
dup length dict begin
  {1 index /FID ne {def} {pop pop} ifelse} forall
  /Encoding WinAnsiEncoding def
  currentdict
end
/Courier exch definefont pop
%FOPEndFontReencode
%%EndProlog
%%Page: 1 1
%%PageBoundingBox: 0 0 560 420
%%BeginPageSetup
N
   17     2 M
  548     2 L
  548   397 L
   17   397 L
cp
clip
[1 0 0 -1 0 420] CT
%%EndPageSetup
GS
1 GC
N
0 0 560 420 re
f
GR
GS
1 GC
N
0 0 560 420 re
f
GR
GS
1 GC
N
73 367 M
507 367 L
507 31.5 L
73 31.5 L
cp
f
GR
GS
0.149 GC
2 setlinecap
1 LJ
0.5 LW
N
73 367 M
507 367 L
S
GR
GS
0.149 GC
2 setlinecap
1 LJ
0.5 LW
N
73 31.5 M
507 31.5 L
S
GR
GS
0.149 GC
2 setlinecap
1 LJ
0.5 LW
N
73 367 M
73 362.66 L
S
GR
GS
0.149 GC
2 setlinecap
1 LJ
0.5 LW
N
159.8 367 M
159.8 362.66 L
S
GR
GS
0.149 GC
2 setlinecap
1 LJ
0.5 LW
N
246.6 367 M
246.6 362.66 L
S
GR
GS
0.149 GC
2 setlinecap
1 LJ
0.5 LW
N
333.4 367 M
333.4 362.66 L
S
GR
GS
0.149 GC
2 setlinecap
1 LJ
0.5 LW
N
420.2 367 M
420.2 362.66 L
S
GR
GS
0.149 GC
2 setlinecap
1 LJ
0.5 LW
N
507 367 M
507 362.66 L
S
GR
GS
0.149 GC
2 setlinecap
1 LJ
0.5 LW
N
73 31.5 M
73 35.84 L
S
GR
GS
0.149 GC
2 setlinecap
1 LJ
0.5 LW
N
159.8 31.5 M
159.8 35.84 L
S
GR
GS
0.149 GC
2 setlinecap
1 LJ
0.5 LW
N
246.6 31.5 M
246.6 35.84 L
S
GR
GS
0.149 GC
2 setlinecap
1 LJ
0.5 LW
N
333.4 31.5 M
333.4 35.84 L
S
GR
GS
0.149 GC
2 setlinecap
1 LJ
0.5 LW
N
420.2 31.5 M
420.2 35.84 L
S
GR
GS
0.149 GC
2 setlinecap
1 LJ
0.5 LW
N
507 31.5 M
507 35.84 L
S
GR
GS
[1 0 0 1 73 372.20001] CT
0.149 GC
/Times-Roman 16 F
GS
[1 0 0 1 0 0] CT
-4 15 moveto 
1 -1 scale
(0) t 
GR
GR
GS
[1 0 0 1 159.8 372.20001] CT
0.149 GC
/Times-Roman 16 F
GS
[1 0 0 1 0 0] CT
-12 15 moveto 
1 -1 scale
(200) t 
GR
GR
GS
[1 0 0 1 246.60001 372.20001] CT
0.149 GC
/Times-Roman 16 F
GS
[1 0 0 1 0 0] CT
-12 15 moveto 
1 -1 scale
(400) t 
GR
GR
GS
[1 0 0 1 333.39999 372.20001] CT
0.149 GC
/Times-Roman 16 F
GS
[1 0 0 1 0 0] CT
-12 15 moveto 
1 -1 scale
(600) t 
GR
GR
GS
[1 0 0 1 420.20001 372.20001] CT
0.149 GC
/Times-Roman 16 F
GS
[1 0 0 1 0 0] CT
-12 15 moveto 
1 -1 scale
(800) t 
GR
GR
GS
[1 0 0 1 507 372.20001] CT
0.149 GC
/Times-Roman 16 F
GS
[1 0 0 1 0 0] CT
-16 15 moveto 
1 -1 scale
(1000) t 
GR
GR
GS
[1 0 0 1 290.00021 391.20001] CT
0.149 GC
N
-52.004 20.16 M
-52.004 19.316 L
-50.801 19.316 -49.668 19.183 QT
-48.535 19.051 -48.535 18.551 QT
-48.535 5.363 L
-48.535 4.847 -48.817 4.73 QT
-49.098 4.613 -49.754 4.613 QT
-50.754 4.613 L
-52.739 4.613 -53.567 5.472 QT
-54.004 5.91 -54.192 6.863 QT
-54.379 7.816 -54.504 9.254 QT
-55.192 9.254 L
-54.739 3.769 L
-40.082 3.769 L
-39.629 9.254 L
-40.332 9.254 L
-40.473 7.707 -40.637 6.801 QT
-40.801 5.894 -41.254 5.472 QT
-42.098 4.613 -44.067 4.613 QT
-45.067 4.613 L
-45.504 4.613 -45.746 4.644 QT
-45.989 4.676 -46.137 4.847 QT
-46.285 5.019 -46.285 5.363 QT
-46.285 18.551 L
-46.285 19.051 -45.153 19.183 QT
-44.02 19.316 -42.817 19.316 QT
-42.817 20.16 L
-52.004 20.16 L
cp
f
GR
GS
[1 0 0 1 290.00021 391.20001] CT
0.149 GC
N
-37.999 20.16 M
-37.999 19.316 L
-37.171 19.316 -36.647 19.183 QT
-36.124 19.051 -36.124 18.551 QT
-36.124 12.004 L
-36.124 11.082 -36.476 10.871 QT
-36.827 10.66 -37.89 10.66 QT
-37.89 9.816 L
-34.436 9.551 L
-34.436 18.551 L
-34.436 19.051 -33.976 19.183 QT
-33.515 19.316 -32.749 19.316 QT
-32.749 20.16 L
-37.999 20.16 L
cp
-36.968 5.426 M
-36.968 4.894 -36.569 4.496 QT
-36.171 4.097 -35.655 4.097 QT
-35.327 4.097 -35.007 4.277 QT
-34.686 4.457 -34.515 4.769 QT
-34.343 5.082 -34.343 5.426 QT
-34.343 5.941 -34.741 6.34 QT
-35.14 6.738 -35.655 6.738 QT
-36.171 6.738 -36.569 6.34 QT
-36.968 5.941 -36.968 5.426 QT
cp
f
GR
GS
[1 0 0 1 290.00021 391.20001] CT
0.149 GC
N
-31.348 20.16 M
-31.348 19.316 L
-30.535 19.316 -30.004 19.183 QT
-29.473 19.051 -29.473 18.551 QT
-29.473 12.004 L
-29.473 11.363 -29.668 11.074 QT
-29.864 10.785 -30.223 10.722 QT
-30.582 10.66 -31.348 10.66 QT
-31.348 9.816 L
-27.864 9.551 L
-27.864 11.894 L
-27.395 10.863 -26.449 10.207 QT
-25.504 9.551 -24.395 9.551 QT
-21.629 9.551 -21.145 11.801 QT
-20.66 10.801 -19.739 10.176 QT
-18.817 9.551 -17.707 9.551 QT
-16.614 9.551 -15.871 9.902 QT
-15.129 10.254 -14.754 10.972 QT
-14.379 11.691 -14.379 12.785 QT
-14.379 18.551 L
-14.379 19.051 -13.848 19.183 QT
-13.317 19.316 -12.504 19.316 QT
-12.504 20.16 L
-18.004 20.16 L
-18.004 19.316 L
-17.176 19.316 -16.653 19.183 QT
-16.129 19.051 -16.129 18.551 QT
-16.129 12.863 L
-16.129 11.644 -16.465 10.91 QT
-16.801 10.176 -17.864 10.176 QT
-19.239 10.176 -20.145 11.285 QT
-21.051 12.394 -21.051 13.816 QT
-21.051 18.551 L
-21.051 19.051 -20.52 19.183 QT
-19.989 19.316 -19.176 19.316 QT
-19.176 20.16 L
-24.676 20.16 L
-24.676 19.316 L
-23.848 19.316 -23.324 19.183 QT
-22.801 19.051 -22.801 18.551 QT
-22.801 12.863 L
-22.801 11.691 -23.137 10.933 QT
-23.473 10.176 -24.535 10.176 QT
-25.926 10.176 -26.824 11.285 QT
-27.723 12.394 -27.723 13.816 QT
-27.723 18.551 L
-27.723 19.051 -27.192 19.183 QT
-26.66 19.316 -25.848 19.316 QT
-25.848 20.16 L
-31.348 20.16 L
cp
f
GR
GS
[1 0 0 1 290.00021 391.20001] CT
0.149 GC
N
-6.082 20.426 M
-7.551 20.426 -8.778 19.66 QT
-10.004 18.894 -10.699 17.613 QT
-11.395 16.332 -11.395 14.894 QT
-11.395 13.488 -10.754 12.222 QT
-10.113 10.957 -8.973 10.176 QT
-7.832 9.394 -6.426 9.394 QT
-5.332 9.394 -4.512 9.769 QT
-3.692 10.144 -3.168 10.801 QT
-2.645 11.457 -2.371 12.347 QT
-2.098 13.238 -2.098 14.301 QT
-2.098 14.613 -2.348 14.613 QT
-9.301 14.613 L
-9.301 14.879 L
-9.301 16.863 -8.496 18.293 QT
-7.692 19.722 -5.879 19.722 QT
-5.145 19.722 -4.512 19.394 QT
-3.879 19.066 -3.418 18.48 QT
-2.957 17.894 -2.801 17.222 QT
-2.77 17.144 -2.707 17.082 QT
-2.645 17.019 -2.567 17.019 QT
-2.348 17.019 L
-2.098 17.019 -2.098 17.316 QT
-2.442 18.676 -3.567 19.551 QT
-4.692 20.426 -6.082 20.426 QT
cp
-9.27 14.019 M
-3.801 14.019 L
-3.801 13.113 -4.051 12.191 QT
-4.301 11.269 -4.887 10.652 QT
-5.473 10.035 -6.426 10.035 QT
-7.785 10.035 -8.528 11.308 QT
-9.27 12.582 -9.27 14.019 QT
cp
f
GR
GS
[1 0 0 1 290.00021 391.20001] CT
0.149 GC
N
14.038 26.113 M
12.709 25.066 11.741 23.699 QT
10.772 22.332 10.155 20.785 QT
9.538 19.238 9.233 17.551 QT
8.928 15.863 8.928 14.16 QT
8.928 12.441 9.233 10.754 QT
9.538 9.066 10.17 7.504 QT
10.803 5.941 11.772 4.582 QT
12.741 3.222 14.038 2.207 QT
14.038 2.16 14.163 2.16 QT
14.381 2.16 L
14.459 2.16 14.514 2.222 QT
14.569 2.285 14.569 2.363 QT
14.569 2.472 14.522 2.519 QT
13.35 3.676 12.569 4.988 QT
11.788 6.301 11.319 7.777 QT
10.85 9.254 10.639 10.847 QT
10.428 12.441 10.428 14.16 QT
10.428 21.785 14.506 25.754 QT
14.569 25.816 14.569 25.957 QT
14.569 26.004 14.506 26.082 QT
14.444 26.16 14.381 26.16 QT
14.163 26.16 L
14.038 26.16 14.038 26.113 QT
cp
f
GR
GS
[1 0 0 1 290.00021 391.20001] CT
0.149 GC
N
16.73 20.238 M
16.73 16.316 L
16.73 16.129 16.949 16.129 QT
17.23 16.129 L
17.371 16.129 17.418 16.316 QT
18.09 19.801 20.652 19.801 QT
21.793 19.801 22.558 19.285 QT
23.324 18.769 23.324 17.691 QT
23.324 16.91 22.73 16.363 QT
22.137 15.816 21.308 15.629 QT
19.715 15.301 L
18.902 15.129 18.238 14.769 QT
17.574 14.41 17.152 13.801 QT
16.73 13.191 16.73 12.394 QT
16.73 11.347 17.285 10.676 QT
17.84 10.004 18.73 9.699 QT
19.621 9.394 20.652 9.394 QT
21.887 9.394 22.808 10.051 QT
23.496 9.457 L
23.496 9.394 23.605 9.394 QT
23.793 9.394 L
23.855 9.394 23.918 9.465 QT
23.98 9.535 23.98 9.597 QT
23.98 12.738 L
23.98 12.957 23.793 12.957 QT
23.496 12.957 L
23.277 12.957 23.277 12.738 QT
23.277 11.488 22.582 10.722 QT
21.887 9.957 20.637 9.957 QT
19.558 9.957 18.769 10.355 QT
17.98 10.754 17.98 11.738 QT
17.98 12.394 18.543 12.824 QT
19.105 13.254 19.871 13.441 QT
21.496 13.754 L
22.324 13.941 23.035 14.386 QT
23.746 14.832 24.16 15.511 QT
24.574 16.191 24.574 17.035 QT
24.574 17.91 24.277 18.551 QT
23.98 19.191 23.441 19.613 QT
22.902 20.035 22.176 20.23 QT
21.449 20.426 20.652 20.426 QT
19.152 20.426 18.09 19.426 QT
17.215 20.379 L
17.215 20.426 17.09 20.426 QT
16.949 20.426 L
16.73 20.426 16.73 20.238 QT
cp
f
GR
GS
[1 0 0 1 290.00021 391.20001] CT
0.149 GC
N
31.384 20.426 M
29.916 20.426 28.689 19.66 QT
27.463 18.894 26.767 17.613 QT
26.072 16.332 26.072 14.894 QT
26.072 13.488 26.713 12.222 QT
27.353 10.957 28.494 10.176 QT
29.634 9.394 31.041 9.394 QT
32.134 9.394 32.955 9.769 QT
33.775 10.144 34.299 10.801 QT
34.822 11.457 35.095 12.347 QT
35.369 13.238 35.369 14.301 QT
35.369 14.613 35.119 14.613 QT
28.166 14.613 L
28.166 14.879 L
28.166 16.863 28.97 18.293 QT
29.775 19.722 31.588 19.722 QT
32.322 19.722 32.955 19.394 QT
33.588 19.066 34.049 18.48 QT
34.509 17.894 34.666 17.222 QT
34.697 17.144 34.759 17.082 QT
34.822 17.019 34.9 17.019 QT
35.119 17.019 L
35.369 17.019 35.369 17.316 QT
35.025 18.676 33.9 19.551 QT
32.775 20.426 31.384 20.426 QT
cp
28.197 14.019 M
33.666 14.019 L
33.666 13.113 33.416 12.191 QT
33.166 11.269 32.58 10.652 QT
31.994 10.035 31.041 10.035 QT
29.681 10.035 28.939 11.308 QT
28.197 12.582 28.197 14.019 QT
cp
f
GR
GS
[1 0 0 1 290.00021 391.20001] CT
0.149 GC
N
42.051 20.426 M
40.598 20.426 39.41 19.668 QT
38.223 18.91 37.543 17.652 QT
36.864 16.394 36.864 14.972 QT
36.864 13.566 37.535 12.261 QT
38.207 10.957 39.403 10.176 QT
40.598 9.394 42.051 9.394 QT
43.457 9.394 44.606 9.949 QT
45.754 10.504 45.754 11.754 QT
45.754 12.222 45.426 12.566 QT
45.098 12.91 44.614 12.91 QT
44.129 12.91 43.793 12.566 QT
43.457 12.222 43.457 11.754 QT
43.457 11.332 43.731 11.019 QT
44.004 10.707 44.395 10.629 QT
43.567 10.097 42.067 10.097 QT
40.926 10.097 40.223 10.863 QT
39.52 11.629 39.239 12.754 QT
38.957 13.879 38.957 14.972 QT
38.957 16.144 39.301 17.222 QT
39.645 18.301 40.41 19.011 QT
41.176 19.722 42.332 19.722 QT
43.473 19.722 44.27 19.027 QT
45.067 18.332 45.364 17.207 QT
45.364 17.066 45.551 17.066 QT
45.848 17.066 L
45.91 17.066 45.973 17.129 QT
46.035 17.191 46.035 17.269 QT
46.035 17.347 L
45.66 18.769 44.582 19.597 QT
43.504 20.426 42.051 20.426 QT
cp
f
GR
GS
[1 0 0 1 290.00021 391.20001] CT
0.149 GC
N
48.296 26.16 M
48.077 26.16 48.077 25.957 QT
48.077 25.847 48.124 25.801 QT
52.233 21.785 52.233 14.16 QT
52.233 6.535 48.171 2.566 QT
48.077 2.504 48.077 2.363 QT
48.077 2.285 48.147 2.222 QT
48.218 2.16 48.296 2.16 QT
48.515 2.16 L
48.593 2.16 48.64 2.207 QT
50.358 3.566 51.507 5.511 QT
52.655 7.457 53.187 9.66 QT
53.718 11.863 53.718 14.16 QT
53.718 15.863 53.429 17.504 QT
53.14 19.144 52.515 20.746 QT
51.89 22.347 50.929 23.707 QT
49.968 25.066 48.64 26.113 QT
48.593 26.16 48.515 26.16 QT
48.296 26.16 L
cp
f
GR
GS
0.149 GC
2 setlinecap
1 LJ
0.5 LW
N
73 367 M
73 31.5 L
S
GR
GS
0.149 GC
2 setlinecap
1 LJ
0.5 LW
N
507 367 M
507 31.5 L
S
GR
GS
0.149 GC
2 setlinecap
1 LJ
0.5 LW
N
73 367 M
77.34 367 L
S
GR
GS
0.149 GC
2 setlinecap
1 LJ
0.5 LW
N
73 333.45 M
77.34 333.45 L
S
GR
GS
0.149 GC
2 setlinecap
1 LJ
0.5 LW
N
73 299.9 M
77.34 299.9 L
S
GR
GS
0.149 GC
2 setlinecap
1 LJ
0.5 LW
N
73 266.35 M
77.34 266.35 L
S
GR
GS
0.149 GC
2 setlinecap
1 LJ
0.5 LW
N
73 232.8 M
77.34 232.8 L
S
GR
GS
0.149 GC
2 setlinecap
1 LJ
0.5 LW
N
73 199.25 M
77.34 199.25 L
S
GR
GS
0.149 GC
2 setlinecap
1 LJ
0.5 LW
N
73 165.7 M
77.34 165.7 L
S
GR
GS
0.149 GC
2 setlinecap
1 LJ
0.5 LW
N
73 132.15 M
77.34 132.15 L
S
GR
GS
0.149 GC
2 setlinecap
1 LJ
0.5 LW
N
73 98.6 M
77.34 98.6 L
S
GR
GS
0.149 GC
2 setlinecap
1 LJ
0.5 LW
N
73 65.05 M
77.34 65.05 L
S
GR
GS
0.149 GC
2 setlinecap
1 LJ
0.5 LW
N
73 31.5 M
77.34 31.5 L
S
GR
GS
0.149 GC
2 setlinecap
1 LJ
0.5 LW
N
507 367 M
502.66 367 L
S
GR
GS
0.149 GC
2 setlinecap
1 LJ
0.5 LW
N
507 333.45 M
502.66 333.45 L
S
GR
GS
0.149 GC
2 setlinecap
1 LJ
0.5 LW
N
507 299.9 M
502.66 299.9 L
S
GR
GS
0.149 GC
2 setlinecap
1 LJ
0.5 LW
N
507 266.35 M
502.66 266.35 L
S
GR
GS
0.149 GC
2 setlinecap
1 LJ
0.5 LW
N
507 232.8 M
502.66 232.8 L
S
GR
GS
0.149 GC
2 setlinecap
1 LJ
0.5 LW
N
507 199.25 M
502.66 199.25 L
S
GR
GS
0.149 GC
2 setlinecap
1 LJ
0.5 LW
N
507 165.7 M
502.66 165.7 L
S
GR
GS
0.149 GC
2 setlinecap
1 LJ
0.5 LW
N
507 132.15 M
502.66 132.15 L
S
GR
GS
0.149 GC
2 setlinecap
1 LJ
0.5 LW
N
507 98.6 M
502.66 98.6 L
S
GR
GS
0.149 GC
2 setlinecap
1 LJ
0.5 LW
N
507 65.05 M
502.66 65.05 L
S
GR
GS
0.149 GC
2 setlinecap
1 LJ
0.5 LW
N
507 31.5 M
502.66 31.5 L
S
GR
GS
[1 0 0 1 67.8 367] CT
0.149 GC
/Times-Roman 16 F
GS
[1 0 0 1 0 0] CT
-22 5.5 moveto 
1 -1 scale
(-30) t 
GR
GR
GS
[1 0 0 1 67.8 333.45001] CT
0.149 GC
/Times-Roman 16 F
GS
[1 0 0 1 0 0] CT
-22 5.5 moveto 
1 -1 scale
(-20) t 
GR
GR
GS
[1 0 0 1 67.8 299.89999] CT
0.149 GC
/Times-Roman 16 F
GS
[1 0 0 1 0 0] CT
-22 5.5 moveto 
1 -1 scale
(-10) t 
GR
GR
GS
[1 0 0 1 67.8 266.35001] CT
0.149 GC
/Times-Roman 16 F
GS
[1 0 0 1 0 0] CT
-8 5.5 moveto 
1 -1 scale
(0) t 
GR
GR
GS
[1 0 0 1 67.8 232.8] CT
0.149 GC
/Times-Roman 16 F
GS
[1 0 0 1 0 0] CT
-16 5.5 moveto 
1 -1 scale
(10) t 
GR
GR
GS
[1 0 0 1 67.8 199.25] CT
0.149 GC
/Times-Roman 16 F
GS
[1 0 0 1 0 0] CT
-16 5.5 moveto 
1 -1 scale
(20) t 
GR
GR
GS
[1 0 0 1 67.8 165.7] CT
0.149 GC
/Times-Roman 16 F
GS
[1 0 0 1 0 0] CT
-16 5.5 moveto 
1 -1 scale
(30) t 
GR
GR
GS
[1 0 0 1 67.8 132.14999] CT
0.149 GC
/Times-Roman 16 F
GS
[1 0 0 1 0 0] CT
-16 5.5 moveto 
1 -1 scale
(40) t 
GR
GR
GS
[1 0 0 1 67.8 98.6] CT
0.149 GC
/Times-Roman 16 F
GS
[1 0 0 1 0 0] CT
-16 5.5 moveto 
1 -1 scale
(50) t 
GR
GR
GS
[1 0 0 1 67.8 65.05] CT
0.149 GC
/Times-Roman 16 F
GS
[1 0 0 1 0 0] CT
-16 5.5 moveto 
1 -1 scale
(60) t 
GR
GR
GS
[1 0 0 1 67.8 31.5] CT
0.149 GC
/Times-Roman 16 F
GS
[1 0 0 1 0 0] CT
-16 5.5 moveto 
1 -1 scale
(70) t 
GR
GR
GS
[0 -1 1 0 43.3 199.24985] CT
0.149 GC
N
-6.892 -8.374 M
-7.985 -8.374 -8.642 -9.171 QT
-9.298 -9.968 -9.548 -11.093 QT
-9.798 -12.218 -9.798 -13.312 QT
-9.798 -13.343 L
-9.798 -14.531 -9.571 -15.82 QT
-9.345 -17.109 -8.915 -18.398 QT
-8.485 -19.687 -7.97 -20.687 QT
-7.626 -21.39 -7.071 -22.257 QT
-6.517 -23.124 -5.829 -23.882 QT
-5.142 -24.64 -4.353 -25.101 QT
-3.564 -25.562 -2.751 -25.562 QT
-2.72 -25.562 L
-1.86 -25.562 -1.282 -25.085 QT
-0.704 -24.609 -0.376 -23.859 QT
-0.048 -23.109 0.077 -22.249 QT
0.202 -21.39 0.202 -20.624 QT
0.202 -18.796 -0.29 -16.906 QT
-0.782 -15.015 -1.642 -13.249 QT
-1.97 -12.578 -2.556 -11.679 QT
-3.142 -10.781 -3.79 -10.062 QT
-4.439 -9.343 -5.243 -8.859 QT
-6.048 -8.374 -6.876 -8.374 QT
-6.892 -8.374 L
cp
-6.845 -8.999 M
-6.048 -8.999 -5.321 -9.851 QT
-4.595 -10.703 -4.04 -11.914 QT
-3.485 -13.124 -3.071 -14.398 QT
-2.657 -15.671 -2.454 -16.562 QT
-7.36 -16.562 L
-7.735 -15.046 -7.946 -13.953 QT
-8.157 -12.859 -8.157 -11.812 QT
-8.157 -8.999 -6.845 -8.999 QT
cp
-7.173 -17.406 M
-2.251 -17.406 L
-1.985 -18.468 -1.837 -19.171 QT
-1.689 -19.874 -1.579 -20.664 QT
-1.47 -21.453 -1.47 -22.124 QT
-1.47 -24.937 -2.751 -24.937 QT
-4.267 -24.937 -5.376 -22.484 QT
-6.485 -20.031 -7.173 -17.406 QT
cp
f
GR
GS
[0 -1 1 0 43.3 199.24985] CT
0.149 GC
N
5.417 -18.303 M
4.542 -18.303 3.776 -18.748 QT
3.01 -19.193 2.565 -19.967 QT
2.12 -20.74 2.12 -21.6 QT
2.12 -22.459 2.565 -23.232 QT
3.01 -24.006 3.776 -24.451 QT
4.542 -24.896 5.417 -24.896 QT
6.292 -24.896 7.049 -24.451 QT
7.807 -24.006 8.253 -23.232 QT
8.698 -22.459 8.698 -21.6 QT
8.698 -20.74 8.253 -19.967 QT
7.807 -19.193 7.049 -18.748 QT
6.292 -18.303 5.417 -18.303 QT
cp
5.417 -18.99 M
6.479 -18.99 7.245 -19.764 QT
8.01 -20.537 8.01 -21.6 QT
8.01 -22.287 7.659 -22.896 QT
7.307 -23.506 6.714 -23.857 QT
6.12 -24.209 5.417 -24.209 QT
4.901 -24.209 4.424 -24.006 QT
3.948 -23.803 3.573 -23.435 QT
3.198 -23.068 3.003 -22.592 QT
2.807 -22.115 2.807 -21.6 QT
2.807 -20.537 3.573 -19.764 QT
4.339 -18.99 5.417 -18.99 QT
cp
f
GR
GS
0 0.447 0.741 RC
1 LJ
2 LW
N
73 269.226 M
73.434 268.968 L
73.868 268.712 L
74.302 268.456 L
74.736 268.202 L
75.17 267.949 L
75.604 267.697 L
76.038 267.446 L
76.472 267.196 L
76.906 266.947 L
77.34 266.7 L
77.774 266.454 L
78.208 266.209 L
78.642 265.965 L
79.076 265.722 L
79.51 265.481 L
79.944 265.241 L
80.378 265.002 L
80.812 264.764 L
81.246 264.527 L
81.68 264.292 L
82.114 264.058 L
82.548 263.825 L
82.982 263.593 L
83.416 263.363 L
83.85 263.134 L
84.284 262.906 L
84.718 262.679 L
85.152 262.454 L
85.586 262.229 L
86.02 262.006 L
86.454 261.785 L
86.888 261.564 L
87.322 261.345 L
87.756 261.127 L
88.19 260.91 L
88.624 260.695 L
89.058 260.481 L
89.492 260.268 L
89.926 260.056 L
90.36 259.846 L
90.794 259.637 L
91.228 259.429 L
91.662 259.222 L
92.096 259.016 L
92.53 258.812 L
92.964 258.609 L
93.398 258.408 L
93.832 258.207 L
94.266 258.008 L
94.7 257.81 L
95.134 257.613 L
95.568 257.418 L
96.002 257.224 L
96.436 257.031 L
96.87 256.839 L
97.304 256.648 L
97.738 256.459 L
98.172 256.271 L
98.606 256.084 L
99.04 255.899 L
99.474 255.714 L
99.908 255.531 L
100.342 255.349 L
100.776 255.168 L
101.21 254.988 L
101.644 254.81 L
102.078 254.632 L
102.512 254.456 L
102.946 254.281 L
103.38 254.108 L
103.814 253.935 L
104.248 253.763 L
104.682 253.593 L
105.116 253.424 L
105.55 253.256 L
105.984 253.089 L
106.418 252.923 L
106.852 252.758 L
107.286 252.594 L
107.72 252.431 L
108.154 252.27 L
108.588 252.109 L
109.022 251.95 L
109.456 251.791 L
109.89 251.634 L
110.324 251.477 L
110.758 251.321 L
111.192 251.167 L
111.626 251.013 L
112.06 250.861 L
112.494 250.709 L
112.928 250.558 L
113.362 250.408 L
113.796 250.259 L
114.23 250.11 L
114.664 249.963 L
115.098 249.816 L
115.532 249.67 L
115.966 249.525 L
116.4 249.381 L
116.834 249.237 L
117.268 249.095 L
117.702 248.952 L
118.136 248.811 L
118.57 248.67 L
119.004 248.53 L
119.438 248.39 L
119.872 248.251 L
120.306 248.112 L
120.74 247.974 L
121.174 247.837 L
121.608 247.7 L
122.042 247.563 L
122.476 247.427 L
122.91 247.291 L
123.344 247.156 L
123.778 247.021 L
124.212 246.886 L
124.646 246.752 L
125.08 246.617 L
125.514 246.484 L
125.948 246.35 L
126.382 246.216 L
126.816 246.083 L
127.25 245.95 L
127.684 245.816 L
128.118 245.683 L
128.552 245.55 L
128.986 245.417 L
129.42 245.284 L
129.854 245.151 L
130.288 245.018 L
130.722 244.884 L
131.156 244.751 L
131.59 244.617 L
132.024 244.483 L
132.458 244.349 L
132.892 244.215 L
133.326 244.08 L
133.76 243.945 L
134.194 243.81 L
134.628 243.675 L
135.062 243.539 L
135.496 243.402 L
135.93 243.265 L
136.364 243.128 L
136.798 242.99 L
137.232 242.852 L
137.666 242.713 L
138.1 242.574 L
138.534 242.434 L
138.968 242.293 L
139.402 242.152 L
139.836 242.01 L
140.27 241.868 L
140.704 241.724 L
141.138 241.58 L
141.572 241.436 L
142.006 241.29 L
142.44 241.144 L
142.874 240.997 L
143.308 240.849 L
143.742 240.7 L
144.176 240.551 L
144.61 240.4 L
145.044 240.249 L
145.478 240.096 L
145.912 239.943 L
146.346 239.789 L
146.78 239.634 L
147.214 239.478 L
147.648 239.32 L
148.082 239.162 L
148.516 239.003 L
148.95 238.843 L
149.384 238.682 L
149.818 238.52 L
150.252 238.356 L
150.686 238.192 L
151.12 238.026 L
151.554 237.86 L
151.988 237.692 L
152.422 237.523 L
152.856 237.353 L
153.29 237.182 L
153.724 237.01 L
154.158 236.836 L
154.592 236.662 L
155.026 236.486 L
155.46 236.309 L
155.894 236.131 L
156.328 235.952 L
156.762 235.771 L
157.196 235.589 L
157.63 235.406 L
158.064 235.222 L
158.498 235.037 L
158.932 234.85 L
159.366 234.663 L
159.8 234.474 L
160.234 234.283 L
160.668 234.092 L
161.102 233.899 L
161.536 233.705 L
161.97 233.51 L
162.404 233.314 L
162.838 233.116 L
163.272 232.917 L
163.706 232.717 L
164.14 232.515 L
164.574 232.312 L
165.008 232.108 L
165.442 231.903 L
165.876 231.697 L
166.31 231.489 L
166.744 231.28 L
167.178 231.07 L
167.612 230.858 L
168.046 230.645 L
168.48 230.431 L
168.914 230.216 L
169.348 229.999 L
169.782 229.781 L
170.216 229.562 L
170.65 229.342 L
171.084 229.12 L
171.518 228.897 L
171.952 228.673 L
172.386 228.448 L
172.82 228.221 L
173.254 227.993 L
173.688 227.764 L
174.122 227.533 L
174.556 227.302 L
174.99 227.069 L
175.424 226.835 L
175.858 226.599 L
176.292 226.362 L
176.726 226.125 L
177.16 225.886 L
177.594 225.645 L
178.028 225.404 L
178.462 225.161 L
178.896 224.917 L
179.33 224.672 L
179.764 224.426 L
180.198 224.178 L
180.632 223.929 L
181.066 223.679 L
181.5 223.428 L
181.934 223.176 L
182.368 222.923 L
182.802 222.668 L
183.236 222.413 L
183.67 222.156 L
184.104 221.898 L
184.538 221.639 L
184.972 221.379 L
185.406 221.118 L
185.84 220.855 L
186.274 220.592 L
186.708 220.328 L
187.142 220.062 L
187.576 219.796 L
188.01 219.528 L
188.444 219.26 L
188.878 218.99 L
189.312 218.72 L
189.746 218.449 L
190.18 218.176 L
190.614 217.903 L
191.048 217.629 L
191.482 217.354 L
191.916 217.078 L
192.35 216.801 L
192.784 216.523 L
193.218 216.245 L
193.652 215.965 L
194.086 215.685 L
194.52 215.404 L
194.954 215.123 L
195.388 214.84 L
195.822 214.557 L
196.256 214.274 L
196.69 213.989 L
197.124 213.704 L
197.558 213.419 L
197.992 213.133 L
198.426 212.846 L
198.86 212.559 L
199.294 212.271 L
199.728 211.983 L
200.162 211.694 L
200.596 211.405 L
201.03 211.115 L
201.464 210.825 L
201.898 210.535 L
202.332 210.244 L
202.766 209.953 L
203.2 209.662 L
203.634 209.371 L
204.068 209.079 L
204.502 208.787 L
204.936 208.495 L
205.37 208.203 L
205.804 207.911 L
206.238 207.618 L
206.672 207.326 L
207.106 207.033 L
207.54 206.741 L
207.974 206.449 L
208.408 206.156 L
208.842 205.864 L
209.276 205.572 L
209.71 205.28 L
210.144 204.989 L
210.578 204.697 L
211.012 204.406 L
211.446 204.115 L
211.88 203.824 L
212.314 203.534 L
212.748 203.243 L
213.182 202.954 L
213.616 202.664 L
214.05 202.376 L
214.484 202.087 L
214.918 201.799 L
215.352 201.512 L
215.786 201.225 L
216.22 200.939 L
216.654 200.653 L
217.088 200.368 L
217.522 200.083 L
217.956 199.799 L
218.39 199.516 L
218.824 199.233 L
219.258 198.951 L
219.692 198.67 L
220.126 198.39 L
220.56 198.11 L
220.994 197.832 L
221.428 197.554 L
221.862 197.277 L
222.296 197 L
222.73 196.725 L
223.164 196.45 L
223.598 196.177 L
224.032 195.904 L
224.466 195.632 L
224.9 195.361 L
225.334 195.092 L
225.768 194.823 L
226.202 194.555 L
226.636 194.288 L
227.07 194.022 L
227.504 193.757 L
227.938 193.494 L
228.372 193.231 L
228.806 192.969 L
229.24 192.709 L
229.674 192.449 L
230.108 192.191 L
230.542 191.933 L
230.976 191.677 L
231.41 191.422 L
231.844 191.168 L
232.278 190.916 L
232.712 190.664 L
233.146 190.414 L
233.58 190.164 L
234.014 189.916 L
234.448 189.669 L
234.882 189.424 L
235.316 189.179 L
235.75 188.936 L
236.184 188.693 L
236.618 188.453 L
237.052 188.213 L
237.486 187.974 L
237.92 187.737 L
238.354 187.501 L
238.788 187.266 L
239.222 187.032 L
239.656 186.8 L
240.09 186.569 L
240.524 186.339 L
240.958 186.11 L
241.392 185.883 L
241.826 185.656 L
242.26 185.431 L
242.694 185.208 L
243.128 184.985 L
243.562 184.764 L
243.996 184.544 L
244.43 184.325 L
244.864 184.108 L
245.298 183.892 L
245.732 183.677 L
246.166 183.463 L
246.6 183.251 L
247.034 183.039 L
247.468 182.829 L
247.902 182.621 L
248.336 182.413 L
248.77 182.207 L
249.204 182.002 L
249.638 181.798 L
250.072 181.596 L
250.506 181.395 L
250.94 181.195 L
251.374 180.996 L
251.808 180.799 L
252.242 180.602 L
252.676 180.408 L
253.11 180.214 L
253.544 180.021 L
253.978 179.83 L
254.412 179.64 L
254.846 179.451 L
255.28 179.264 L
255.714 179.077 L
256.148 178.892 L
256.582 178.708 L
257.016 178.525 L
257.45 178.344 L
257.884 178.163 L
258.318 177.984 L
258.752 177.806 L
259.186 177.629 L
259.62 177.454 L
260.054 177.279 L
260.488 177.106 L
260.922 176.934 L
261.356 176.763 L
261.79 176.593 L
262.224 176.424 L
262.658 176.256 L
263.092 176.09 L
263.526 175.924 L
263.96 175.76 L
264.394 175.597 L
264.828 175.434 L
265.262 175.273 L
265.696 175.113 L
266.13 174.954 L
266.564 174.796 L
266.998 174.639 L
267.432 174.483 L
267.866 174.328 L
268.3 174.174 L
268.734 174.02 L
269.168 173.868 L
269.602 173.717 L
270.036 173.566 L
270.47 173.417 L
270.904 173.268 L
271.338 173.12 L
271.772 172.973 L
272.206 172.827 L
272.64 172.681 L
273.074 172.536 L
273.508 172.393 L
273.942 172.249 L
274.376 172.107 L
274.81 171.965 L
275.244 171.824 L
275.678 171.683 L
276.112 171.543 L
276.546 171.404 L
276.98 171.265 L
277.414 171.127 L
277.848 170.989 L
278.282 170.852 L
278.716 170.715 L
279.15 170.579 L
279.584 170.443 L
280.018 170.308 L
280.452 170.172 L
280.886 170.038 L
281.32 169.903 L
281.754 169.769 L
282.188 169.635 L
282.622 169.501 L
283.056 169.368 L
283.49 169.234 L
283.924 169.101 L
284.358 168.968 L
284.792 168.835 L
285.226 168.702 L
285.66 168.569 L
286.094 168.436 L
286.528 168.303 L
286.962 168.17 L
287.396 168.037 L
287.83 167.903 L
288.264 167.77 L
288.698 167.636 L
289.132 167.503 L
289.566 167.368 L
290 167.234 L
290.434 167.1 L
290.868 166.965 L
291.302 166.829 L
291.736 166.694 L
292.17 166.558 L
292.604 166.421 L
293.038 166.285 L
293.472 166.147 L
293.906 166.009 L
294.34 165.871 L
294.774 165.732 L
295.208 165.593 L
295.642 165.452 L
296.076 165.312 L
296.51 165.17 L
296.944 165.028 L
297.378 164.886 L
297.812 164.742 L
298.246 164.598 L
298.68 164.453 L
299.114 164.307 L
299.548 164.161 L
299.982 164.014 L
300.416 163.865 L
300.85 163.716 L
301.284 163.567 L
301.718 163.416 L
302.152 163.264 L
302.586 163.111 L
303.02 162.958 L
303.454 162.803 L
303.888 162.648 L
304.322 162.492 L
304.756 162.334 L
305.19 162.176 L
305.624 162.016 L
306.058 161.856 L
306.492 161.694 L
306.926 161.531 L
307.36 161.368 L
307.794 161.203 L
308.228 161.037 L
308.662 160.87 L
309.096 160.702 L
309.53 160.533 L
309.964 160.362 L
310.398 160.191 L
310.832 160.018 L
311.266 159.844 L
311.7 159.669 L
312.134 159.493 L
312.568 159.316 L
313.002 159.137 L
313.436 158.958 L
313.87 158.777 L
314.304 158.594 L
314.738 158.411 L
315.172 158.227 L
315.606 158.041 L
316.04 157.854 L
316.474 157.666 L
316.908 157.476 L
317.342 157.285 L
317.776 157.093 L
318.21 156.9 L
318.644 156.706 L
319.078 156.51 L
319.512 156.313 L
319.946 156.115 L
320.38 155.916 L
320.814 155.715 L
321.248 155.513 L
321.682 155.31 L
322.116 155.105 L
322.55 154.9 L
322.984 154.693 L
323.418 154.484 L
323.852 154.275 L
324.286 154.064 L
324.72 153.852 L
325.154 153.639 L
325.588 153.424 L
326.022 153.208 L
326.456 152.991 L
326.89 152.773 L
327.324 152.553 L
327.758 152.332 L
328.192 152.11 L
328.626 151.887 L
329.06 151.662 L
329.494 151.436 L
329.928 151.209 L
330.362 150.98 L
330.796 150.751 L
331.23 150.52 L
331.664 150.288 L
332.098 150.054 L
332.532 149.819 L
332.966 149.584 L
333.4 149.346 L
333.834 149.108 L
334.268 148.869 L
334.702 148.628 L
335.136 148.386 L
335.57 148.143 L
336.004 147.898 L
336.438 147.652 L
336.872 147.406 L
337.306 147.158 L
337.74 146.908 L
338.174 146.658 L
338.608 146.407 L
339.042 146.154 L
339.476 145.9 L
339.91 145.645 L
340.344 145.389 L
340.778 145.132 L
341.212 144.873 L
341.646 144.614 L
342.08 144.354 L
342.514 144.092 L
342.948 143.829 L
343.382 143.565 L
343.816 143.301 L
344.25 143.035 L
344.684 142.768 L
345.118 142.5 L
345.552 142.231 L
345.986 141.961 L
346.42 141.69 L
346.854 141.419 L
347.288 141.146 L
347.722 140.872 L
348.156 140.598 L
348.59 140.322 L
349.024 140.046 L
349.458 139.769 L
349.892 139.491 L
350.326 139.212 L
350.76 138.932 L
351.194 138.652 L
351.628 138.371 L
352.062 138.089 L
352.496 137.806 L
352.93 137.523 L
353.364 137.239 L
353.798 136.954 L
354.232 136.669 L
354.666 136.383 L
355.1 136.097 L
355.534 135.81 L
355.968 135.522 L
356.402 135.234 L
356.836 134.946 L
357.27 134.657 L
357.704 134.368 L
358.138 134.078 L
358.572 133.788 L
359.006 133.497 L
359.44 133.207 L
359.874 132.916 L
360.308 132.624 L
360.742 132.333 L
361.176 132.041 L
361.61 131.749 L
362.044 131.457 L
362.478 131.165 L
362.912 130.872 L
363.346 130.58 L
363.78 130.288 L
364.214 129.995 L
364.648 129.703 L
365.082 129.41 L
365.516 129.118 L
365.95 128.826 L
366.384 128.534 L
366.818 128.242 L
367.252 127.95 L
367.686 127.659 L
368.12 127.368 L
368.554 127.077 L
368.988 126.786 L
369.422 126.496 L
369.856 126.206 L
370.29 125.916 L
370.724 125.627 L
371.158 125.339 L
371.592 125.05 L
372.026 124.763 L
372.46 124.475 L
372.894 124.189 L
373.328 123.902 L
373.762 123.617 L
374.196 123.332 L
374.63 123.048 L
375.064 122.764 L
375.498 122.481 L
375.932 122.199 L
376.366 121.917 L
376.8 121.636 L
377.234 121.356 L
377.668 121.077 L
378.102 120.798 L
378.536 120.521 L
378.97 120.244 L
379.404 119.968 L
379.838 119.693 L
380.272 119.419 L
380.706 119.145 L
381.14 118.873 L
381.574 118.602 L
382.008 118.331 L
382.442 118.062 L
382.876 117.793 L
383.31 117.526 L
383.744 117.259 L
384.178 116.994 L
384.612 116.729 L
385.046 116.466 L
385.48 116.204 L
385.914 115.942 L
386.348 115.682 L
386.782 115.423 L
387.216 115.165 L
387.65 114.908 L
388.084 114.652 L
388.518 114.398 L
388.952 114.144 L
389.386 113.892 L
389.82 113.641 L
390.254 113.391 L
390.688 113.142 L
391.122 112.894 L
391.556 112.648 L
391.99 112.403 L
392.424 112.159 L
392.858 111.916 L
393.292 111.674 L
393.726 111.433 L
394.16 111.194 L
394.594 110.956 L
395.028 110.719 L
395.462 110.484 L
395.896 110.249 L
396.33 110.016 L
396.764 109.784 L
397.198 109.553 L
397.632 109.324 L
398.066 109.096 L
398.5 108.869 L
398.934 108.643 L
399.368 108.419 L
399.802 108.195 L
400.236 107.973 L
400.67 107.753 L
401.104 107.533 L
401.538 107.315 L
401.972 107.098 L
402.406 106.882 L
402.84 106.668 L
403.274 106.455 L
403.708 106.243 L
404.142 106.032 L
404.576 105.822 L
405.01 105.614 L
405.444 105.407 L
405.878 105.202 L
406.312 104.997 L
406.746 104.794 L
407.18 104.592 L
407.614 104.391 L
408.048 104.192 L
408.482 103.994 L
408.916 103.797 L
409.35 103.601 L
409.784 103.407 L
410.218 103.214 L
410.652 103.022 L
411.086 102.831 L
411.52 102.641 L
411.954 102.453 L
412.388 102.266 L
412.822 102.08 L
413.256 101.895 L
413.69 101.712 L
414.124 101.53 L
414.558 101.349 L
414.992 101.169 L
415.426 100.99 L
415.86 100.813 L
416.294 100.636 L
416.728 100.461 L
417.162 100.287 L
417.596 100.114 L
418.03 99.943 L
418.464 99.772 L
418.898 99.603 L
419.332 99.435 L
419.766 99.268 L
420.2 99.101 L
420.634 98.937 L
421.068 98.773 L
421.502 98.61 L
421.936 98.448 L
422.37 98.287 L
422.804 98.128 L
423.238 97.969 L
423.672 97.812 L
424.106 97.655 L
424.54 97.499 L
424.974 97.345 L
425.408 97.191 L
425.842 97.038 L
426.276 96.887 L
426.71 96.736 L
427.144 96.586 L
427.578 96.436 L
428.012 96.288 L
428.446 96.141 L
428.88 95.994 L
429.314 95.848 L
429.748 95.703 L
430.182 95.559 L
430.616 95.415 L
431.05 95.273 L
431.484 95.13 L
431.918 94.989 L
432.352 94.848 L
432.786 94.708 L
433.22 94.568 L
433.654 94.429 L
434.088 94.291 L
434.522 94.153 L
434.956 94.016 L
435.39 93.879 L
435.824 93.742 L
436.258 93.606 L
436.692 93.471 L
437.126 93.336 L
437.56 93.201 L
437.994 93.066 L
438.428 92.932 L
438.862 92.798 L
439.296 92.664 L
439.73 92.531 L
440.164 92.397 L
440.598 92.264 L
441.032 92.131 L
441.466 91.998 L
441.9 91.865 L
442.334 91.732 L
442.768 91.599 L
443.202 91.466 L
443.636 91.334 L
444.07 91.201 L
444.504 91.067 L
444.938 90.934 L
445.372 90.801 L
445.806 90.667 L
446.24 90.534 L
446.674 90.4 L
447.108 90.265 L
447.542 90.131 L
447.976 89.996 L
448.41 89.86 L
448.844 89.725 L
449.278 89.589 L
449.712 89.452 L
450.146 89.315 L
450.58 89.178 L
451.014 89.04 L
451.448 88.901 L
451.882 88.762 L
452.316 88.623 L
452.75 88.482 L
453.184 88.341 L
453.618 88.2 L
454.052 88.058 L
454.486 87.915 L
454.92 87.771 L
455.354 87.627 L
455.788 87.482 L
456.222 87.336 L
456.656 87.189 L
457.09 87.041 L
457.524 86.893 L
457.958 86.744 L
458.392 86.593 L
458.826 86.442 L
459.26 86.29 L
459.694 86.137 L
460.128 85.984 L
460.562 85.829 L
460.996 85.673 L
461.43 85.516 L
461.864 85.358 L
462.298 85.2 L
462.732 85.04 L
463.166 84.879 L
463.6 84.717 L
464.034 84.554 L
464.468 84.39 L
464.902 84.225 L
465.336 84.058 L
465.77 83.891 L
466.204 83.722 L
466.638 83.553 L
467.072 83.382 L
467.506 83.21 L
467.94 83.037 L
468.374 82.862 L
468.808 82.687 L
469.242 82.51 L
469.676 82.333 L
470.11 82.154 L
470.544 81.973 L
470.978 81.792 L
471.412 81.609 L
471.846 81.426 L
472.28 81.24 L
472.714 81.054 L
473.148 80.867 L
473.582 80.678 L
474.016 80.488 L
474.45 80.297 L
474.884 80.104 L
475.318 79.911 L
475.752 79.716 L
476.186 79.52 L
476.62 79.322 L
477.054 79.123 L
477.488 78.924 L
477.922 78.722 L
478.356 78.52 L
478.79 78.316 L
479.224 78.111 L
479.658 77.905 L
480.092 77.697 L
480.526 77.489 L
480.96 77.279 L
481.394 77.067 L
481.828 76.855 L
482.262 76.641 L
482.696 76.426 L
483.13 76.209 L
483.564 75.992 L
483.998 75.773 L
484.432 75.553 L
484.866 75.331 L
485.3 75.109 L
485.734 74.885 L
486.168 74.66 L
486.602 74.433 L
487.036 74.205 L
487.47 73.977 L
487.904 73.746 L
488.338 73.515 L
488.772 73.282 L
489.206 73.048 L
489.64 72.813 L
490.074 72.577 L
490.508 72.339 L
490.942 72.1 L
491.376 71.86 L
491.81 71.619 L
492.244 71.376 L
492.678 71.133 L
493.112 70.888 L
493.546 70.642 L
493.98 70.394 L
494.414 70.146 L
494.848 69.896 L
495.282 69.645 L
495.716 69.393 L
496.15 69.14 L
496.584 68.886 L
497.018 68.631 L
497.452 68.374 L
497.886 68.116 L
498.32 67.858 L
498.754 67.598 L
499.188 67.337 L
499.622 67.075 L
500.056 66.812 L
500.49 66.547 L
500.924 66.282 L
501.358 66.016 L
501.792 65.749 L
502.226 65.48 L
502.66 65.211 L
503.094 64.941 L
503.528 64.669 L
503.962 64.397 L
504.396 64.124 L
504.83 63.85 L
505.264 63.575 L
505.698 63.299 L
506.132 63.023 L
506.566 62.745 L
507 62.467 L
S
GR
GS
0.851 0.325 0.098 RC
1 LJ
2 LW
N
73 269.226 M
73.434 269.25 L
73.868 269.275 L
74.302 269.302 L
74.736 269.329 L
75.17 269.358 L
75.604 269.388 L
76.038 269.419 L
76.472 269.452 L
76.906 269.486 L
77.34 269.521 L
77.774 269.557 L
78.208 269.594 L
78.642 269.633 L
79.076 269.673 L
79.51 269.715 L
79.944 269.757 L
80.378 269.801 L
80.812 269.846 L
81.246 269.893 L
81.68 269.941 L
82.114 269.99 L
82.548 270.04 L
82.982 270.092 L
83.416 270.145 L
83.85 270.2 L
84.284 270.255 L
84.718 270.312 L
85.152 270.371 L
85.586 270.431 L
86.02 270.492 L
86.454 270.554 L
86.888 270.618 L
87.322 270.683 L
87.756 270.75 L
88.19 270.818 L
88.624 270.887 L
89.058 270.958 L
89.492 271.03 L
89.926 271.103 L
90.36 271.178 L
90.794 271.254 L
91.228 271.332 L
91.662 271.411 L
92.096 271.491 L
92.53 271.573 L
92.964 271.656 L
93.398 271.74 L
93.832 271.826 L
94.266 271.913 L
94.7 272.001 L
95.134 272.091 L
95.568 272.183 L
96.002 272.275 L
96.436 272.369 L
96.87 272.465 L
97.304 272.562 L
97.738 272.66 L
98.172 272.759 L
98.606 272.86 L
99.04 272.962 L
99.474 273.066 L
99.908 273.171 L
100.342 273.277 L
100.776 273.385 L
101.21 273.494 L
101.644 273.604 L
102.078 273.716 L
102.512 273.829 L
102.946 273.943 L
103.38 274.059 L
103.814 274.176 L
104.248 274.294 L
104.682 274.414 L
105.116 274.535 L
105.55 274.657 L
105.984 274.781 L
106.418 274.905 L
106.852 275.031 L
107.286 275.159 L
107.72 275.287 L
108.154 275.417 L
108.588 275.548 L
109.022 275.68 L
109.456 275.813 L
109.89 275.948 L
110.324 276.084 L
110.758 276.221 L
111.192 276.359 L
111.626 276.498 L
112.06 276.638 L
112.494 276.78 L
112.928 276.922 L
113.362 277.066 L
113.796 277.211 L
114.23 277.356 L
114.664 277.503 L
115.098 277.651 L
115.532 277.799 L
115.966 277.949 L
116.4 278.1 L
116.834 278.251 L
117.268 278.404 L
117.702 278.557 L
118.136 278.712 L
118.57 278.867 L
119.004 279.023 L
119.438 279.179 L
119.872 279.337 L
120.306 279.495 L
120.74 279.654 L
121.174 279.814 L
121.608 279.974 L
122.042 280.135 L
122.476 280.297 L
122.91 280.459 L
123.344 280.622 L
123.778 280.785 L
124.212 280.949 L
124.646 281.114 L
125.08 281.279 L
125.514 281.444 L
125.948 281.61 L
126.382 281.776 L
126.816 281.942 L
127.25 282.109 L
127.684 282.276 L
128.118 282.443 L
128.552 282.611 L
128.986 282.779 L
129.42 282.947 L
129.854 283.115 L
130.288 283.283 L
130.722 283.452 L
131.156 283.62 L
131.59 283.789 L
132.024 283.957 L
132.458 284.125 L
132.892 284.294 L
133.326 284.462 L
133.76 284.63 L
134.194 284.798 L
134.628 284.966 L
135.062 285.134 L
135.496 285.302 L
135.93 285.469 L
136.364 285.636 L
136.798 285.803 L
137.232 285.969 L
137.666 286.135 L
138.1 286.301 L
138.534 286.466 L
138.968 286.631 L
139.402 286.795 L
139.836 286.959 L
140.27 287.122 L
140.704 287.285 L
141.138 287.447 L
141.572 287.609 L
142.006 287.77 L
142.44 287.93 L
142.874 288.09 L
143.308 288.249 L
143.742 288.408 L
144.176 288.566 L
144.61 288.723 L
145.044 288.879 L
145.478 289.035 L
145.912 289.19 L
146.346 289.344 L
146.78 289.497 L
147.214 289.649 L
147.648 289.801 L
148.082 289.951 L
148.516 290.101 L
148.95 290.25 L
149.384 290.398 L
149.818 290.545 L
150.252 290.691 L
150.686 290.837 L
151.12 290.981 L
151.554 291.124 L
151.988 291.266 L
152.422 291.408 L
152.856 291.548 L
153.29 291.687 L
153.724 291.825 L
154.158 291.962 L
154.592 292.099 L
155.026 292.234 L
155.46 292.368 L
155.894 292.5 L
156.328 292.632 L
156.762 292.763 L
157.196 292.893 L
157.63 293.021 L
158.064 293.149 L
158.498 293.275 L
158.932 293.4 L
159.366 293.524 L
159.8 293.647 L
160.234 293.769 L
160.668 293.889 L
161.102 294.008 L
161.536 294.127 L
161.97 294.244 L
162.404 294.36 L
162.838 294.474 L
163.272 294.588 L
163.706 294.7 L
164.14 294.811 L
164.574 294.921 L
165.008 295.03 L
165.442 295.138 L
165.876 295.244 L
166.31 295.349 L
166.744 295.453 L
167.178 295.556 L
167.612 295.657 L
168.046 295.758 L
168.48 295.857 L
168.914 295.955 L
169.348 296.051 L
169.782 296.147 L
170.216 296.241 L
170.65 296.334 L
171.084 296.426 L
171.518 296.517 L
171.952 296.606 L
172.386 296.694 L
172.82 296.781 L
173.254 296.867 L
173.688 296.951 L
174.122 297.035 L
174.556 297.117 L
174.99 297.198 L
175.424 297.277 L
175.858 297.356 L
176.292 297.433 L
176.726 297.509 L
177.16 297.584 L
177.594 297.658 L
178.028 297.73 L
178.462 297.802 L
178.896 297.872 L
179.33 297.941 L
179.764 298.009 L
180.198 298.075 L
180.632 298.141 L
181.066 298.205 L
181.5 298.268 L
181.934 298.331 L
182.368 298.392 L
182.802 298.451 L
183.236 298.51 L
183.67 298.568 L
184.104 298.624 L
184.538 298.68 L
184.972 298.734 L
185.406 298.788 L
185.84 298.84 L
186.274 298.891 L
186.708 298.941 L
187.142 298.99 L
187.576 299.039 L
188.01 299.086 L
188.444 299.132 L
188.878 299.177 L
189.312 299.222 L
189.746 299.265 L
190.18 299.308 L
190.614 299.349 L
191.048 299.39 L
191.482 299.43 L
191.916 299.469 L
192.35 299.507 L
192.784 299.544 L
193.218 299.581 L
193.652 299.617 L
194.086 299.652 L
194.52 299.686 L
194.954 299.72 L
195.388 299.753 L
195.822 299.785 L
196.256 299.817 L
196.69 299.848 L
197.124 299.878 L
197.558 299.908 L
197.992 299.938 L
198.426 299.966 L
198.86 299.995 L
199.294 300.023 L
199.728 300.05 L
200.162 300.077 L
200.596 300.104 L
201.03 300.13 L
201.464 300.156 L
201.898 300.181 L
202.332 300.207 L
202.766 300.232 L
203.2 300.257 L
203.634 300.281 L
204.068 300.306 L
204.502 300.33 L
204.936 300.354 L
205.37 300.378 L
205.804 300.402 L
206.238 300.426 L
206.672 300.45 L
207.106 300.474 L
207.54 300.498 L
207.974 300.522 L
208.408 300.547 L
208.842 300.571 L
209.276 300.596 L
209.71 300.62 L
210.144 300.645 L
210.578 300.671 L
211.012 300.696 L
211.446 300.722 L
211.88 300.748 L
212.314 300.775 L
212.748 300.802 L
213.182 300.829 L
213.616 300.857 L
214.05 300.885 L
214.484 300.914 L
214.918 300.943 L
215.352 300.973 L
215.786 301.003 L
216.22 301.034 L
216.654 301.065 L
217.088 301.098 L
217.522 301.13 L
217.956 301.164 L
218.39 301.198 L
218.824 301.233 L
219.258 301.268 L
219.692 301.305 L
220.126 301.342 L
220.56 301.38 L
220.994 301.419 L
221.428 301.458 L
221.862 301.499 L
222.296 301.54 L
222.73 301.582 L
223.164 301.625 L
223.598 301.669 L
224.032 301.714 L
224.466 301.76 L
224.9 301.807 L
225.334 301.855 L
225.768 301.904 L
226.202 301.954 L
226.636 302.005 L
227.07 302.056 L
227.504 302.109 L
227.938 302.163 L
228.372 302.218 L
228.806 302.274 L
229.24 302.331 L
229.674 302.39 L
230.108 302.449 L
230.542 302.509 L
230.976 302.571 L
231.41 302.634 L
231.844 302.697 L
232.278 302.762 L
232.712 302.828 L
233.146 302.896 L
233.58 302.964 L
234.014 303.034 L
234.448 303.104 L
234.882 303.176 L
235.316 303.249 L
235.75 303.323 L
236.184 303.399 L
236.618 303.475 L
237.052 303.553 L
237.486 303.632 L
237.92 303.712 L
238.354 303.793 L
238.788 303.876 L
239.222 303.96 L
239.656 304.045 L
240.09 304.131 L
240.524 304.218 L
240.958 304.307 L
241.392 304.397 L
241.826 304.488 L
242.26 304.58 L
242.694 304.673 L
243.128 304.768 L
243.562 304.864 L
243.996 304.961 L
244.43 305.059 L
244.864 305.159 L
245.298 305.259 L
245.732 305.361 L
246.166 305.465 L
246.6 305.569 L
247.034 305.675 L
247.468 305.781 L
247.902 305.89 L
248.336 305.999 L
248.77 306.109 L
249.204 306.221 L
249.638 306.334 L
250.072 306.448 L
250.506 306.564 L
250.94 306.68 L
251.374 306.798 L
251.808 306.917 L
252.242 307.037 L
252.676 307.159 L
253.11 307.281 L
253.544 307.405 L
253.978 307.53 L
254.412 307.656 L
254.846 307.784 L
255.28 307.913 L
255.714 308.042 L
256.148 308.173 L
256.582 308.305 L
257.016 308.439 L
257.45 308.573 L
257.884 308.709 L
258.318 308.846 L
258.752 308.984 L
259.186 309.123 L
259.62 309.263 L
260.054 309.405 L
260.488 309.547 L
260.922 309.691 L
261.356 309.836 L
261.79 309.982 L
262.224 310.129 L
262.658 310.277 L
263.092 310.426 L
263.526 310.576 L
263.96 310.728 L
264.394 310.88 L
264.828 311.033 L
265.262 311.188 L
265.696 311.343 L
266.13 311.5 L
266.564 311.658 L
266.998 311.816 L
267.432 311.976 L
267.866 312.136 L
268.3 312.297 L
268.734 312.46 L
269.168 312.623 L
269.602 312.787 L
270.036 312.952 L
270.47 313.118 L
270.904 313.285 L
271.338 313.453 L
271.772 313.621 L
272.206 313.79 L
272.64 313.961 L
273.074 314.131 L
273.508 314.303 L
273.942 314.475 L
274.376 314.648 L
274.81 314.822 L
275.244 314.996 L
275.678 315.171 L
276.112 315.347 L
276.546 315.523 L
276.98 315.7 L
277.414 315.877 L
277.848 316.055 L
278.282 316.233 L
278.716 316.412 L
279.15 316.592 L
279.584 316.771 L
280.018 316.951 L
280.452 317.132 L
280.886 317.313 L
281.32 317.494 L
281.754 317.675 L
282.188 317.857 L
282.622 318.039 L
283.056 318.221 L
283.49 318.403 L
283.924 318.585 L
284.358 318.768 L
284.792 318.951 L
285.226 319.133 L
285.66 319.316 L
286.094 319.499 L
286.528 319.682 L
286.962 319.864 L
287.396 320.047 L
287.83 320.229 L
288.264 320.412 L
288.698 320.594 L
289.132 320.776 L
289.566 320.957 L
290 321.139 L
290.434 321.32 L
290.868 321.501 L
291.302 321.681 L
291.736 321.862 L
292.17 322.041 L
292.604 322.221 L
293.038 322.399 L
293.472 322.578 L
293.906 322.756 L
294.34 322.933 L
294.774 323.11 L
295.208 323.286 L
295.642 323.461 L
296.076 323.636 L
296.51 323.811 L
296.944 323.984 L
297.378 324.157 L
297.812 324.329 L
298.246 324.501 L
298.68 324.671 L
299.114 324.841 L
299.548 325.01 L
299.982 325.178 L
300.416 325.345 L
300.85 325.512 L
301.284 325.677 L
301.718 325.841 L
302.152 326.005 L
302.586 326.168 L
303.02 326.329 L
303.454 326.49 L
303.888 326.649 L
304.322 326.808 L
304.756 326.965 L
305.19 327.122 L
305.624 327.277 L
306.058 327.431 L
306.492 327.585 L
306.926 327.737 L
307.36 327.887 L
307.794 328.037 L
308.228 328.186 L
308.662 328.333 L
309.096 328.479 L
309.53 328.624 L
309.964 328.768 L
310.398 328.91 L
310.832 329.052 L
311.266 329.192 L
311.7 329.331 L
312.134 329.468 L
312.568 329.604 L
313.002 329.739 L
313.436 329.873 L
313.87 330.006 L
314.304 330.137 L
314.738 330.267 L
315.172 330.395 L
315.606 330.522 L
316.04 330.648 L
316.474 330.773 L
316.908 330.896 L
317.342 331.018 L
317.776 331.139 L
318.21 331.258 L
318.644 331.376 L
319.078 331.492 L
319.512 331.608 L
319.946 331.721 L
320.38 331.834 L
320.814 331.945 L
321.248 332.055 L
321.682 332.163 L
322.116 332.27 L
322.55 332.376 L
322.984 332.48 L
323.418 332.583 L
323.852 332.685 L
324.286 332.785 L
324.72 332.884 L
325.154 332.981 L
325.588 333.078 L
326.022 333.172 L
326.456 333.266 L
326.89 333.358 L
327.324 333.449 L
327.758 333.538 L
328.192 333.626 L
328.626 333.713 L
329.06 333.798 L
329.494 333.882 L
329.928 333.964 L
330.362 334.046 L
330.796 334.126 L
331.23 334.204 L
331.664 334.282 L
332.098 334.358 L
332.532 334.432 L
332.966 334.506 L
333.4 334.578 L
333.834 334.649 L
334.268 334.718 L
334.702 334.786 L
335.136 334.853 L
335.57 334.919 L
336.004 334.983 L
336.438 335.046 L
336.872 335.108 L
337.306 335.169 L
337.74 335.228 L
338.174 335.287 L
338.608 335.344 L
339.042 335.399 L
339.476 335.454 L
339.91 335.507 L
340.344 335.56 L
340.778 335.611 L
341.212 335.661 L
341.646 335.71 L
342.08 335.758 L
342.514 335.804 L
342.948 335.85 L
343.382 335.894 L
343.816 335.938 L
344.25 335.98 L
344.684 336.022 L
345.118 336.062 L
345.552 336.101 L
345.986 336.14 L
346.42 336.177 L
346.854 336.214 L
347.288 336.25 L
347.722 336.284 L
348.156 336.318 L
348.59 336.351 L
349.024 336.383 L
349.458 336.414 L
349.892 336.445 L
350.326 336.475 L
350.76 336.504 L
351.194 336.532 L
351.628 336.559 L
352.062 336.586 L
352.496 336.612 L
352.93 336.638 L
353.364 336.663 L
353.798 336.687 L
354.232 336.711 L
354.666 336.734 L
355.1 336.757 L
355.534 336.779 L
355.968 336.801 L
356.402 336.822 L
356.836 336.843 L
357.27 336.864 L
357.704 336.884 L
358.138 336.904 L
358.572 336.923 L
359.006 336.942 L
359.44 336.961 L
359.874 336.98 L
360.308 336.999 L
360.742 337.017 L
361.176 337.036 L
361.61 337.054 L
362.044 337.072 L
362.478 337.09 L
362.912 337.108 L
363.346 337.126 L
363.78 337.144 L
364.214 337.162 L
364.648 337.18 L
365.082 337.198 L
365.516 337.217 L
365.95 337.236 L
366.384 337.254 L
366.818 337.273 L
367.252 337.293 L
367.686 337.312 L
368.12 337.332 L
368.554 337.352 L
368.988 337.373 L
369.422 337.393 L
369.856 337.415 L
370.29 337.436 L
370.724 337.459 L
371.158 337.481 L
371.592 337.504 L
372.026 337.528 L
372.46 337.552 L
372.894 337.577 L
373.328 337.602 L
373.762 337.628 L
374.196 337.654 L
374.63 337.681 L
375.064 337.709 L
375.498 337.738 L
375.932 337.767 L
376.366 337.797 L
376.8 337.827 L
377.234 337.859 L
377.668 337.891 L
378.102 337.924 L
378.536 337.957 L
378.97 337.992 L
379.404 338.027 L
379.838 338.063 L
380.272 338.1 L
380.706 338.138 L
381.14 338.177 L
381.574 338.216 L
382.008 338.257 L
382.442 338.298 L
382.876 338.34 L
383.31 338.384 L
383.744 338.428 L
384.178 338.473 L
384.612 338.519 L
385.046 338.566 L
385.48 338.614 L
385.914 338.663 L
386.348 338.713 L
386.782 338.764 L
387.216 338.816 L
387.65 338.868 L
388.084 338.922 L
388.518 338.977 L
388.952 339.033 L
389.386 339.09 L
389.82 339.148 L
390.254 339.207 L
390.688 339.267 L
391.122 339.328 L
391.556 339.39 L
391.99 339.453 L
392.424 339.517 L
392.858 339.583 L
393.292 339.649 L
393.726 339.716 L
394.16 339.784 L
394.594 339.854 L
395.028 339.924 L
395.462 339.995 L
395.896 340.068 L
396.33 340.142 L
396.764 340.216 L
397.198 340.292 L
397.632 340.368 L
398.066 340.446 L
398.5 340.525 L
398.934 340.605 L
399.368 340.686 L
399.802 340.768 L
400.236 340.851 L
400.67 340.935 L
401.104 341.02 L
401.538 341.106 L
401.972 341.193 L
402.406 341.281 L
402.84 341.37 L
403.274 341.461 L
403.708 341.552 L
404.142 341.644 L
404.576 341.738 L
405.01 341.832 L
405.444 341.928 L
405.878 342.024 L
406.312 342.122 L
406.746 342.22 L
407.18 342.32 L
407.614 342.42 L
408.048 342.522 L
408.482 342.625 L
408.916 342.728 L
409.35 342.833 L
409.784 342.939 L
410.218 343.046 L
410.652 343.153 L
411.086 343.262 L
411.52 343.372 L
411.954 343.482 L
412.388 343.594 L
412.822 343.707 L
413.256 343.821 L
413.69 343.935 L
414.124 344.051 L
414.558 344.168 L
414.992 344.285 L
415.426 344.404 L
415.86 344.523 L
416.294 344.644 L
416.728 344.765 L
417.162 344.888 L
417.596 345.011 L
418.03 345.135 L
418.464 345.261 L
418.898 345.387 L
419.332 345.514 L
419.766 345.642 L
420.2 345.771 L
420.634 345.9 L
421.068 346.031 L
421.502 346.163 L
421.936 346.295 L
422.37 346.428 L
422.804 346.562 L
423.238 346.697 L
423.672 346.833 L
424.106 346.969 L
424.54 347.107 L
424.974 347.245 L
425.408 347.384 L
425.842 347.523 L
426.276 347.664 L
426.71 347.805 L
427.144 347.947 L
427.578 348.089 L
428.012 348.233 L
428.446 348.377 L
428.88 348.521 L
429.314 348.666 L
429.748 348.812 L
430.182 348.959 L
430.616 349.106 L
431.05 349.253 L
431.484 349.402 L
431.918 349.55 L
432.352 349.7 L
432.786 349.849 L
433.22 349.999 L
433.654 350.15 L
434.088 350.301 L
434.522 350.453 L
434.956 350.604 L
435.39 350.757 L
435.824 350.909 L
436.258 351.062 L
436.692 351.215 L
437.126 351.369 L
437.56 351.522 L
437.994 351.676 L
438.428 351.83 L
438.862 351.984 L
439.296 352.139 L
439.73 352.293 L
440.164 352.448 L
440.598 352.602 L
441.032 352.757 L
441.466 352.912 L
441.9 353.066 L
442.334 353.221 L
442.768 353.375 L
443.202 353.53 L
443.636 353.684 L
444.07 353.838 L
444.504 353.992 L
444.938 354.146 L
445.372 354.299 L
445.806 354.453 L
446.24 354.606 L
446.674 354.758 L
447.108 354.911 L
447.542 355.062 L
447.976 355.214 L
448.41 355.365 L
448.844 355.516 L
449.278 355.666 L
449.712 355.815 L
450.146 355.965 L
450.58 356.113 L
451.014 356.261 L
451.448 356.409 L
451.882 356.555 L
452.316 356.701 L
452.75 356.847 L
453.184 356.991 L
453.618 357.135 L
454.052 357.279 L
454.486 357.421 L
454.92 357.563 L
455.354 357.704 L
455.788 357.844 L
456.222 357.983 L
456.656 358.121 L
457.09 358.258 L
457.524 358.395 L
457.958 358.53 L
458.392 358.665 L
458.826 358.799 L
459.26 358.931 L
459.694 359.063 L
460.128 359.193 L
460.562 359.323 L
460.996 359.451 L
461.43 359.579 L
461.864 359.705 L
462.298 359.83 L
462.732 359.954 L
463.166 360.077 L
463.6 360.199 L
464.034 360.32 L
464.468 360.439 L
464.902 360.557 L
465.336 360.674 L
465.77 360.79 L
466.204 360.905 L
466.638 361.018 L
467.072 361.131 L
467.506 361.242 L
467.94 361.351 L
468.374 361.46 L
468.808 361.567 L
469.242 361.673 L
469.676 361.778 L
470.11 361.881 L
470.544 361.983 L
470.978 362.084 L
471.412 362.183 L
471.846 362.282 L
472.28 362.378 L
472.714 362.474 L
473.148 362.568 L
473.582 362.661 L
474.016 362.753 L
474.45 362.843 L
474.884 362.932 L
475.318 363.019 L
475.752 363.105 L
476.186 363.19 L
476.62 363.274 L
477.054 363.356 L
477.488 363.437 L
477.922 363.516 L
478.356 363.595 L
478.79 363.671 L
479.224 363.747 L
479.658 363.821 L
480.092 363.894 L
480.526 363.965 L
480.96 364.035 L
481.394 364.104 L
481.828 364.171 L
482.262 364.237 L
482.696 364.302 L
483.13 364.365 L
483.564 364.428 L
483.998 364.488 L
484.432 364.548 L
484.866 364.606 L
485.3 364.663 L
485.734 364.718 L
486.168 364.772 L
486.602 364.825 L
487.036 364.877 L
487.47 364.927 L
487.904 364.976 L
488.338 365.024 L
488.772 365.07 L
489.206 365.116 L
489.64 365.159 L
490.074 365.202 L
490.508 365.244 L
490.942 365.284 L
491.376 365.323 L
491.81 365.361 L
492.244 365.397 L
492.678 365.433 L
493.112 365.467 L
493.546 365.5 L
493.98 365.532 L
494.414 365.562 L
494.848 365.592 L
495.282 365.62 L
495.716 365.648 L
496.15 365.674 L
496.584 365.699 L
497.018 365.723 L
497.452 365.746 L
497.886 365.768 L
498.32 365.789 L
498.754 365.808 L
499.188 365.827 L
499.622 365.845 L
500.056 365.862 L
500.49 365.877 L
500.924 365.892 L
501.358 365.906 L
501.792 365.919 L
502.226 365.931 L
502.66 365.942 L
503.094 365.953 L
503.528 365.962 L
503.962 365.971 L
504.396 365.979 L
504.83 365.986 L
505.264 365.992 L
505.698 365.998 L
506.132 366.003 L
506.566 366.007 L
507 366.01 L
S
GR
GS
1 GC
N
203 89 M
203 39.5 L
81 39.5 L
81 89 L
cp
f
GR
GS
[1 0 0 1 118 52.75] CT
/Times-Roman 20 F
GS
[1 0 0 1 0 0] CT
0 6.5 moveto 
1 -1 scale
(linear) t 
GR
GR
GS
0 0.447 0.741 RC
1 LJ
2 LW
N
85 52.75 M
115 52.75 L
S
GR
GS
[1 0 0 1 118 75.75] CT
/Times-Roman 20 F
GS
[1 0 0 1 0 0] CT
0 6.5 moveto 
1 -1 scale
(non linear) t 
GR
GR
GS
0.851 0.325 0.098 RC
1 LJ
2 LW
N
85 75.75 M
115 75.75 L
S
GR
GS
0.149 GC
10.0 ML
0.5 LW
N
81 89 M
81 39.5 L
203 39.5 L
203 89 L
cp
S
GR
%%Trailer
%%Pages: 1
%%EOF
